*(.text.lte_ml1_schdlr2_obj_get_priority)
*(.text.lte_ml1_mem_query_instance)
*(.text.lte_ml1_schdlr2_ll_node_exists)
*(.text.lte_ml1_schdlr2_obj_get_state_at_time)
*(.text.lte_ml1_schdlr_get_current_systime_info)
*(.text.lte_ml1_schdlr_query)
*(.text.lte_ml1_schdlr2_ll_push)
*(.text.lte_ml1_schdlr2_ll_pop)
*(.text.lte_ml1_gm_in_tdd_mode)
*(.text.lte_ml1_schdlr2_systime_get_systime)
*(.text.lte_ml1_schdlr2_obj_get_object)
*(.text.lte_ml1_memcpy)
*(.text.lte_ml1_schdlr2_ll_remove)
*(.text.lte_ml1_dlm_get_dlm_data)
*(.text.lte_ml1_schdlr2_systime_scell_is_ccell)
*(.text.lte_ml1_schdlr2_obj_list_get_priority_at_time)
*(.text.lte_ml1_schdlr2_cswitch_in_progress)
*(.text.lte_ml1_dlm_ca_get_cc_ml_id)
*(.text.lte_rlcdl_get_ctrl_pdu_size)
*(.text.lte_rlculi_set_wm_latency_stats)
*(.text.lte_get_plt_mode_enabled)
*(.text.lte_l2_timer_cb)
*(.text.lte_ml1_gm_sm_debug_handler)
*(.text.lte_dsmi_extract_3byte)
*(.text.lte_pdcpul_get_rb_cb)
*(.text.lte_ml1_gm_init_phychan_sched_p_max)
*(.text.lte_ml1_schdlr2_group_process)
*(.text.lte_ml1_schdlr2_ll_insert_sort)
*(.text.lte_rlcdli_get_li)
*(.text.lte_pdcpul_update_data_stats)
*(.text.lte_rlcul_tx_max_pdcp_pdus_limit_reached)
*(.text.lte_ml1_gm_srs_aper_is_enabled)
*(.text.lte_pdcp_comp_get_ps_pdcpcomp_buffer_size)
*(.text.lte_rlcul_tx_assign_allotment)
*(.text.lte_rlc_reset_scratch_harq_info)
*(.text.lte_rlc_dbg_get)
*(.text.lte_rlcdl_cfg_get_ctrl_blk)
*(.text.lte_ml1_schdlr2_cswitch_get_unknown_timeline_flag)
*(.text.lte_ml1_schdlr2_obj_set_pre_arb)
*(.text.lte_l2_common_get_3_4_ms_diff)
*(.text.lte_ml1_dlm_qsh_dbg_update_total_trblk)
*(.text.lte_ml1_dlm_qsh_dbg_update_total_trblk_pass)
*(.text.lte_ml1_gm_get_task_info)
*(.text.lte_ml1_gm_proc_pdsch_stat_ind)
*(.text.lte_ml1_gm_clear_and_get_scc_idx_from_scc_grant_mask)
*(.text.lte_rlcul_tx_calc_mac_hdr_size_suff_allot)
*(.text.lte_ml1_schdlr2_obj_is_livable)
*(.text.lte_ml1_schdlr2_stm_sctl_sched_req_cmd)
*(.text.lte_ml1_schdlr_same_thread_service_req)
*(.text.lte_ml1_dlm_cfg_get_antenna_cfg)
*(.text.lte_pdcpul_flow_enabled)
*(.text.lte_ml1_gm_csf_reset_tx_info)
*(.text.lte_ml1_schdlr2_obj_reset_priority)
*(.text.lte_ml1_coex_metrics_rb_stats)
*(.text.lte_rlcdli_signal_pdcp)
*(.text.lte_ml1_common_nv_get)
*(.text.lte_rlcdli_sdu_chain_append)
*(.text.lte_ml1_schdlr2_obj_get_state)
*(.text.lte_ml1_gm_clear_and_get_scc_idx_from_scc_mask)
*(.text.lte_rlcul_tx_write_a2_tasks)
*(.text.lte_mac_qos_enable_sr_request)
*(.text.lte_ml1_schdlr_req_list_get_request_priority)
*(.text.lte_ml1_gm_diag_get_up3_capture_status)
*(.text.lte_rlculi_get_ctrl_blk_by_lc_id)
*(.text.lte_ml1_schdlr2_systime_get_sf_now)
*(.text.lte_ml1_gm_log_status_internal)
*(.text.lte_ml1_schdlr_arb_arbitrate)
*(.text.lte_ml1_schdlr2_event_list_add_event)
*(.text.lte_ml1_schdlr_get_mutex)
*(.text.lte_ml1_schdlr2_obj_get_group_id)
*(.text.lte_ml1_gm_log_last_inmsg_done_time)
*(.text.lte_circ_q_update_write_pointer)
*(.text.lte_ml1_schdlr2_obj_list_add_object)
*(.text.lte_ml1_schdlr2_ll_add_to_tail)
*(.text.lte_rlcul_tx_get_new_sdu_info)
*(.text.lte_rlc_build_pdus)
*(.text.lte_ml1_schdlr_stm_process_input)
*(.text.lte_ml1_schdlr_log_event_obj_change)
*(.text.lte_rlcul_tx_update_harq_2_pdu_fields)
*(.text.lte_ml1_common_get_duplex_mode)
*(.text.lte_rlcul_tx_add_li)
*(.text.lte_ml1_common_nv_cfg_is_lte_ns_mode)
*(.text.lte_ml1_gh_validate_pdcch_ind)
*(.text.lte_ml1_schdlr2_obj_add_object_event)
*(.text.lte_ml1_schdlr2_obj_list_drop_object)
*(.text.lte_rlcul_am_build_new_pdus)
*(.text.lte_ml1_schdlr2_obj_check_for_reschedule)
*(.text.lte_ml1_hm_init_grant_info_db)
*(.text.lte_ml1_schdlr2_event_list_get_cdw_priority)
*(.text.lte_ml1_mgr_log_last_inmsg_done_time)
*(.text.lte_ml1_common_qsh_populate_bler)
*(.text.lte_ml1_schdlr_gm_pre_arb_service_req)
*(.text.lte_ml1_schdlr_log_event_callback)
*(.text.lte_rlcdli_extract_lis)
*(.text.lte_ml1_log_incoming_exception_msgs)
*(.text.lte_rlcdl_rx_proc_pdus)
*(.text.lte_ml1_schdlr2_obj_drop_object_event)
*(.text.lte_ml1_common_rssi_cmapi_update_rx_info)
*(.text.lte_ml1_hm_populate_ul_grant_info)
*(.text.lte_rlcdli_flush_elem)
*(.text.lte_ml1_common_get_dl_pl)
*(.text.lte_ml1_schdlr2_cswitch_get_request)
*(.text.lte_ml1_schdlr2_mode_get_arb_mode)
*(.text.lte_ml1_schdlr2_obj_reset_sleep_friendliness)
*(.text.lte_ml1_schdlr2_obj_list_get_list)
*(.text.lte_ml1_schdlr_send_dog_timer_enable)
*(.text.lte_ml1_send)
*(.text.lte_ml1_schdlr_log_event_sanity_check)
*(.text.lte_mac_dl_extract_mac_sub_header)
*(.text.lte_ml1_common_nv_cfg_is_lte_default_mode)
*(.text.lte_ml1_dlm_log_pdsch_stat_ind)
*(.text.lte_ml1_common_stm_log_state_change)
*(.text.lte_circ_q_get_write_pointer)
*(.text.lte_mac_dl_process_mac_pdu)
*(.text.lte_rlculi_dsm_chain_enqueue)
*(.text.lte_rlcdli_detect_huge_sdu)
*(.text.lte_ml1_schdlr_req_list_get_request_friendliness_bmask)
*(.text.lte_ml1_common_rssi_get_ul_modulation)
*(.text.lte_ml1_common_nv_cfg_is_coex_enabled)
*(.text.lte_ml1_coex_srs_present)
*(.text.lte_rlcdl_hdr_parse_am)
*(.text.lte_ml1_schdlr2_stm_debug_handler)
*(.text.lte_ml1_gh_process_dl_grant_info)
*(.text.lte_rlcdl_am_proc_pdu)
*(.text.lte_ml1_schdlr_log_add)
*(.text.lte_ml1_hp_get_ul_timing_offset)
*(.text.lte_rlc_get_buffer_status)
*(.text.lte_pdcpul_encap_pdcp_hdr)
*(.text.lte_rlcul_update_pdu_payload_info)
*(.text.lte_ml1_schdlr2_req_list_get_list)
*(.text.lte_mac_ul_data_get_qos_prep_info)
*(.text.lte_ml1_gm_dispatch)
*(.text.lte_mac_common_update_read_status)
*(.text.lte_ml1_hp_get_pusch_tx_timing)
*(.text.lte_dsmi_extract_2byte)
*(.text.lte_ml1_hp_process_scc_ctrl_info)
*(.text.lte_mac_ul_data_main_handler)
*(.text.lte_ml1_schdlr2_systime_update_on_tick)
*(.text.lte_ml1_schdlr_profile_get_time)
*(.text.lte_pdcpul_get_ps_pdcp_buffer_size)
*(.text.lte_ml1_coex_set_serving_cell_timeline_flag)
*(.text.lte_ml1_coex_populate_priority)
*(.text.lte_mac_ul_data_build_mac_pdu)
*(.text.lte_mac_dl_extract_mac_sub_payload)
*(.text.lte_mac_common_get_read_ptr)
*(.text.lte_ml1_schdlr2_event_list_drop_event)
*(.text.lte_mac_dl_a2_dl_phy_cb)
*(.text.lte_ml1_gm_proc_pdcch_phich_ind)
*(.text.lte_ml1_gm_process_ll_msg)
*(.text.lte_ml1_hp_populate_first_tx_info)
*(.text.lte_rlcdl_hdr_update_derived_info)
*(.text.lte_pdcpul_get_pdcp_hdr_cipher_info)
*(.text.lte_ml1_common_nv_cfg_get_dlm_cfg_app_mask)
*(.text.lte_ml1_schdlr_log_service_request)
*(.text.lte_ml1_convert_bw_to_bw_index)
*(.text.lte_ml1_schdlr2_stm_sctl_tick_cmd)
*(.text.lte_ml1_coex_stm_triggered_state)
*(.text.lte_ml1_gm_sm_entry)
*(.text.lte_ml1_coex_populate_tx_info)
*(.text.lte_ml1_mgr_log_outgoing_msg)
*(.text.lte_ml1_hp_ul_grant_is_present)
*(.text.lte_ml1_mgr_log_incoming_msg)
*(.text.lte_ml1_gm_log_incoming_msg)
*(.text.lte_ml1_gh_parse_pdcch_payload)
*(.text.lte_ml1_gm_pwr_cntrl_increment_record_cnt)
*(.text.lte_ml1_ant_tuner_timer_cb)
*(.text.lte_ml1_schdlr2_obj_get_priority_friendliness)
*(.text.lte_ml1_dlm_ca_get_cc_id)
*(.text.lte_mac_ul_data_build_mac_sdu_header)
*(.text.lte_ml1_schdlr2_systime_scell_is_target_cell)
*(.text.lte_rlcul_tx_init_curr_pdu_info)
*(.text.lte_ml1_cdrx_process_new_grant)
*(.text.lte_ml1_gm_cdrx_process_pdsch_stat_ind)
*(.text.lte_ml1_gm_populate_freq_err_to_rfsw)
*(.text.lte_ml1_ant_tuner_msg_handler)
*(.text.lte_ml1_afc_get_curr_freq_errors_in_hz_for_ul_carriers)
*(.text.lte_mac_ul_data_build_mac_sdu)
*(.text.lte_ml1_gh_process_pdcch_phich_ind)
*(.text.lte_ml1_dlm_ca_get_inst)
*(.text.lte_ml1_schdlr2_event_list_get_list)
*(.text.lte_mac_dl_process_transport_block)
*(.text.lte_ml1_dlm_hsic_update_rank_data)
*(.text.lte_ml1_gm_pwr_cntrl_calc_p0_pusch_j)
*(.text.lte_ml1_schdlr_dog_check_late_message)
*(.text.lte_ml1_schdlr2_systime_get_rtc_now)
*(.text.lte_circ_q_update_read_pointer)
*(.text.lte_ml1_coex_get_rrc_state)
*(.text.lte_ml1_gm_phr_sent_timers_restart)
*(.text.lte_ml1_schdlr2_req_list_drop_request)
*(.text.lte_ml1_dlm_sm_debug_handler)
*(.text.lte_ml1_dlm_stm_pdsch_stat_ind)
*(.text.lte_ml1_hp_schdlr_cntrl_info_tx_cb)
*(.text.lte_rlcul_tx_update_mac_data_info)
*(.text.lte_ml1_gm_pwr_cntrl_save_ca_tx_pwr_record)
*(.text.lte_ml1_coex_db_tx_info_write)
*(.text.lte_ml1_gm_coex_extend_cdrx_on_dur)
*(.text.lte_ml1_hp_update_ta_records)
*(.text.lte_ml1_common_nv_cfg_total_tx_pwr_configured)
*(.text.lte_ml1_common_nv_cfg_get_bimc_snoc_cfg)
*(.text.lte_ml1_schdlr_service_req_init)
*(.text.lte_ml1_schdlr2_systime_get_target_cell_sf_now)
*(.text.lte_pdcpul_update_delay_stats)
*(.text.lte_rlcul_tx_update_tx_win)
*(.text.lte_ml1_mgr_main)
*(.text.lte_ml1_gm_sps_invalidate_ded_cfg)
*(.text.lte_ml1_hm_goto_on_state)
*(.text.lte_mac_ul_data_prep_build_bsr)
*(.text.lte_ml1_schdlr_profile_record_action_time)
*(.text.lte_ml1_gm_get_arr_idx_for_ack_nak)
*(.text.lte_ml1_hp_copy_and_update_process)
*(.text.lte_rlcdl_log_pdu)
*(.text.lte_ml1_gm_pwr_cntrl_accum_g_i)
*(.text.lte_ml1_hp_process_ul_grant)
*(.text.lte_startup_get_thread_table)