


ARM Macro Assembler    Page 1 


    1 00000000         ;/*====*====*====*====*====*====*====*====*====*====*===
                       =*====*====*====*====*
    2 00000000         ;
    3 00000000         ;                      HALsdcc - Helper functions
    4 00000000         ;
    5 00000000         ; GENERAL DESCRIPTION
    6 00000000         ;   Function to optimize data transfer
    7 00000000         ;
    8 00000000         ;  Copyright (c) 2011
    9 00000000         ;  Qualcomm Technologies, Incorporated.  All Rights Rese
                       rved.
   10 00000000         ;*====*====*====*====*====*====*====*====*====*====*====
                       *====*====*====*====*/
   11 00000000         
   12 00000000         ;/*=====================================================
                       =================
   13 00000000         ;
   14 00000000         ;                           EDIT HISTORY FOR FILE
   15 00000000         ;  This section contains comments describing changes mad
                       e to the module.
   16 00000000         ;  Notice that changes are listed in reverse chronologic
                       al order.
   17 00000000         ;
   18 00000000         ;$Header: //components/rel/boot.bf/3.3/boot_images/core/
                       storage/sdcc/src/hal/HALsdcc_util.s#1 $
   19 00000000         ;
   20 00000000         ;when          who     what, where, why
   21 00000000         ;-----------   ---     ---------------------------------
                       --------------------
   22 00000000         ;2011-11-14    rh      Ported from JFLASH.
   23 00000000         ;=======================================================
                       ====================*/
   24 00000000         
   25 00000000                 EXPORT           hal_sdcc_memcpy32
   26 00000000                 EXPORT           hal_sdcc_memcpy_read
   27 00000000                 EXPORT           hal_sdcc_memcpy_write
   28 00000000         
   29 00000000                 PRESERVE8
   30 00000000                 AREA             hal_sdcc_main, CODE, READONLY
   31 00000000                 CODE32
   32 00000000         
   33 00000000         ; Going for R0 = DataDesc, R1 = SRC
   34 00000000         hal_sdcc_memcpy32
   35 00000000 E92D0FF0        push             {r4-r11}
   36 00000004         
   37 00000004 E8B10FF0        ldmia            r1!, {r4-r11}
   38 00000008 E8A00FF0        stmia            r0!, {r4-r11}
   39 0000000C         
   40 0000000C E8BD0FF0        pop              {r4-r11}
   41 00000010 E12FFF1E        bx               r14
   42 00000014         
   43 00000014 E4912004        ldr              r2, [r1], #4
   44 00000018 E4802004        str              r2, [r0], #4
   45 0000001C         
   46 0000001C         ; Going for R0 = DataDesc, R1 = SRC, R2 = Status_addr, R
                       3 = Mask
   47 0000001C         hal_sdcc_memcpy_read
   48 0000001C E92D0FF0        push             {r4-r11}
   49 00000020         



ARM Macro Assembler    Page 2 


   50 00000020         read_loop
   51 00000020         ; Actual data moving
   52 00000020 E8910FF0        ldmia            r1, {r4-r11}
   53 00000024 E8A00FF0        stmia            r0!, {r4-r11}
   54 00000028         
   55 00000028 E5925000        ldr              r5, [r2]
   56 0000002C E0135005        ands             r5, r3, r5
   57 00000030 1AFFFFFA        bne              read_loop
   58 00000034         
   59 00000034 E8BD0FF0        pop              {r4-r11}
   60 00000038 E12FFF1E        bx               r14
   61 0000003C         
   62 0000003C         ; Going for R0 = DataDesc, R1 = SRC, R3 = Mask Var
   63 0000003C         ; R3 array info: 1 - Status, 2 - MaskBit, 3 - Size, 4 - 
                       error
   64 0000003C         ; Feature not working yet - moving 32 bytes at a time fo
                       r now
   65 0000003C         hal_sdcc_memcpy_write
   66 0000003C E92D5FF0        push             {r4-r12, r14}
   67 00000040         
   68 00000040 E592C008        ldr              r12, [r2, #8] ; Use R12 as size
                                                             keeper
   69 00000044 E5923004        ldr              r3, [r2, #4] ; Read mask regist
                                                            er value
   70 00000048 E592E000        ldr              r14, [r2]   ; Get the status re
                                                            gister addr
   71 0000004C         
   72 0000004C         write_loop
   73 0000004C E8B10FF0        ldmia            r1!, {r4-r11}
   74 00000050 E8800FF0        stmia            r0, {r4-r11}
   75 00000054         
   76 00000054         ; Check the size info
   77 00000054 E24CC020        sub              r12, #0x20
   78 00000058 E35C0020        cmp              r12, #0x20
   79 0000005C BA000006        blt              write_done
   80 00000060         ; Check error flags
   81 00000060         write_wait
   82 00000060 E59E5000        ldr              r5, [r14]   ; Read status regis
                                                            ter
   83 00000064 E592600C        ldr              r6, [r2, #0xC] 
                                                            ; Read error flag
   84 00000068 E0156006        ands             r6, r5, r6
   85 0000006C 1A000002        bne              write_done
   86 00000070         ; Check half-full
   87 00000070 E0155003        ands             r5, r5, r3
   88 00000074 0AFFFFF9        beq              write_wait
   89 00000078 EAFFFFF3        b                write_loop
   90 0000007C         
   91 0000007C         write_done
   92 0000007C E582C008        str              r12, [r2, #8] ; Write the size 
                                                            information back
   93 00000080 E8BD5FF0        pop              {r4-r12, r14}
   94 00000084 E1A00001        mov              r0, r1
   95 00000088 E12FFF1E        bx               r14
   96 0000008C         
   97 0000008C                 END
Command Line: --cpu=7-A.security --apcs=/noswst/interwork --no_unaligned_access
 -o/local/mnt/workspace/CRMBuilds/BOOT.BF.3.3-00177-M8917LAAAANAZB-1_20160818_0
22933/b/boot_images/core/storage/sdcc/build/sbl1/a53/FAASANAZ/hal/HALsdcc_util.



ARM Macro Assembler    Page 3 


o -I/local/mnt/workspace/CRMBuilds/BOOT.BF.3.3-00177-M8917LAAAANAZB-1_20160818_
022933/b/boot_images/core/storage/sdcc/build -I/local/mnt/workspace/CRMBuilds/B
OOT.BF.3.3-00177-M8917LAAAANAZB-1_20160818_022933/b/boot_images/build/cust -I. 
-I/local/mnt/workspace/CRMBuilds/BOOT.BF.3.3-00177-M8917LAAAANAZB-1_20160818_02
2933/b/boot_images/core/api/dal -I/local/mnt/workspace/CRMBuilds/BOOT.BF.3.3-00
177-M8917LAAAANAZB-1_20160818_022933/b/boot_images/core/api/boot -I/local/mnt/w
orkspace/CRMBuilds/BOOT.BF.3.3-00177-M8917LAAAANAZB-1_20160818_022933/b/boot_im
ages/core/api/boot/qfprom -I/local/mnt/workspace/CRMBuilds/BOOT.BF.3.3-00177-M8
917LAAAANAZB-1_20160818_022933/b/boot_images/core/api/debugtools -I/local/mnt/w
orkspace/CRMBuilds/BOOT.BF.3.3-00177-M8917LAAAANAZB-1_20160818_022933/b/boot_im
ages/core/api/hwengines -I/local/mnt/workspace/CRMBuilds/BOOT.BF.3.3-00177-M891
7LAAAANAZB-1_20160818_022933/b/boot_images/core/api/mproc -I/local/mnt/workspac
e/CRMBuilds/BOOT.BF.3.3-00177-M8917LAAAANAZB-1_20160818_022933/b/boot_images/co
re/api/power -I/local/mnt/workspace/CRMBuilds/BOOT.BF.3.3-00177-M8917LAAAANAZB-
1_20160818_022933/b/boot_images/core/power/utils/inc -I/local/mnt/workspace/CRM
Builds/BOOT.BF.3.3-00177-M8917LAAAANAZB-1_20160818_022933/b/boot_images/core/ap
i/power/cpr/rpm -I/local/mnt/workspace/CRMBuilds/BOOT.BF.3.3-00177-M8917LAAAANA
ZB-1_20160818_022933/b/boot_images/core/api/services -I/local/mnt/workspace/CRM
Builds/BOOT.BF.3.3-00177-M8917LAAAANAZB-1_20160818_022933/b/boot_images/core/ap
i/storage -I/local/mnt/workspace/CRMBuilds/BOOT.BF.3.3-00177-M8917LAAAANAZB-1_2
0160818_022933/b/boot_images/core/api/systemdrivers -I/local/mnt/workspace/CRMB
uilds/BOOT.BF.3.3-00177-M8917LAAAANAZB-1_20160818_022933/b/boot_images/core/api
/systemdrivers/pmic -I/local/mnt/workspace/CRMBuilds/BOOT.BF.3.3-00177-M8917LAA
AANAZB-1_20160818_022933/b/boot_images/core/api/systemdrivers/hwio/msm8937 -I/l
ocal/mnt/workspace/CRMBuilds/BOOT.BF.3.3-00177-M8917LAAAANAZB-1_20160818_022933
/b/boot_images/core/api/kernel/libstd -I/local/mnt/workspace/CRMBuilds/BOOT.BF.
3.3-00177-M8917LAAAANAZB-1_20160818_022933/b/boot_images/core/dal/src -I/local/
mnt/workspace/CRMBuilds/BOOT.BF.3.3-00177-M8917LAAAANAZB-1_20160818_022933/b/bo
ot_images/core/dal/config -I/local/mnt/workspace/CRMBuilds/BOOT.BF.3.3-00177-M8
917LAAAANAZB-1_20160818_022933/b/boot_images/core/boot/secboot3/src -I/local/mn
t/workspace/CRMBuilds/BOOT.BF.3.3-00177-M8917LAAAANAZB-1_20160818_022933/b/boot
_images/core/boot/ddr/common -I/local/mnt/workspace/CRMBuilds/BOOT.BF.3.3-00177
-M8917LAAAANAZB-1_20160818_022933/b/boot_images/core/boot/ddr/hw/msm8937 -I/loc
al/mnt/workspace/CRMBuilds/BOOT.BF.3.3-00177-M8917LAAAANAZB-1_20160818_022933/b
/boot_images/core/boot/ddr/hw/phy -I/local/mnt/workspace/CRMBuilds/BOOT.BF.3.3-
00177-M8917LAAAANAZB-1_20160818_022933/b/boot_images/core/boot/ddr/hw/controlle
r -I/local/mnt/workspace/CRMBuilds/BOOT.BF.3.3-00177-M8917LAAAANAZB-1_20160818_
022933/b/boot_images/core/boot/secboot3/hw/msm8937 -I/local/mnt/workspace/CRMBu
ilds/BOOT.BF.3.3-00177-M8917LAAAANAZB-1_20160818_022933/b/boot_images/core/debu
gtools/version/src -I/local/mnt/workspace/CRMBuilds/BOOT.BF.3.3-00177-M8917LAAA
ANAZB-1_20160818_022933/b/boot_images/core/hwengines/mhi -I/local/mnt/workspace
/CRMBuilds/BOOT.BF.3.3-00177-M8917LAAAANAZB-1_20160818_022933/b/boot_images/cor
e/hwengines/pcie -I/local/mnt/workspace/CRMBuilds/BOOT.BF.3.3-00177-M8917LAAAAN
AZB-1_20160818_022933/b/boot_images/core/mproc/smem/inc -I/local/mnt/workspace/
CRMBuilds/BOOT.BF.3.3-00177-M8917LAAAANAZB-1_20160818_022933/b/boot_images/core
/services/utils/src -I/local/mnt/workspace/CRMBuilds/BOOT.BF.3.3-00177-M8917LAA
AANAZB-1_20160818_022933/b/boot_images/core/storage/flash/src/dal -I/local/mnt/
workspace/CRMBuilds/BOOT.BF.3.3-00177-M8917LAAAANAZB-1_20160818_022933/b/boot_i
mages/core/storage/flash/src/hal -I/local/mnt/workspace/CRMBuilds/BOOT.BF.3.3-0
0177-M8917LAAAANAZB-1_20160818_022933/b/boot_images/core/storage/flash/tools/in
c -I/local/mnt/workspace/CRMBuilds/BOOT.BF.3.3-00177-M8917LAAAANAZB-1_20160818_
022933/b/boot_images/core/storage/flash/inc -I/local/mnt/workspace/CRMBuilds/BO
OT.BF.3.3-00177-M8917LAAAANAZB-1_20160818_022933/b/boot_images/core/storage/sdc
c/src -I/local/mnt/workspace/CRMBuilds/BOOT.BF.3.3-00177-M8917LAAAANAZB-1_20160
818_022933/b/boot_images/core/storage/sdcc/src/hal -I/local/mnt/workspace/CRMBu
ilds/BOOT.BF.3.3-00177-M8917LAAAANAZB-1_20160818_022933/b/boot_images/core/stor
age/sdcc/src/bsp -I/local/mnt/workspace/CRMBuilds/BOOT.BF.3.3-00177-M8917LAAAAN
AZB-1_20160818_022933/b/boot_images/core/storage/efs/inc -I/local/mnt/workspace
/CRMBuilds/BOOT.BF.3.3-00177-M8917LAAAANAZB-1_20160818_022933/b/boot_images/cor



ARM Macro Assembler    Page 4 


e/storage/hfat/inc -I/local/mnt/workspace/CRMBuilds/BOOT.BF.3.3-00177-M8917LAAA
ANAZB-1_20160818_022933/b/boot_images/core/storage/hotplug/inc -I/local/mnt/wor
kspace/CRMBuilds/BOOT.BF.3.3-00177-M8917LAAAANAZB-1_20160818_022933/b/boot_imag
es/core/storage/tools/deviceprogrammer_ddr/src/firehose -I/local/mnt/workspace/
CRMBuilds/BOOT.BF.3.3-00177-M8917LAAAANAZB-1_20160818_022933/b/boot_images/core
/systemdrivers/tlmm/inc -I/local/mnt/workspace/CRMBuilds/BOOT.BF.3.3-00177-M891
7LAAAANAZB-1_20160818_022933/b/boot_images/core/systemdrivers/tlmm/src --list=/
local/mnt/workspace/CRMBuilds/BOOT.BF.3.3-00177-M8917LAAAANAZB-1_20160818_02293
3/b/boot_images/core/storage/sdcc/build/sbl1/a53/FAASANAZ/hal/HALsdcc_util.o.ls
t --sitelicense /local/mnt/workspace/CRMBuilds/BOOT.BF.3.3-00177-M8917LAAAANAZB
-1_20160818_022933/b/boot_images/core/storage/sdcc/src/hal/HALsdcc_util.s
