<driver name="NULL">
   <device id="pd_mon_restart_dalcfg">
      <!--
      Enable PD restart.
      0x00 = disable
      0x01 = enable)
      -->
      <props name="pd_mon_restart_enable" type=DALPROP_ATTR_TYPE_UINT32>
         0x00
      </props>
   </device>
</driver>
