<driver name="NULL">
 <device id="/statichashes/AudioSphereModule.so.1">
  <props name="num_segments" type=DALPROP_ATTR_TYPE_UINT32>3</props>
  <props name="hash" type=DALPROP_ATTR_TYPE_BYTE_SEQ>0xf9, 0x23, 0xd2, 0x34, 0x48, 0x9d, 0x42, 0x3b, 0x6d, 0xa1, 0x9d, 0xeb, 0xe5, 0x5, 0x79, 0x32, 0x9, 0x92, 0x59, 0xec, 0x32, 0x5c, 0xb8, 0xf5, 0x30, 0x34, 0x56, 0xe7, 0xdd, 0xee, 0x1b, 0x54, 0xfa, 0x2b, 0xea, 0x68, 0xa4, 0xb8, 0x30, 0x42, 0xa9, 0x17, 0x91, 0x1f, 0xc4, 0xb2, 0x69, 0xdd, 0xbb, 0x19, 0xbe, 0x60, 0xfe, 0xfb, 0xd8, 0x6a, 0xa0, 0x74, 0x8f, 0x78, 0xd3, 0x78, 0xa7, 0xdf, 0x94, 0x94, 0x66, 0x94, 0x51, 0x51, 0x96, 0x11, 0x50, 0x31, 0xe0, 0x23, 0x95, 0x47, 0x7a, 0x32, 0x23, 0x59, 0x74, 0x37, 0x1b, 0xe7, 0x27, 0xb, 0x3a, 0xbb, 0x8a, 0x34, 0x4f, 0x7c, 0x2, 0x2, end</props>
 </device>
</driver>
