<driver name="NULL">
 <device id="/statichashes/EtsiEaacPlusEncAndCmnModule.so.1">
  <props name="num_segments" type=DALPROP_ATTR_TYPE_UINT32>3</props>
  <props name="hash" type=DALPROP_ATTR_TYPE_BYTE_SEQ>0xe0, 0x7b, 0xf2, 0x41, 0x86, 0x24, 0xca, 0x77, 0xef, 0xf2, 0xef, 0x8d, 0xd7, 0x4f, 0x1a, 0x28, 0x21, 0x0, 0xc3, 0x35, 0x89, 0x50, 0x60, 0x1c, 0x3b, 0x17, 0x5c, 0xa8, 0xef, 0xa2, 0x90, 0x11, 0xf, 0xb0, 0x40, 0x6e, 0x6c, 0xca, 0xcd, 0x85, 0xb8, 0x8d, 0xb1, 0x32, 0x90, 0x32, 0xae, 0xe4, 0xc8, 0x8e, 0x3d, 0x2b, 0xe9, 0xe4, 0x86, 0xdf, 0xe0, 0xe8, 0xe5, 0xf2, 0xca, 0xf5, 0x74, 0xe3, 0xc6, 0xf6, 0xe7, 0xbd, 0x2b, 0x1c, 0xd4, 0x60, 0x36, 0x37, 0x33, 0xfe, 0xf8, 0x1d, 0x4d, 0x88, 0x4b, 0xed, 0x33, 0x83, 0xbd, 0x84, 0xd2, 0x62, 0x64, 0x22, 0x43, 0x1d, 0x5a, 0x27, 0xb5, 0x84, end</props>
 </device>
</driver>
