<driver name="NULL">
 <device id="/statichashes/FlacDecoderModule.so.1">
  <props name="num_segments" type=DALPROP_ATTR_TYPE_UINT32>3</props>
  <props name="hash" type=DALPROP_ATTR_TYPE_BYTE_SEQ>0xfe, 0xed, 0xbc, 0xd6, 0xc3, 0x6e, 0x9c, 0xc4, 0xf7, 0x9, 0x2, 0x4f, 0xcd, 0xca, 0x36, 0x7e, 0x90, 0xaa, 0xc2, 0x1a, 0x10, 0xb4, 0xcc, 0xfb, 0x2c, 0xcc, 0x2d, 0x48, 0xee, 0x83, 0x7d, 0xcd, 0xa3, 0xc1, 0x78, 0x27, 0x7e, 0xb8, 0x8e, 0xc6, 0x99, 0x33, 0x31, 0x9f, 0xa2, 0x37, 0x36, 0x13, 0x1f, 0xad, 0x4b, 0x8e, 0x94, 0x5, 0x37, 0xcd, 0x9a, 0x95, 0x72, 0xbe, 0x4e, 0x68, 0x3, 0xe5, 0x3b, 0x68, 0xa1, 0x1f, 0x59, 0x33, 0xc4, 0x8a, 0x39, 0xc2, 0xb2, 0xcc, 0xcd, 0xa, 0xac, 0xee, 0x1e, 0x5b, 0xc6, 0xdf, 0x13, 0x5c, 0xf3, 0x34, 0xad, 0x49, 0x4c, 0xa4, 0x43, 0x20, 0x56, 0x9f, end</props>
 </device>
</driver>
