<driver name="NULL">
 <device id="/statichashes/fluence_voiceplus_module.so.1">
  <props name="num_segments" type=DALPROP_ATTR_TYPE_UINT32>3</props>
  <props name="hash" type=DALPROP_ATTR_TYPE_BYTE_SEQ>0x13, 0x7d, 0xf8, 0xfe, 0xeb, 0xe3, 0x8d, 0xd0, 0x31, 0xa1, 0x81, 0x8f, 0x7e, 0xa3, 0xdd, 0xfd, 0xfa, 0x9, 0x35, 0xe4, 0x8b, 0xc0, 0xf3, 0xbd, 0x11, 0x2e, 0x6d, 0x7f, 0xe4, 0xc, 0xfa, 0x27, 0x87, 0x5b, 0x5, 0x4a, 0x81, 0x1d, 0x1a, 0x7c, 0xde, 0x2a, 0xab, 0x65, 0x83, 0x80, 0x77, 0x89, 0x1f, 0x29, 0xb9, 0x8e, 0xfd, 0x84, 0x21, 0xc3, 0x3b, 0x1d, 0x8f, 0x4b, 0x16, 0x67, 0xf3, 0x67, 0x65, 0x86, 0x75, 0x90, 0xdf, 0x59, 0xa8, 0x78, 0xaa, 0x84, 0xb2, 0x2b, 0xb6, 0xfe, 0x19, 0xa, 0xc, 0xb7, 0x2, 0x6d, 0xfe, 0x73, 0x66, 0x3d, 0x98, 0x1c, 0x7c, 0x59, 0xc2, 0x5b, 0x6a, 0xa4, end</props>
 </device>
</driver>
