<driver name="NULL">
 <device id="/statichashes/SAPlusCmnModule.so.1">
  <props name="num_segments" type=DALPROP_ATTR_TYPE_UINT32>3</props>
  <props name="hash" type=DALPROP_ATTR_TYPE_BYTE_SEQ>0x2, 0x6c, 0x74, 0xe6, 0x11, 0xc4, 0x87, 0x15, 0x7f, 0xd0, 0x88, 0x91, 0xaa, 0x4c, 0x93, 0xc9, 0x4d, 0x71, 0x29, 0x5f, 0x87, 0xc0, 0x0, 0x26, 0x43, 0xa7, 0xea, 0x7a, 0xcb, 0x36, 0x63, 0x7, 0xca, 0xf3, 0x67, 0x90, 0xfe, 0xe1, 0x0, 0x25, 0xb2, 0x6, 0xe0, 0x5a, 0x2e, 0x8f, 0x41, 0x4a, 0x91, 0xf2, 0x46, 0xb0, 0x38, 0x66, 0xca, 0x70, 0xd, 0xf7, 0x5e, 0x8e, 0xd9, 0x67, 0xa6, 0x42, 0x60, 0xb7, 0xd9, 0x7f, 0x2d, 0xa7, 0x19, 0xfa, 0x3f, 0x8e, 0xaf, 0x1, 0x97, 0x12, 0xc0, 0xd2, 0xdb, 0xc6, 0xf4, 0x89, 0x16, 0xa8, 0x72, 0x59, 0xe, 0x4b, 0xa5, 0x35, 0xc, 0x8e, 0xa5, 0xa5, end</props>
 </device>
</driver>
