<driver name="NULL">
 <device id="/statichashes/WmaProDecoderModule.so.1">
  <props name="num_segments" type=DALPROP_ATTR_TYPE_UINT32>3</props>
  <props name="hash" type=DALPROP_ATTR_TYPE_BYTE_SEQ>0x9a, 0x90, 0x3a, 0x6c, 0xf7, 0xd9, 0x26, 0x7e, 0x67, 0x5f, 0x70, 0x12, 0xbb, 0x44, 0x82, 0x45, 0xb1, 0xa8, 0x8e, 0x4c, 0x20, 0x3b, 0xb5, 0xbf, 0xb7, 0x7b, 0xf3, 0xbb, 0x74, 0xcd, 0xe, 0x33, 0x86, 0x5d, 0xfe, 0x19, 0x36, 0xc2, 0x77, 0x7d, 0xe5, 0x8a, 0xe, 0x62, 0xca, 0x53, 0xfe, 0x8f, 0x38, 0x42, 0x32, 0x81, 0x24, 0x91, 0x42, 0x6, 0x3b, 0x5f, 0x2a, 0x85, 0x74, 0x37, 0x29, 0xb6, 0x48, 0x8d, 0xb4, 0xce, 0xc1, 0xf7, 0xe8, 0xf0, 0x41, 0xb4, 0x4, 0xf6, 0xd, 0x4a, 0xd1, 0xca, 0xf9, 0xec, 0x9c, 0xda, 0xa8, 0x25, 0xfd, 0x4e, 0xbf, 0x1f, 0x60, 0xe3, 0x3b, 0x49, 0x80, 0xbc, end</props>
 </device>
</driver>
