<driver name="NULL">
   <device id="/sysdrivers/vsense">
   <!-- vsense config data -->
      <props id=1 type=DALPROP_ATTR_TYPE_STRUCT_PTR>
        vsense_config_data
      </props>
   </device>
</driver>
