


ARM Macro Assembler    Page 1 


    1 00000000         ;*====*====*====*====*====*====*====*====*====*====*====
                       *====*====*====*====*
    2 00000000         ;
    3 00000000         ;                     Boot A53 Assembly File
    4 00000000         ;
    5 00000000         ; GENERAL DESCRIPTION
    6 00000000         ; This file contains the assembly instructions specializ
                       ed A53 functions 
    7 00000000         ;
    8 00000000         ; Copyright 2014 by Qualcomm Technologies, Incorporated.
                       All Rights Reserved.
    9 00000000         ;*====*====*====*====*====*====*====*====*====*====*====
                       *====*====*====*====*
   10 00000000         
   11 00000000         ;*====*====*====*====*====*====*====*====*====*====*====
                       *====*====*====*====*
   12 00000000         ;
   13 00000000         ;                           EDIT HISTORY FOR FILE
   14 00000000         ;
   15 00000000         ; This section contains comments describing changes made
                        to the module.
   16 00000000         ; Notice that changes are listed in reverse chronologica
                       l order.
   17 00000000         ;
   18 00000000         ; when       who     what, where, why
   19 00000000         ; --------   ---     -----------------------------------
                       ---------------------
   20 00000000         ; 01/14/14   ck      Initial release for Bear family
   21 00000000         ;*====*====*====*====*====*====*====*====*====*====*====
                       *====*====*====*====*
   22 00000000         
   23 00000000         ;=======================================================
                       =====================
   24 00000000         ;
   25 00000000         ;                             MODULE EXPORTS
   26 00000000         ;
   27 00000000         ;=======================================================
                       =====================
   28 00000000         
   29 00000000         ; Export the symbols defined in this module
   30 00000000                 EXPORT           boot_enable_aarch64
   31 00000000                 EXPORT           boot_generate_warm_reset
   32 00000000                 EXPORT           boot_configure_vbar
   33 00000000         
   34 00000000         ;=======================================================
                       =====================
   35 00000000         ;
   36 00000000         ;                             MODULE DATA AREA
   37 00000000         ;
   38 00000000         ;=======================================================
                       =====================
   39 00000000         
   40 00000000                 PRESERVE8
   41 00000000                 AREA             BOOT_A53_ASM, CODE, READONLY
   42 00000000                 CODE32
   43 00000000         
   44 00000000         ;=======================================================
                       ===============
   45 00000000         ;



ARM Macro Assembler    Page 2 


   46 00000000         ; void boot_enable_aarch64(void)
   47 00000000         ;
   48 00000000         ; Description:
   49 00000000         ;   Switches processor to AARCH64 mode
   50 00000000         ; 
   51 00000000         ; Parameters:
   52 00000000         ;   None
   53 00000000         ;
   54 00000000         ; Return Value:
   55 00000000         ;   None 
   56 00000000         ;
   57 00000000         ;=======================================================
                       ===============
   58 00000000         boot_enable_aarch64
   59 00000000 EE1C0F50        mrc              p15, 0, r0, c12, c0, 2 
                                                            ; read RMR
   60 00000004 E3800001        orr              r0, r0, #0x1 ; bit0 for A64 
   61 00000008 F57FF04F        dsb
   62 0000000C EE0C0F50        mcr              p15, 0, r0, c12, c0, 2
   63 00000010 F57FF06F        isb
   64 00000014 F57FF04F        dsb
   65 00000018 E12FFF1E        bx               lr
   66 0000001C         
   67 0000001C         
   68 0000001C         ;=======================================================
                       ===============
   69 0000001C         ;
   70 0000001C         ; void boot_generate_warm_reset(uint32)
   71 0000001C         ;
   72 0000001C         ; Description:
   73 0000001C         ;   Generates a warm reset.  This function does not retu
                       rn.
   74 0000001C         ; 
   75 0000001C         ; Parameters:
   76 0000001C         ;   Value to be carried in R0 across reset.
   77 0000001C         ;
   78 0000001C         ; Return Value:
   79 0000001C         ;   None 
   80 0000001C         ;
   81 0000001C         ;=======================================================
                       ===============
   82 0000001C         boot_generate_warm_reset
   83 0000001C EE1C1F50        mrc              p15, 0, r1, c12, c0, 2
   84 00000020 E3811002        orr              r1, r1, #2  ; bit 1 for RR
   85 00000024 F57FF04F        dsb
   86 00000028 EE0C1F50        mcr              p15, 0, r1, c12, c0, 2
   87 0000002C F57FF06F        isb
   88 00000030 F57FF04F        dsb
   89 00000034 F57FF06F        isb
   90 00000038 E320F003        wfi
   91 0000003C         generate_warm_reset_loop
   92 0000003C EAFFFFFE        b                generate_warm_reset_loop
   93 00000040         
   94 00000040         
   95 00000040         ;=======================================================
                       ===============
   96 00000040         ;
   97 00000040         ; void boot_configure_vbar(uint32 vbar_addr)
   98 00000040         ;



ARM Macro Assembler    Page 3 


   99 00000040         ; Description:
  100 00000040         ;   Configures VBAR to a different base address based on
                        exit point.
  101 00000040         ; 
  102 00000040         ; Parameters:
  103 00000040         ;   R0 contains the address to which VBAR will be config
                       ured to.
  104 00000040         ;
  105 00000040         ; Return Value:
  106 00000040         ;   None 
  107 00000040         ;
  108 00000040         ;=======================================================
                       ===============
  109 00000040         boot_configure_vbar
  110 00000040 EE0C0F10        mcr              p15, 0, r0, c12, c0, 0 ; Write 
                                                            VBAR Register
  111 00000044 E12FFF1E        bx               lr
  112 00000048         
  113 00000048         
  114 00000048                 END
Command Line: --cpu=7-A.security --apcs=/noswst/interwork --no_unaligned_access
 -o/local/mnt/workspace/CRMBuilds/BOOT.BF.3.3-00177-M8917LAAAANAZB-1_20160818_0
22933/b/boot_images/core/boot/secboot3/src/build/prog_emmc_firehose_8917_ddr/a5
3/LAADANAZ/boot_a53_asm.o -I/local/mnt/workspace/CRMBuilds/BOOT.BF.3.3-00177-M8
917LAAAANAZB-1_20160818_022933/b/boot_images/core/boot/secboot3/src/build -I/lo
cal/mnt/workspace/CRMBuilds/BOOT.BF.3.3-00177-M8917LAAAANAZB-1_20160818_022933/
b/boot_images/build/cust -I. -I/local/mnt/workspace/CRMBuilds/BOOT.BF.3.3-00177
-M8917LAAAANAZB-1_20160818_022933/b/boot_images/core/api/boot -I/local/mnt/work
space/CRMBuilds/BOOT.BF.3.3-00177-M8917LAAAANAZB-1_20160818_022933/b/boot_image
s/core/api/boot/qfprom -I/local/mnt/workspace/CRMBuilds/BOOT.BF.3.3-00177-M8917
LAAAANAZB-1_20160818_022933/b/boot_images/core/buses/api/spmi -I/local/mnt/work
space/CRMBuilds/BOOT.BF.3.3-00177-M8917LAAAANAZB-1_20160818_022933/b/boot_image
s/core/buses/api/icb -I/local/mnt/workspace/CRMBuilds/BOOT.BF.3.3-00177-M8917LA
AAANAZB-1_20160818_022933/b/boot_images/core/buses/api/uart -I/local/mnt/worksp
ace/CRMBuilds/BOOT.BF.3.3-00177-M8917LAAAANAZB-1_20160818_022933/b/boot_images/
core/buses/api/i2c -I/local/mnt/workspace/CRMBuilds/BOOT.BF.3.3-00177-M8917LAAA
ANAZB-1_20160818_022933/b/boot_images/core/api/dal -I/local/mnt/workspace/CRMBu
ilds/BOOT.BF.3.3-00177-M8917LAAAANAZB-1_20160818_022933/b/boot_images/core/api/
debugtools -I/local/mnt/workspace/CRMBuilds/BOOT.BF.3.3-00177-M8917LAAAANAZB-1_
20160818_022933/b/boot_images/core/api/mproc -I/local/mnt/workspace/CRMBuilds/B
OOT.BF.3.3-00177-M8917LAAAANAZB-1_20160818_022933/b/boot_images/core/api/servic
es -I/local/mnt/workspace/CRMBuilds/BOOT.BF.3.3-00177-M8917LAAAANAZB-1_20160818
_022933/b/boot_images/core/api/storage -I/local/mnt/workspace/CRMBuilds/BOOT.BF
.3.3-00177-M8917LAAAANAZB-1_20160818_022933/b/boot_images/core/api/systemdriver
s -I/local/mnt/workspace/CRMBuilds/BOOT.BF.3.3-00177-M8917LAAAANAZB-1_20160818_
022933/b/boot_images/core/api/systemdrivers/pmic -I/local/mnt/workspace/CRMBuil
ds/BOOT.BF.3.3-00177-M8917LAAAANAZB-1_20160818_022933/b/boot_images/core/api/sy
stemdrivers/hwio/msm8917 -I/local/mnt/workspace/CRMBuilds/BOOT.BF.3.3-00177-M89
17LAAAANAZB-1_20160818_022933/b/boot_images/core/api/wiredconnectivity -I/local
/mnt/workspace/CRMBuilds/BOOT.BF.3.3-00177-M8917LAAAANAZB-1_20160818_022933/b/b
oot_images/core/api/securemsm -I/local/mnt/workspace/CRMBuilds/BOOT.BF.3.3-0017
7-M8917LAAAANAZB-1_20160818_022933/b/boot_images/core/securemsm/secboot/api -I/
local/mnt/workspace/CRMBuilds/BOOT.BF.3.3-00177-M8917LAAAANAZB-1_20160818_02293
3/b/boot_images/core/api/kernel/libstd/stringl -I/local/mnt/workspace/CRMBuilds
/BOOT.BF.3.3-00177-M8917LAAAANAZB-1_20160818_022933/b/boot_images/core/api/secu
remsm/secimgauth -I/local/mnt/workspace/CRMBuilds/BOOT.BF.3.3-00177-M8917LAAAAN
AZB-1_20160818_022933/b/boot_images/core/api/hwengines -I/local/mnt/workspace/C
RMBuilds/BOOT.BF.3.3-00177-M8917LAAAANAZB-1_20160818_022933/b/boot_images/core/
apt/inc -I/local/mnt/workspace/CRMBuilds/BOOT.BF.3.3-00177-M8917LAAAANAZB-1_201



ARM Macro Assembler    Page 4 


60818_022933/b/boot_images/core/api/power -I/local/mnt/workspace/CRMBuilds/BOOT
.BF.3.3-00177-M8917LAAAANAZB-1_20160818_022933/b/boot_images/core/power/utils/i
nc -I/local/mnt/workspace/CRMBuilds/BOOT.BF.3.3-00177-M8917LAAAANAZB-1_20160818
_022933/b/boot_images/core/api/power/cpr/rpm -I/local/mnt/workspace/CRMBuilds/B
OOT.BF.3.3-00177-M8917LAAAANAZB-1_20160818_022933/b/boot_images/core/boot/secbo
ot3/src -I/local/mnt/workspace/CRMBuilds/BOOT.BF.3.3-00177-M8917LAAAANAZB-1_201
60818_022933/b/boot_images/core/boot/ddr/common -I/local/mnt/workspace/CRMBuild
s/BOOT.BF.3.3-00177-M8917LAAAANAZB-1_20160818_022933/b/boot_images/core/boot/dd
r/hw/msm8917 -I/local/mnt/workspace/CRMBuilds/BOOT.BF.3.3-00177-M8917LAAAANAZB-
1_20160818_022933/b/boot_images/core/boot/ddr/hw/phy -I/local/mnt/workspace/CRM
Builds/BOOT.BF.3.3-00177-M8917LAAAANAZB-1_20160818_022933/b/boot_images/core/bo
ot/ddr/hw/controller -I/local/mnt/workspace/CRMBuilds/BOOT.BF.3.3-00177-M8917LA
AAANAZB-1_20160818_022933/b/boot_images/core/boot/secboot3/hw/msm8917 -I/local/
mnt/workspace/CRMBuilds/BOOT.BF.3.3-00177-M8917LAAAANAZB-1_20160818_022933/b/bo
ot_images/core/dal/src -I/local/mnt/workspace/CRMBuilds/BOOT.BF.3.3-00177-M8917
LAAAANAZB-1_20160818_022933/b/boot_images/core/dal/config -I/local/mnt/workspac
e/CRMBuilds/BOOT.BF.3.3-00177-M8917LAAAANAZB-1_20160818_022933/b/boot_images/co
re/debugtools/version/src -I/local/mnt/workspace/CRMBuilds/BOOT.BF.3.3-00177-M8
917LAAAANAZB-1_20160818_022933/b/boot_images/core/mproc/smem/inc -I/local/mnt/w
orkspace/CRMBuilds/BOOT.BF.3.3-00177-M8917LAAAANAZB-1_20160818_022933/b/boot_im
ages/core/services/utils/src -I/local/mnt/workspace/CRMBuilds/BOOT.BF.3.3-00177
-M8917LAAAANAZB-1_20160818_022933/b/boot_images/core/storage/flash/src/dal -I/l
ocal/mnt/workspace/CRMBuilds/BOOT.BF.3.3-00177-M8917LAAAANAZB-1_20160818_022933
/b/boot_images/core/storage/flash/src/hal -I/local/mnt/workspace/CRMBuilds/BOOT
.BF.3.3-00177-M8917LAAAANAZB-1_20160818_022933/b/boot_images/core/storage/flash
/tools/inc -I/local/mnt/workspace/CRMBuilds/BOOT.BF.3.3-00177-M8917LAAAANAZB-1_
20160818_022933/b/boot_images/core/storage/flash/inc -I/local/mnt/workspace/CRM
Builds/BOOT.BF.3.3-00177-M8917LAAAANAZB-1_20160818_022933/b/boot_images/core/st
orage/sdcc/src -I/local/mnt/workspace/CRMBuilds/BOOT.BF.3.3-00177-M8917LAAAANAZ
B-1_20160818_022933/b/boot_images/core/storage/sdcc/src/hal -I/local/mnt/worksp
ace/CRMBuilds/BOOT.BF.3.3-00177-M8917LAAAANAZB-1_20160818_022933/b/boot_images/
core/storage/sdcc/src/bsp -I/local/mnt/workspace/CRMBuilds/BOOT.BF.3.3-00177-M8
917LAAAANAZB-1_20160818_022933/b/boot_images/core/storage/efs/inc -I/local/mnt/
workspace/CRMBuilds/BOOT.BF.3.3-00177-M8917LAAAANAZB-1_20160818_022933/b/boot_i
mages/core/storage/hfat/inc -I/local/mnt/workspace/CRMBuilds/BOOT.BF.3.3-00177-
M8917LAAAANAZB-1_20160818_022933/b/boot_images/core/storage/hotplug/inc -I/loca
l/mnt/workspace/CRMBuilds/BOOT.BF.3.3-00177-M8917LAAAANAZB-1_20160818_022933/b/
boot_images/core/storage/tools/deviceprogrammer_ddr/src/firehose -I/local/mnt/w
orkspace/CRMBuilds/BOOT.BF.3.3-00177-M8917LAAAANAZB-1_20160818_022933/b/boot_im
ages/core/systemdrivers/tlmm/inc -I/local/mnt/workspace/CRMBuilds/BOOT.BF.3.3-0
0177-M8917LAAAANAZB-1_20160818_022933/b/boot_images/core/systemdrivers/tlmm/src
 -I/local/mnt/workspace/CRMBuilds/BOOT.BF.3.3-00177-M8917LAAAANAZB-1_20160818_0
22933/b/boot_images/core/wiredconnectivity/qhsusb/inc -I/local/mnt/workspace/CR
MBuilds/BOOT.BF.3.3-00177-M8917LAAAANAZB-1_20160818_022933/b/boot_images/core/w
iredconnectivity/qusb/inc -I/local/mnt/workspace/CRMBuilds/BOOT.BF.3.3-00177-M8
917LAAAANAZB-1_20160818_022933/b/boot_images/core/securemsm/cryptodrivers/ce/sh
ared/inc -I/local/mnt/workspace/CRMBuilds/BOOT.BF.3.3-00177-M8917LAAAANAZB-1_20
160818_022933/b/boot_images/core/securemsm/cryptodrivers/ce/test/inc -I/local/m
nt/workspace/CRMBuilds/BOOT.BF.3.3-00177-M8917LAAAANAZB-1_20160818_022933/b/boo
t_images/core/securemsm/cryptodrivers/prng/shared/inc -I/local/mnt/workspace/CR
MBuilds/BOOT.BF.3.3-00177-M8917LAAAANAZB-1_20160818_022933/b/boot_images/core/s
ecuremsm/cryptodrivers/prng/test/inc -I/local/mnt/workspace/CRMBuilds/BOOT.BF.3
.3-00177-M8917LAAAANAZB-1_20160818_022933/b/boot_images/core/securemsm/secdbgpl
cy/api -I/local/mnt/workspace/CRMBuilds/BOOT.BF.3.3-00177-M8917LAAAANAZB-1_2016
0818_022933/b/boot_images/core/securemsm/cryptodrivers/prng/shared/src -I/local
/mnt/workspace/CRMBuilds/BOOT.BF.3.3-00177-M8917LAAAANAZB-1_20160818_022933/b/b
oot_images/core/api/securemsm/secboot -I/local/mnt/workspace/CRMBuilds/BOOT.BF.
3.3-00177-M8917LAAAANAZB-1_20160818_022933/b/boot_images/core/api/securemsm/sec
cfg -I/local/mnt/workspace/CRMBuilds/BOOT.BF.3.3-00177-M8917LAAAANAZB-1_2016081



ARM Macro Assembler    Page 5 


8_022933/b/boot_images/core/securemsm/secmath/shared/inc -I/local/mnt/workspace
/CRMBuilds/BOOT.BF.3.3-00177-M8917LAAAANAZB-1_20160818_022933/b/boot_images/cor
e/securemsm/fuseprov/chipset/msm8917/inc -I/local/mnt/workspace/CRMBuilds/BOOT.
BF.3.3-00177-M8917LAAAANAZB-1_20160818_022933/b/boot_images/core/hwengines/mhi 
-I/local/mnt/workspace/CRMBuilds/BOOT.BF.3.3-00177-M8917LAAAANAZB-1_20160818_02
2933/b/boot_images/core/hwengines/pcie -I/local/mnt/workspace/CRMBuilds/BOOT.BF
.3.3-00177-M8917LAAAANAZB-1_20160818_022933/b/boot_images/core/apt/src -I/local
/mnt/workspace/CRMBuilds/BOOT.BF.3.3-00177-M8917LAAAANAZB-1_20160818_022933/b/b
oot_images/core/boot/secboot3/hw/msm8917/sbl1 --list=/local/mnt/workspace/CRMBu
ilds/BOOT.BF.3.3-00177-M8917LAAAANAZB-1_20160818_022933/b/boot_images/core/boot
/secboot3/src/build/prog_emmc_firehose_8917_ddr/a53/LAADANAZ/boot_a53_asm.o.lst
 --sitelicense /local/mnt/workspace/CRMBuilds/BOOT.BF.3.3-00177-M8917LAAAANAZB-
1_20160818_022933/b/boot_images/core/boot/secboot3/src/boot_a53_asm.s
