<driver name="VAdc">
  <device id="DALDEVICEID_VADC_8953_PM8953">
    <props name="VADC_BSP" type=DALPROP_ATTR_TYPE_STRUCT_PTR>
      VAdcBsp_8953_PM8953
    </props>
  </device>
  <device id="DALDEVICEID_VADC_8953_PMI8950">
    <props name="VADC_BSP" type=DALPROP_ATTR_TYPE_STRUCT_PTR>
      VAdcBsp_8953_PMI8950
    </props>
  </device>
</driver>
<driver name="NULL">
  <device id="QAdc">
    <props name="ADC_BOOT_BSP" type=DALPROP_ATTR_TYPE_STRUCT_PTR>
      AdcBootBsp_8953_PM8953
    </props>
    <props name="ADC_BOOT_BSP_8953_PM8953_PMI8950" type=DALPROP_ATTR_TYPE_STRUCT_PTR>
      AdcBootBsp_8953_PM8953_PMI8950
    </props>
  </device>
</driver>
