<driver name="NULL">
  <global_def>
    <var_seq name="root_0_seq" type=DALPROP_DATA_TYPE_BYTE_SEQ>
      0x0c, 0x09, 0x76, 0x0d, 0x72, 0xb2, 0xe9, 0x96,
      0x89, 0xf0, 0x04, 0xbf, 0x8e, 0xf0, 0xeb, 0xbb,
      0x83, 0xcf, 0x45, 0x11, 0xbd, 0xf6, 0xcc, 0xf8,
      0x38, 0x9b, 0x33, 0xa3, 0x5e, 0x42, 0xab, 0x09, end
    </var_seq>
  </global_def>
  <device id="/security">
    <props name="root_0" type=DALPROP_ATTR_TYPE_BYTE_SEQ_PTR>
      root_0_seq
    </props>
    <props name="root_0_testsig_only" type=DALPROP_ATTR_TYPE_UINT32>
      00
    </props>
    <props name="no_default_root" type=DALPROP_ATTR_TYPE_UINT32>
      00
    </props>
    <props name="tcg_codesig" type=DALPROP_ATTR_TYPE_UINT32>
      123456
    </props>
    <props name="tcg_testsig" type=DALPROP_ATTR_TYPE_UINT32>
      123456
    </props>
  </device>
</driver>
