#<SYMDEFS># ARM Linker, 5.01 [Build 94]: Last Updated: Thu Aug 18 02:56:41 2016
0x00000000 N _printf_flags
0x00000000 N _printf_return_value
0x00000000 N _printf_sizespec
0x00000000 N _printf_widthprec
0x0022017d T Boot_ToggleClock
0x002201b9 T sys_debug_busywait
0x002201e1 T sys_debug_busywait_init
0x00220201 T sys_debug_disable
0x0022026d T sys_debug_enable_clocks
0x00220331 T sys_debug_main_ctl
0x0022041d T sys_debug_wdt_start
0x002204a4 A boot_enable_aarch64
0x002204c0 A boot_generate_warm_reset
0x002204e4 A boot_configure_vbar
0x002204fd T boot_hw_powerdown
0x00220545 T boot_hw_reset
0x00220579 T boot_switch_to_aarch64
0x00220629 T DDR_SYNC_INIT
0x0022062b T DDR_SYNC_LOCK
0x0022062d T DDR_SYNC_UNLOCK
0x00220631 T HAL_SDRAM_AHB2PHY_Broadcast_Enable
0x002206a9 T HAL_SDRAM_BIMC_Rank_Detection
0x0022075d T HAL_SDRAM_BIMC_Update_Clock_Period
0x002207d1 T HAL_SDRAM_DDR_Wait
0x002207e5 T HAL_SDRAM_DPE_Force_Update_Latency
0x002208b7 T HAL_SDRAM_DPE_Init
0x00220957 T HAL_SDRAM_DPE_Post_Clock_Switch
0x00220995 T HAL_SDRAM_DPE_Pre_Clock_Switch
0x00220a0d T HAL_SDRAM_DPE_Update_AC_Parameters
0x00220b65 T HAL_SDRAM_DPE_Update_Latency
0x00220c65 T HAL_SDRAM_Enter_Deep_Power_Down
0x00220c85 T HAL_SDRAM_Enter_Self_Refresh
0x00220cbd T HAL_SDRAM_Exit_Deep_Power_Down
0x00220ce3 T HAL_SDRAM_Exit_Self_Refresh
0x00220d23 T HAL_SDRAM_Get_Base_Addr
0x00220e81 T HAL_SDRAM_Init
0x00221009 T HAL_SDRAM_PHY_Disable_CDC_Cal
0x00221099 T HAL_SDRAM_PHY_Disable_IO_Cal
0x002210c9 T HAL_SDRAM_PHY_Disable_Rapid_CDC_Cal
0x00221165 T HAL_SDRAM_PHY_Enable_CDC_Cal
0x002211bd T HAL_SDRAM_PHY_Enable_IO_Cal
0x002211e1 T HAL_SDRAM_PHY_Enable_Rapid_CDC_Cal
0x0022127d T HAL_SDRAM_PHY_Init
0x00221351 T HAL_SDRAM_PHY_Manual_CDC_Cal
0x00221411 T HAL_SDRAM_PHY_Manual_IO_Cal
0x0022147d T HAL_SDRAM_PHY_Update_CDC_Config
0x002214c9 T HAL_SDRAM_PHY_Update_CDC_Config_Training
0x00221521 T HAL_SDRAM_PHY_Update_CDC_Delay_Target
0x00221609 T HAL_SDRAM_PHY_Update_Drive_Strength
0x00221659 T HAL_SDRAM_RL
0x002216f1 T HAL_SDRAM_Ram_Size_Detection
0x002218b5 T HAL_SDRAM_Read_MR
0x00221911 T HAL_SDRAM_SCMO_Init
0x00221b31 T HAL_SDRAM_SCMO_Rank_Disable
0x00221b99 T HAL_SDRAM_SCMO_Rank_Enable
0x00221bd5 T HAL_SDRAM_SHKE_DPD_Enter
0x00221c8b T HAL_SDRAM_SHKE_DPD_Exit
0x00221cdf T HAL_SDRAM_SHKE_Device_Init
0x00221f39 T HAL_SDRAM_SHKE_Disable_Auto_Refresh
0x00221f7b T HAL_SDRAM_SHKE_Disable_HW_Self_Refresh
0x00221fbd T HAL_SDRAM_SHKE_Disable_Periodic_SRR
0x00221fdf T HAL_SDRAM_SHKE_Disable_ZQCAL
0x00222001 T HAL_SDRAM_SHKE_Enable_Auto_Refresh
0x00222043 T HAL_SDRAM_SHKE_Enable_HW_Self_Refresh
0x00222085 T HAL_SDRAM_SHKE_Enable_Periodic_SRR
0x002220a7 T HAL_SDRAM_SHKE_Enable_ZQCAL
0x002220c9 T HAL_SDRAM_SHKE_Enter_Self_Refresh
0x0022210d T HAL_SDRAM_SHKE_Exit_Self_Refresh
0x00222151 T HAL_SDRAM_SHKE_Init
0x002221d1 T HAL_SDRAM_WL
0x00222231 T HAL_SDRAM_Write_MR
0x002222a5 T HAL_bimc_EnableSlaveSegment
0x002222b7 T HAL_bimc_GetSlaveSegment
0x002222cd T HAL_bimc_Init
0x002222d7 T HAL_bimc_IsRemapSupported
0x002222e1 T HAL_bimc_SetRemapSegment
0x002222ef T HAL_bimc_SetSlaveSegment
0x00222305 T bimc_EnableSlaveSegment
0x00222335 T bimc_GetSlaveSegment
0x00222461 T bimc_Init
0x00222491 T bimc_IsRemapSupported
0x002224a1 T bimc_SetRemapSegment
0x002225e9 T bimc_SetSlaveSegment
0x002226d9 T boot_ddr_get_info
0x002226dd T boot_ddr_get_partition
0x002226e1 T boot_ddr_get_size
0x002226e5 T boot_ddr_initialize_device
0x002226e9 T boot_ddr_post_init
0x002226ed T boot_ddr_set_params
0x002226f1 T ddr_busywait
0x00222719 T ddr_busywait_init
0x00222739 T ddr_divide_func
0x0022274d T ddr_get_params
0x00222789 T ddr_get_shared_header
0x00222795 T ddr_get_trained_params
0x002227b1 T ddr_get_training_checksum
0x002227cd T ddr_get_training_cookie
0x002227e1 T ddr_param_interleaved
0x002227ed T ddr_params_detection
0x0022289d T ddr_params_get_training_data
0x002228ad T ddr_params_set_shared_memory
0x00222905 T ddr_params_set_training_data
0x00222931 T ddr_restore_from_wdog_reset
0x00222999 T ddr_restore_param_wdog_reset
0x002229c1 T ddr_set_config
0x00222a19 T ddr_set_params
0x00222a79 T ddr_set_training_checksum
0x00222aa1 T ddr_set_training_cookie
0x00222ab5 T sys_debug_bric_settings
0x00223314 D wdog_reset
0x00223318 D ddr_params_set_enhance_whitelist
0x0022338c D ddr_bimc_config_MSM8x17_LPDDR2
0x00223854 D ddr_phy_config_MSM8x17_LPDDR2
0x002238ac D ddr_caphy_config_MSM8x17_LPDDR2
0x0022395c D ddr_dqphy_config_MSM8x17_LPDDR2
0x002239fc D ddr_bimc_config_MSM8x17_LPDDR3
0x00223aac D ddr_phy_config_MSM8x17_LPDDR3
0x00223ab4 D ddr_caphy_config_MSM8x17_LPDDR3
0x00223abc D ddr_dqphy_config_MSM8x17_LPDDR3
0x00223ac4 D ddr_bimc_config_base
0x00223ac8 D ddr_phy_config_base
0x00223acc D ddr_caphy_config_base
0x00223ad0 D ddr_dqphy_config_base
0x00223ad4 D ddr_bimc_config_delta
0x00223ad8 D ddr_phy_config_delta
0x00223adc D ddr_caphy_config_delta
0x00223ae0 D ddr_dqphy_config_delta
0x00223ae8 D DDR_PHY_INIT_CDC_DELAY
0x00223aec D ddr_func_tbl
0x08005021 T _printf_ll
0x08005021 T _printf_percent
0x0800502b T _printf_d
0x08005031 T _printf_u
0x08005037 T _printf_x
0x0800503d T _printf_llx
0x08005043 T _printf_c
0x08005049 T _printf_s
0x0800504f T _printf_percent_end
0x08005055 T __blocksCopy
0x080050cf T calloc
0x080050f8 A __aeabi_uldivmod
0x080050f8 A _ll_udiv
0x0800510c A _ll_udiv_donemoving
0x08005429 T __aeabi_llsl
0x08005429 T _ll_shift_l
0x08005451 T __2snprintf
0x08005489 T _printf_pre_padding
0x080054b7 T _printf_post_padding
0x080054db T _printf_str
0x0800552d T _printf_int_dec
0x080055a1 T _printf_longlong_hex
0x080055f7 T _printf_int_hex
0x08005613 T _printf_ll_hex
0x08005625 T __printf
0x080057b1 T __aeabi_assert
0x080057b1 T __assert
0x08005831 T strchr
0x08005845 T memcmp
0x0800589d T strlen
0x080058d8 A strncmp
0x080059c8 A __aeabi_memcpy
0x080059c8 A __rt_memcpy
0x08005a7c A _memcpy_lastbytes
0x08005a9c A __aeabi_memmove
0x08005a9c A __rt_memmove
0x08005b50 A __memmove_lastfew
0x08005b70 A __aeabi_memcpy4
0x08005b70 A __aeabi_memcpy8
0x08005b70 A __rt_memcpy_w
0x08005bbc A _memcpy_lastbytes_aligned
0x08005bd4 A __aeabi_memmove4
0x08005bd4 A __aeabi_memmove8
0x08005bd4 A __rt_memmove_w
0x08005c00 A __memmove_aligned
0x08005c3c A __memmove_lastfew_aligned
0x08005c55 T __aeabi_memset
0x08005c65 T __aeabi_memclr
0x08005c65 T __rt_memclr
0x08005c69 T _memset
0x08005ca9 T __aeabi_memclr4
0x08005ca9 T __aeabi_memclr8
0x08005ca9 T __rt_memclr_w
0x08005cad T _memset_w
0x08005cf8 A strcmp
0x08005d99 T __aeabi_uread4
0x08005d99 T __rt_uread4
0x08005daf T __aeabi_uwrite4
0x08005daf T __rt_uwrite4
0x08005dc5 T __aeabi_uread8
0x08005dc5 T __rt_uread8
0x08005df3 T __aeabi_uwrite8
0x08005df3 T __rt_uwrite8
0x08005e20 A __aeabi_idiv
0x08005e20 A __aeabi_idivmod
0x0800604d T __aeabi_idiv0
0x08006051 T __aeabi_ldiv0
0x08006055 T _printf_int_common
0x08006117 T _printf_char_common
0x0800613d T _sputc
0x08006147 T _snputc
0x08006157 T _printf_cs_common
0x0800616b T _printf_char
0x0800617b T _printf_string
0x08006183 T abort
0x08006193 T __assert_puts
0x080061a8 A __rt_udiv10
0x080061d5 T _ttywrch
0x080061e5 T _sys_exit
0x080061f1 T __rt_div0
0x080061fb T __rt_SIGABRT
0x08006203 T __I$use$semihosting
0x08006203 T __use_no_semihosting_swi
0x08006205 T __rt_SIGFPE
0x08006205 T __semihosting_library_function
0x0800620c A __aeabi_uidiv
0x0800620c A __aeabi_uidivmod
0x0800623c A apt_jump
0x08006240 A apt_execute
0x08006248 A apt_get_PTptr
0x08006254 A mmu_invalidate_tlb
0x08006270 A mmu_invalidate_instruction_cache
0x0800628c A mmu_invalidate_data_cache
0x080062bc A mmu_enable_instruction_cache
0x080062e0 A cache_mmu_disable
0x08006310 A memory_barrier
0x08006318 A cache_set_memory_barrier_location
0x08006324 A dcache_clean_all
0x080063b8 A dcache_flush_region
0x08006420 A dcache_inval_region
0x0800649c A dcache_clean_region
0x08006504 A mmu_flush_cache
0x08006528 A mmu_flush_cache_and_disable
0x080065c0 A mmu_relocate_page_table_base
0x08006600 A mmu_get_page_table_base
0x08006614 A mmu_set_dacr
0x0800662c A qmemset
0x08006730 A __main
0x08006730 A _main
0x08006784 A sbl_save_regs
0x08006874 A sbl_loop_here
0x080068f0 A boot_read_l2esr
0x0800690c A sbl1_external_abort_enable
0x08006b41 T boot_ddr_params_is_training_required
0x08006b45 T boot_ddr_params_get_training_data
0x08006b49 T boot_ddr_params_set_training_data
0x08006b4d T boot_ddr_test
0x08006c37 T boot_ddr_params_is_training_on_rpm_required
0x08006c3b T boot_ddr_do_ddr_training
0x08006c3f T boot_ddr_remapper
0x08006c43 T boot_ddr_preinit_rpm
0x08006c78 A hal_sdcc_memcpy32
0x08006c94 A hal_sdcc_memcpy_read
0x08006cb4 A hal_sdcc_memcpy_write
0x08006d05 T AdcMapLinearInt32toInt32
0x08006d97 T BIMC_Disable_All_Periodic
0x08006def T BIMC_Enable_All_Periodic
0x08006e81 T BootTempCheck
0x08007101 T CeCLIOCtlCipherRegXfer
0x08007411 T CeCLIOCtlGetCipherCntx
0x08007455 T CeCLIOCtlGetHashCipherCntx
0x080074fd T CeCLIOCtlGetHashCntx
0x08007571 T CeCLIOCtlGetHashDigest
0x080075c1 T CeCLIOCtlHashCompletion
0x080075d9 T CeCLIOCtlHashRegXfer
0x080076f1 T CeCLIOCtlSetCipherCntx
0x08007a45 T CeCLIOCtlSetHashCipherCntx
0x08007ca1 T CeCLIOCtlSetHashCntx
0x08007d99 T CeClClockDisable
0x08007d9d T CeClClockEnable
0x08007da1 T CeClIOCtlCipher
0x08007e17 T CeClIOCtlHash
0x08007e8d T CeClIOCtlHashCipher
0x08007ec1 T CeClInit
0x08007ef5 T CeELBamCipherXfer
0x080080cd T CeELBamHashCipherXfer
0x08008219 T CeELBamHashXfer
0x0800833d T CeELCipherRegXfer
0x0800836d T CeELHashRegXfer
0x08008395 T CeElBamDeInit
0x080083b9 T CeElBamInit
0x080085e9 T CeElBamXferFunction
0x080086b1 T CeElCeil
0x080086c7 T CeElDeinit
0x080086cb T CeElDisableClock
0x080086cf T CeElEnableClock
0x080086d3 T CeElGetXferModeList
0x080086dd T CeElGetXferfunction
0x08008701 T CeElInit
0x08008705 T CeElMemScpy
0x0800870f T CeElMemcpy
0x08008719 T CeElMemoryBarrier
0x08008723 T CeElMemset
0x08008733 T CeElMutexEnter
0x08008737 T CeElMutexExit
0x0800873b T CeElRegXferFunction
0x080087d5 T CeElfree
0x080087e1 T CeElfree_Env
0x0800882d T CeElmalloc
0x08008839 T CeElmalloc_Env
0x080088d9 T CeMLCipherData
0x08008b11 T CeMLCipherDeInit
0x08008b37 T CeMLCipherInit
0x08008b85 T CeMLCipherSetParam
0x08008de1 T CeMLDeInit
0x08008df5 T CeMLHashAtomic
0x08008ee9 T CeMLHashCipherData
0x08009139 T CeMLHashDeInit
0x08009165 T CeMLHashFinal
0x080092d5 T CeMLHashInit
0x080093f1 T CeMLHashSetParam
0x08009569 T CeMLHashUpdate
0x0800988d T CeMLInit
0x080098c1 T CeMlHashUpdate
0x080099c1 T ChipInfo_Close
0x080099cd T ChipInfo_DalChipInfo_Attach
0x08009a8b T ChipInfo_DeviceDeInit
0x08009a8f T ChipInfo_DeviceInit
0x08009a93 T ChipInfo_DriverDeInit
0x08009aa9 T ChipInfo_DriverInit
0x08009d09 T ChipInfo_GetChipFamily
0x08009d15 T ChipInfo_GetChipId
0x08009d21 T ChipInfo_GetChipIdString
0x08009d37 T ChipInfo_GetChipVersion
0x08009d45 T ChipInfo_GetFamily
0x08009d99 T ChipInfo_GetFamilyByPart
0x08009ded T ChipInfo_GetFoundry
0x08009e55 T ChipInfo_GetFoundryId
0x08009e61 T ChipInfo_GetModemSupport
0x08009e71 T ChipInfo_GetPart
0x08009ea9 T ChipInfo_GetRawChipId
0x08009eb7 T ChipInfo_GetRawChipVersion
0x08009ec5 T ChipInfo_GetRawPart
0x08009f1d T ChipInfo_GetRawVersion
0x08009f75 T ChipInfo_GetSerialNumber
0x08009f85 T ChipInfo_GetVersion
0x0800a045 T ChipInfo_Info
0x0800a05d T ChipInfo_Open
0x0800a061 T ChipInfo_PowerEvent
0x0800a065 T Clock_APCSMuxMapToSource
0x0800a089 T Clock_BIMCConfigFSM
0x0800a0a9 T Clock_BIMCIsFSMConfigured
0x0800a0c1 T Clock_BIMCMuxMapToSource
0x0800a0ed T Clock_BIMCQuery
0x0800a27d T Clock_ConfigBIMCMux
0x0800a2a1 T Clock_ConfigMux
0x0800a34d T Clock_ConfigurePLL
0x0800a485 T Clock_ConfigureSource
0x0800a55d T Clock_DDRSpeed
0x0800a569 T Clock_DebugInit
0x0800a5b9 T Clock_DetectMuxCfg
0x0800a5e1 T Clock_DisablePLL
0x0800a651 T Clock_DisableUARTClock
0x0800a6a1 T Clock_DisableUSB
0x0800a711 T Clock_EnablePLL
0x0800a811 T Clock_EnableSource
0x0800a8e9 T Clock_ExitBoot
0x0800a959 T Clock_GCCMuxMapToSource
0x0800a97d T Clock_GetClockFrequency
0x0800a9b1 T Clock_I2CInit
0x0800a9b5 T Clock_Init
0x0800aa35 T Clock_InitCrypto
0x0800aa85 T Clock_InitForDownloadMode
0x0800aad5 T Clock_InitUSB
0x0800ab2d T Clock_InitVotes
0x0800ab71 T Clock_IsPLLEnabled
0x0800ab9d T Clock_MuxMapToSource
0x0800abbd T Clock_PreDDRInit
0x0800abed T Clock_PreDDRInitEx
0x0800ad81 T Clock_RailwayConfig
0x0800ad89 T Clock_ReplaceUSBBootClockEnable
0x0800ade1 T Clock_SBLConfig
0x0800ade9 T Clock_SDCCMuxMapToSource
0x0800ae0d T Clock_SetBIMCSpeed
0x0800b0b1 T Clock_SetCPUPerfLevel
0x0800b139 T Clock_SetSDCClockFrequency
0x0800b165 T Clock_SetSDCClockFrequencyExt
0x0800b255 T Clock_SetSysPerfLevel
0x0800b325 T Clock_SetUARTClockFrequency
0x0800b449 T Clock_SourceMapToAPCS
0x0800b46b T Clock_SourceMapToBIMC
0x0800b497 T Clock_SourceMapToGCC
0x0800b4b9 T Clock_SourceMapToMux
0x0800b4d5 T Clock_SourceMapToSDCC
0x0800b4f7 T Clock_ToggleClock
0x0800b51f T Clock_TriggerUpdate
0x0800b551 T DALFW_AddRef
0x0800b56d T DALFW_AttachToDevice
0x0800b5f1 T DALFW_AttachToStringDevice
0x0800b70f T DALFW_Release
0x0800b74d T DALGLBCTXT_AllocCtxt
0x0800b7f9 T DALGLBCTXT_Init
0x0800b927 T DALSYS_BusyWait
0x0800b92b T DALSYS_CacheCommand
0x0800b95d T DALSYS_DestroyObject
0x0800b961 T DALSYS_EventCreate
0x0800b981 T DALSYS_EventMultipleWait
0x0800b989 T DALSYS_Free
0x0800b9a1 T DALSYS_GetDALPropertyHandle
0x0800b9a5 T DALSYS_GetDALPropertyHandleStr
0x0800b9e9 T DALSYS_GetPropDir
0x0800b9f5 T DALSYS_GetPropStructPtrArray
0x0800ba01 T DALSYS_GetPropertyValue
0x0800ba05 T DALSYS_HeapInit
0x0800ba41 T DALSYS_InitMod
0x0800ba51 T DALSYS_LogEvent
0x0800ba75 T DALSYS_Malloc
0x0800baed T DALSYS_MemInfo
0x0800bb19 T DALSYS_MemRegionAlloc
0x0800bb89 T DALSYS_SyncCreate
0x0800bb9d T DALSYS_SyncEnter
0x0800bb9f T DALSYS_SyncLeave
0x0800bba1 T DALTLMMState_Init
0x0800bce5 T DALTLMMState_MacroToStruct
0x0800bcff T DALTLMMState_StructToMacro
0x0800bd39 T DAL_DeviceAttach
0x0800bd77 T DAL_DeviceAttachEx
0x0800bdc9 T DAL_DeviceAttachLocal
0x0800be19 T DAL_DeviceDetach
0x0800be4d T DAL_StringDeviceObjectLookup
0x0800bf31 T DDRSS_EBI1_PHY_Set_Training_Data
0x0800bf7d T DDRSS_ddr_phy_dq_rd_training_ddrss
0x0800c0f5 T DDRSS_ddr_phy_dq_wr_training_ddrss
0x0800c26d T DDRSS_dq_rd_wr_training_histogram_update
0x0800c2ab T DDRSS_get_ca_exp_pattern
0x0800c33d T DDRSS_histogram_min_max_scan
0x0800c3fd T GetPID
0x0800c43d T HAL_SDRAM_BIMC_CA_Training_Exit
0x0800c495 T HAL_SDRAM_BIMC_CA_Training_Pattern_Set
0x0800c563 T HAL_SDRAM_BIMC_CA_Training_Pattern_Toggle
0x0800c57f T HAL_SDRAM_DDR_PHY_CA_training_mode
0x0800c5df T HAL_SDRAM_DDR_PHY_Update_RD_CDC_Config
0x0800c61b T HAL_SDRAM_DDR_PHY_Update_WR_CDC_Config
0x0800c659 T HAL_SDRAM_DDR_PHY_read_dq_training_status_for_ca_training
0x0800c7ed T HAL_SDRAM_DPE_Disable_Power_Down
0x0800c813 T HAL_SDRAM_DPE_Enable_Power_Down
0x0800c88d T HAL_SDRAM_ddr_phy_ca_training
0x0800ca8d T HAL_SRAM_DDR_PHY_Update_CA_CDC_Config
0x0800cac1 T HAL_config_timers
0x0800cae1 T HAL_cpr_age_data_valid
0x0800caed T HAL_cpr_bypass_sensor_all
0x0800cb07 T HAL_cpr_clear_int_all
0x0800cb11 T HAL_cpr_configure_hw_defaults
0x0800cb43 T HAL_cpr_enable_block
0x0800cb7d T HAL_cpr_enable_int
0x0800cb93 T HAL_cpr_mask_sensor
0x0800cbc1 T HAL_cpr_mask_sensor_all
0x0800cbdb T HAL_cpr_next_meas_en
0x0800cbed T HAL_cpr_poll_result
0x0800cc5d T HAL_cpr_poll_status_and_dont_return_until_not_busy
0x0800ccb9 T HAL_cpr_prgm_gcnt_target
0x0800cccb T HAL_cpr_set_age_mode
0x0800cce1 T HAL_cpr_set_clamp_timer_interval
0x0800ccfd T HAL_cpr_set_count_mode
0x0800cd51 T HAL_cpr_set_sw_auto_cont_ack
0x0800cd69 T HAL_cpr_write_consecutive_dn
0x0800cd81 T HAL_cpr_write_consecutive_up
0x0800cd99 T HAL_cpr_write_dn_threshold
0x0800cdb1 T HAL_cpr_write_stepquot
0x0800cdc5 T HAL_cpr_write_up_threshold
0x0800cde1 T HAL_sdcc_DataControl
0x0800ce19 T HAL_sdcc_FifoBlockRead
0x0800ce4d T HAL_sdcc_FifoBlockWrite
0x0800ce95 T HAL_sdcc_HCModeEnable
0x0800ce99 T HAL_sdcc_InitializeRegisters
0x0800cee1 T HAL_sdcc_SetBusWidth
0x0800cf15 T HAL_sdcc_SetSdCmd
0x0800cf69 T HAL_sdcc_Supports8BitBus
0x0800cf6d T HAL_sdcc_WaitWrActive
0x0800cf89 T HAL_sdhci_PowerSave
0x0800cf8d T HAL_tlmm_ConfigGpio
0x0800cfe9 T HAL_tlmm_Init
0x0800cffd T HAL_tlmm_SetPort
0x0800d019 T HAL_tlmm_WriteConfig
0x0800d031 T HAL_tlmm_WriteGpio
0x0800d06d T HAL_tsens_CalSelect
0x0800d07d T HAL_tsens_ConfigSensor
0x0800d095 T HAL_tsens_DisableInterrupt
0x0800d0ed T HAL_tsens_EnableInterrupt
0x0800d13d T HAL_tsens_GetBaseX1
0x0800d151 T HAL_tsens_GetBaseX2
0x0800d165 T HAL_tsens_GetDisabledCPUsMask
0x0800d169 T HAL_tsens_GetMaxCode
0x0800d171 T HAL_tsens_GetPointX1
0x0800d245 T HAL_tsens_GetPointX2
0x0800d311 T HAL_tsens_GetSensorPrevTemp
0x0800d335 T HAL_tsens_Init
0x0800d343 T HAL_tsens_MTC_ConfigZone
0x0800d381 T HAL_tsens_MTC_ConfigZoneSwMask
0x0800d3d1 T HAL_tsens_MTC_SetMargins
0x0800d3f9 T HAL_tsens_MTC_SetThresholds
0x0800d425 T HAL_tsens_Reset
0x0800d443 T HAL_tsens_SelectADCClkSrc
0x0800d469 T HAL_tsens_SetAutoAdjustPeriod
0x0800d48d T HAL_tsens_SetCpuHighLowEnable
0x0800d48f T HAL_tsens_SetCpuHighLowThreshold
0x0800d491 T HAL_tsens_SetCpuIndexes
0x0800d493 T HAL_tsens_SetMTCState
0x0800d4bb T HAL_tsens_SetPeriod
0x0800d4d3 T HAL_tsens_SetPeriodSleep
0x0800d4df T HAL_tsens_SetSensorsEnabled
0x0800d4fb T HAL_tsens_SetState
0x0800d521 T HAL_tsens_SetThreshold
0x0800d599 T HAL_tsens_TempMeasurementIsComplete
0x0800d5b1 T HAL_tsens_UseRedundant
0x0800d5b5 T HALuart_DisableInterrupts
0x0800d5cb T HALuart_GetFifoSize
0x0800d5db T HALuart_GetInterruptStatus
0x0800d5e5 T HALuart_GetStatus
0x0800d5ef T HALuart_GetTxFifoSize
0x0800d5f7 T HALuart_ResetErrorStatus
0x0800d5ff T HALuart_ResetReceiver
0x0800d607 T HALuart_ResetTransmitter
0x0800d60f T HALuart_SetAutoInboundFlowCtl
0x0800d621 T HALuart_SetCharFormat
0x0800d643 T HALuart_SetCmdSynchronization
0x0800d655 T HALuart_SetDivider
0x0800d65b T HALuart_SetDmaEnable
0x0800d671 T HALuart_SetIrdaEnable
0x0800d68b T HALuart_SetLoopback
0x0800d6a1 T HALuart_SetOutboundFlowCtl
0x0800d6b3 T HALuart_SetRxEnable
0x0800d6c1 T HALuart_SetRxSCEnable
0x0800d6d7 T HALuart_SetRxWatermark
0x0800d6f5 T HALuart_SetStaleEvent
0x0800d707 T HALuart_SetStaleTimeout
0x0800d729 T HALuart_SetTxEnable
0x0800d737 T HALuart_SetTxFifoSize
0x0800d73f T HALuart_SetTxSCEnable
0x0800d755 T HALuart_SetTxWatermark
0x0800d76b T HALuart_SetupDmaRx
0x0800d76f T HALuart_WriteTxFifo
0x0800d7bf T I2C_DalI2C_Attach
0x0800d7c3 T ICB_Config_Init
0x0800d7dd T ICB_Config_PostInit
0x0800da15 T ICB_Get_Memmap
0x0800da47 T ICB_Remap
0x0800da51 T ICB_RemapEx
0x0800dc49 T ICB_Segments_Init
0x0800dcc5 T IsExternalMemReady
0x0800dcdf T PlatformInfo_CDTConfigPostDDR
0x0800dd09 T PlatformInfo_CDTConfigPreDDR
0x0800de45 T PlatformInfo_DeviceAttach
0x0800dead T PlatformInfo_DriverInit
0x0800deb1 T PlatformInfo_GetKeyValue
0x0800def9 T PlatformInfo_GetPlatform
0x0800df09 T PlatformInfo_GetPlatformInfo
0x0800e201 T PmicArb_AddCacheEntry
0x0800e315 T PmicArb_ExecuteCommand
0x0800e491 T PmicArb_FindChannel
0x0800e4ed T PmicArb_GetHwStatus
0x0800e519 T PmicArb_GetMaxChannelSupport
0x0800e51f T PmicArb_GetNumBusesSupported
0x0800e525 T PmicArb_HasInterruptSupport
0x0800e531 T PmicArb_Init
0x0800e581 T PmicArb_InvalidateCache
0x0800e5d9 T PmicArb_UpdateCache
0x0800e61d T PmicFgSram_PollFgSramAccess
0x0800e69d T PmicFgSram_PrintState
0x0800e69f T PmicFgSram_ProgBurstAccessEx
0x0800e7f9 T PmicFgSram_ReleaseFgSramAccess
0x0800e81f T PmicFgSram_RequestFgSramAccess
0x0800e84d T PmicFgSram_SetState
0x0800e871 T PrngCL_getdata
0x0800e919 T PrngCL_lite_deinit
0x0800e91d T PrngCL_lite_init
0x0800e94f T PrngEL_ClkDisable
0x0800e953 T PrngEL_ClkEnable
0x0800e957 T PrngML_getdata_lite
0x0800e97d T SpmiBusCfg_ConfigureChannel
0x0800e9e5 T SpmiBusCfg_InDynamicChannelMode
0x0800e9f1 T SpmiBusCfg_Init
0x0800ea3d T SpmiBusCfg_SetDynamicChannelMode
0x0800ea85 T SpmiBus_DeInit
0x0800eafd T SpmiBus_Init
0x0800eb51 T SpmiBus_ReadLong
0x0800eb71 T SpmiBus_WriteLong
0x0800eb91 T SpmiHal_Init
0x0800ebb1 T SpmiMaster_ConfigHW
0x0800ec35 T SpmiMaster_LoadFirmware
0x0800ed5d T SpmiOsNhlos_GetDalProp
0x0800edf9 T SpmiOs_Free
0x0800edfd T SpmiOs_GetAhbClkState
0x0800ee35 T SpmiOs_GetOwnerId
0x0800ee59 T SpmiOs_GetPmicArbBaseAddr
0x0800eeed T SpmiOs_GetReservedChannels
0x0800ef25 T SpmiOs_GetSerialClkState
0x0800ef5d T SpmiOs_GetTimeTick
0x0800ef63 T SpmiOs_HandleTransactionError
0x0800efb9 T SpmiOs_Malloc
0x0800efbd T SpmiOs_RegisterISR
0x0800efc1 T SpmiOs_Wait
0x0800efc5 T System_DalSystem_Attach
0x0800efcd T TLMM_Close
0x0800efd1 T TLMM_ConfigGpio
0x0800efe5 T TLMM_ConfigGpioGroup
0x0800f0c1 T TLMM_DalTlmm_Attach
0x0800f16d T TLMM_DeviceDeInit
0x0800f185 T TLMM_DeviceInit
0x0800f3c9 T TLMM_DriverDeInit
0x0800f3cd T TLMM_DriverInit
0x0800f3d1 T TLMM_GpioOut
0x0800f3df T TLMM_Info
0x0800f3f9 T TLMM_Open
0x0800f3fd T TLMM_PostInit
0x0800f455 T TLMM_PowerEvent
0x0800f459 T TLMM_SetInactiveConfig
0x0800f49d T TLMM_SetPort
0x0800f501 T Tlmm_ConfigGpioGroup
0x0800f625 T Tlmm_Init
0x0800f6bd T Tsens_GetTemp
0x0800f7c5 T Tsens_Init
0x0800fc85 T Tsensi_Apply_D30_Correction_8940
0x0800fce1 T Tsensi_Apply_D30_D120_Correction_8940
0x0800fd85 T Tsensi_CalibrationInit
0x0800ffd5 T Tsensi_ConvertFromDegC
0x08010029 T Tsensi_ConvertToDegC
0x080100c5 T Uart_busy_wait
0x080100c9 T Uart_clock_close
0x08010115 T Uart_clock_open
0x08010199 T Uart_deinit
0x08010221 T Uart_get_driver_properties
0x08010289 T Uart_get_properties
0x08010389 T Uart_init
0x0801049d T Uart_tlmm_close
0x08010501 T Uart_tlmm_open
0x0801057f T Uart_transmit
0x080105f9 T VAdcHalGetConversionCode
0x0801064d T VAdcHalGetRevisionInfo
0x080106b9 T VAdcHalGetStatus
0x0801074d T VAdcHalRequestConversion
0x08010785 T VAdcHalSetConversionParameters
0x0801082d T VAdcHalSetEnable
0x0801086d T VAdcHalSetOpMode
0x080108ad T VAdcHalSetSequencerParameters
0x08010919 T VAdcHalStoreFabID
0x08010995 T VAdcScalePmicTherm
0x080109a9 T VAdcScaleTdkNTCGTherm
0x080109e7 T VAdc_Calibrate
0x08010b11 T VAdc_Close
0x08010b39 T VAdc_DalAdcDevice_Attach
0x08010c37 T VAdc_DeviceDeInit
0x08010c59 T VAdc_DeviceInit
0x08010ded T VAdc_DriverDeInit
0x08010df1 T VAdc_DriverInit
0x08010df5 T VAdc_GetChannel
0x08010e41 T VAdc_GetChannelStatus
0x08010e47 T VAdc_GetDeviceProperties
0x08010e53 T VAdc_Info
0x08010e6d T VAdc_Open
0x08010e8d T VAdc_PowerEvent
0x080110b7 T VAdc_ReadChannelSync
0x08011107 T VAdc_RecalibrateChannel
0x0801110d T VAdc_RecalibrateChannelSync
0x080111b5 T VAdc_ScaleResult
0x08011219 T VAdc_ScaleResultAbsolute
0x08011271 T VAdc_StartConversion
0x08011525 T _DALSYS_GetDALPropertyHandle
0x08011569 T _DALSYS_GetPropertyValue
0x08011627 T _DALSYS_memscpy
0x080118b5 T __rt_raise
0x080118e1 T __stack_chk_fail
0x080119c5 T _f_addentry
0x08011d75 T _f_addlfn
0x08011ff1 T _f_alloc_cluster_for_dir
0x08012105 T _f_alloccluster
0x0801223d T _f_allocnextcluster
0x08012395 T _f_check_handle
0x080123c9 T _f_checkappendlocked
0x08012435 T _f_checklocked
0x080124f5 T _f_checkreadlocked
0x08012599 T _f_checkstatus
0x08012699 T _f_clustertopos
0x080126e1 T _f_cmp_wname
0x0801283d T _f_dobadblock
0x08012961 T _f_drivenum_to_index
0x080129b1 T _f_drvreadsector
0x08012a3b T _f_emptywritebuffer
0x08012afb T _f_emptywritecache
0x08012cdd T _f_fatcache_flush
0x08012ec5 T _f_findopensize
0x080130a5 T _f_fseek
0x080132a5 T _f_get16bitl
0x080132af T _f_get32bitl
0x080133f9 T _f_getclustervalue
0x08013519 T _f_getcurrsector
0x080136bd T _f_getdecluster
0x080136f1 T _f_getdirsector
0x080138f1 T _f_getmaxcluster
0x08013945 T _f_getvolume
0x08013a6d T _f_initentry
0x08013abd T _f_mutex_get
0x08013acd T _f_mutex_put
0x08013eaf T _f_readsector
0x08013f55 T _f_removechain
0x08014231 T _f_set16bitl
0x08014239 T _f_set32bitl
0x08014249 T _f_setclustervalue
0x080143c9 T _f_setdecluster
0x0801455d T _f_syncfiles
0x080145f9 T _f_syncfilescontent
0x08014675 T _f_updatefileentry
0x08014749 T _f_writedirsector
0x080147a5 T _f_writefatsector
0x0801480f T _f_writesector
0x0801481f T _f_writesector_is_udata
0x080148f1 T _f_writesector_udata
0x08014901 T _f_writezeros
0x08014a09 T _fn_initseekdivisor
0x08014a65 T _fn_removeseekpos
0x08014a97 T _fn_updateseekpos
0x08014b25 T _is_digit
0x08014b33 T add
0x08014d39 T adjust_channel
0x08014ef3 T adjust_memory_map
0x080150b9 T apply_dbg_policy
0x080152ed T apt_test
0x0801546b T auth_image_against_debug_policy
0x080155db T bByteCompare
0x0801560b T bLoad8
0x0801561f T bStor8
0x08015641 T bam_drv_init
0x08015669 T bam_init
0x080159e9 T bam_isr
0x08015a25 T bam_osal_cachecmd
0x08015a3d T bam_osal_free
0x08015a41 T bam_osal_freememregion
0x08015a51 T bam_osal_init
0x08015a53 T bam_osal_isrinstall
0x08015a57 T bam_osal_malloc
0x08015a69 T bam_osal_mallocmemregion
0x08015ac1 T bam_osal_memorybarrier
0x08015ac5 T bam_osal_syncenter
0x08015ac7 T bam_osal_syncinit
0x08015acb T bam_osal_syncleave
0x08015acd T bam_pipe_disable
0x08015b23 T bam_pipe_enable
0x08015b9d T bam_pipe_eot_handler
0x08015d4f T bam_pipe_init
0x08015ebb T bam_pipe_poll
0x08015f27 T bam_pipe_setirqmode
0x08015f7f T bam_pipe_transfer
0x08015fd9 T bam_secure_init
0x08016021 T bam_tgt_getcfg
0x08016065 T bam_tgt_getnumdevs
0x080160a1 T bamcore_bam_enabled
0x08016103 T bamcore_check
0x0801622d T bamcore_getirqmode
0x08016233 T bamcore_init
0x080162bb T bamcore_lpae_supported
0x080162c1 T bamcore_pipe_deinit
0x0801630d T bamcore_pipe_get_toggle
0x08016329 T bamcore_pipe_getandclearirqstatus
0x08016359 T bamcore_pipe_getdescreadoffset
0x0801636d T bamcore_pipe_init
0x08016485 T bamcore_pipe_nwd_done
0x080164a5 T bamcore_pipe_secure_init
0x0801656d T bamcore_pipe_setdescwriteoffset
0x08016581 T bamcore_pipe_setirqmode
0x0801660d T bamcore_pipe_setlockgroup
0x08016629 T bamcore_secure_init
0x08016689 T bamcore_secure_set_sg
0x08016711 T bamcore_setirqmode
0x08016757 T bamdev_read_reg
0x08016767 T bamdev_write_reg
0x0801676d T bamdev_write_reg_field
0x08016781 T bami_pipe_transfer_no_lock
0x08016895 T blockdev_close
0x080168c9 T blockdev_devnull_get_ops
0x08016989 T blockdev_driver_get_total_devices
0x0801698d T blockdev_find_by_type
0x080169cd T blockdev_get_device_info
0x080169e9 T blockdev_get_device_size
0x08016a11 T blockdev_get_entire_device_id
0x08016a29 T blockdev_get_name
0x08016a41 T blockdev_get_type
0x08016a59 T blockdev_init
0x08016a8d T blockdev_is_embedded_device
0x08016aa9 T blockdev_is_present
0x08016ac5 T blockdev_open
0x08016ae1 T blockdev_read
0x08016b25 T blockdev_reset
0x08016b85 T blockdev_sd_device_data_init
0x08016c0d T blockdev_sd_get_device_data
0x08016d99 T blockdev_sd_get_ops
0x08017119 T blockdev_uwrite
0x0801715d T blockdev_write
0x080171a1 T boot_BootTempCheck
0x080171a5 T boot_CeMLDeInit
0x080171a9 T boot_CeMLHashDeInit
0x080171ad T boot_CeMLHashFinal
0x080171b1 T boot_CeMLHashInit
0x080171b5 T boot_CeMLHashUpdate
0x080171c5 T boot_CeMLInit
0x080171c9 T boot_DALSYS_HeapInit
0x080171cd T boot_DALSYS_InitMod
0x080171d1 T boot_DAL_DeviceAttachEx
0x080171d5 T boot_DAL_DeviceDetach
0x080171d9 T boot_DalPlatformInfo_CDTConfigPostDDR
0x080171df T boot_DalPlatformInfo_CDTConfigPreDDR
0x080171e5 T boot_ICB_Config_Init
0x080171e9 T boot_ICB_Config_PostInit
0x080171ed T boot_ICB_Remap
0x080171f1 T boot_ICB_Segments_Init
0x080171f5 T boot_PrngML_getdata_lite
0x080171f9 T boot_Tsens_Init
0x080171fd T boot_apt_test
0x08017201 T boot_auth_compute_verify_hash
0x08017255 T boot_auth_image_hashtable
0x08017261 T boot_bam_drv_init
0x08017265 T boot_busywait
0x08017269 T boot_busywait_init
0x0801726d T boot_cache_set_memory_barrier
0x080172a5 T boot_check_device_temp
0x08017321 T boot_clobber_add_global_protection_region
0x080173b9 T boot_clobber_add_local_hole
0x0801742d T boot_clobber_check_global_address_range
0x080174a5 T boot_clobber_check_global_whitelist_range
0x0801752d T boot_clobber_check_local_address_range
0x080175bd T boot_clobber_import_whitelist_table
0x080175c9 T boot_clobber_local_init
0x080175d5 T boot_clobber_remove_local_hole
0x0801763d T boot_clock_DisableUSB
0x08017641 T boot_clock_InitUSB
0x08017645 T boot_clock_SetUARTClockFrequency
0x08017649 T boot_clock_debug_init
0x0801764d T boot_clock_disable_UARTClock
0x08017651 T boot_clock_exit_boot
0x08017655 T boot_clock_get_apps_speed
0x08017665 T boot_clock_get_ddr_speed
0x08017669 T boot_clock_init
0x08017671 T boot_clock_set_bimcspeed
0x080179d1 T boot_compress_get_header
0x080179f5 T boot_compress_input
0x08017a2d T boot_config_data_table_init
0x08017aed T boot_config_process_bl
0x08017ddd T boot_cpr_init
0x08017de1 T boot_data_abort_c_handler
0x08017e05 T boot_dload_check
0x08017e8d T boot_dload_clock_init
0x08017f29 T boot_dload_dump_security_regions
0x08017f51 T boot_dload_entry
0x08017f75 T boot_dload_is_dload_mode_set
0x08017fed T boot_dload_set_cookie
0x08017ffd T boot_dload_transition_enter_sahara
0x08018041 T boot_dload_transition_pbl_forced_dload
0x08018061 T boot_do_procedures
0x08018199 T boot_efs_close
0x0801819d T boot_efs_closedir
0x080181a1 T boot_efs_handle_cookies
0x080181a5 T boot_efs_lseek
0x080181a9 T boot_efs_mkdir
0x080181ad T boot_efs_open
0x080181cd T boot_efs_opendir
0x080181d1 T boot_efs_unlink
0x080181d5 T boot_efs_write
0x080183c5 T boot_elf_load_init_hash_segment
0x08018aed T boot_elf_set_auth_and_ssa_enable
0x08018b15 T boot_elf_verify_image_header
0x08018c81 T boot_elf_ziinit_structures
0x08018ced T boot_enable_led
0x08018cff T boot_err_fatal
0x08018d05 T boot_error_handler
0x08018e35 T boot_fiq_c_handler
0x08018e61 T boot_flash_dev_default_stub
0x08018e65 T boot_flash_dev_if_get_singleton
0x08018ea1 T boot_flash_dev_if_lock_singleton
0x08018edd T boot_flash_dev_if_register_singleton
0x08018f19 T boot_flash_dev_sdcc_if_get_singleton
0x08018f5d T boot_flash_dev_sdcc_if_register_singleton
0x08018fa1 T boot_flash_dev_sdcc_init_and_register
0x0801900d T boot_flash_init
0x0801905d T boot_flash_target_init
0x08019185 T boot_flash_trans_sdcc_factory_init
0x080192e9 T boot_get_config_data_block
0x080193a5 T boot_get_ddr_info
0x080193e5 T boot_get_delta_time
0x08019405 T boot_get_elf_eident_class
0x08019411 T boot_get_elf_entry_address
0x08019435 T boot_get_hash_segment_buffer
0x0801943d T boot_get_hash_table_auth_result
0x08019449 T boot_get_sbl_auth_verified_info
0x08019451 T boot_get_time
0x08019495 T boot_gpio_init
0x080194c7 T boot_hash
0x080194fd T boot_hashFinal
0x0801958d T boot_hashInit
0x080195ed T boot_hashUpdate
0x0801962d T boot_hotplug_close_device
0x08019631 T boot_hotplug_dev_get_size
0x08019635 T boot_hotplug_dev_read
0x08019639 T boot_hotplug_dev_write
0x0801963d T boot_hotplug_init
0x08019641 T boot_hotplug_open_device_by_gpt_partition_type
0x08019645 T boot_hotplug_open_device_by_partition_type
0x08019649 T boot_hotplug_poll_and_mount_first_fat
0x0801964d T boot_hotplug_poll_device
0x08019651 T boot_image_populate_uuid
0x08019655 T boot_image_version_initialize_version_table
0x08019659 T boot_image_version_populate_version
0x0801965d T boot_init_for_dload
0x08019661 T boot_init_stack_chk_canary
0x080196a5 T boot_init_timer
0x08019715 T boot_irq_c_handler
0x08019741 T boot_is_auth_enabled
0x0801975d T boot_is_ddr_initialized
0x08019769 T boot_l2_page_table_init
0x08019835 T boot_load_elf_image
0x08019855 T boot_log_apps_frequency
0x080198b9 T boot_log_boot_config_register
0x08019911 T boot_log_copy_ram
0x08019995 T boot_log_ddr_frequency
0x080199f5 T boot_log_deinit_uart
0x08019a01 T boot_log_delta_time
0x08019a07 T boot_log_delta_time_optional_data
0x08019a2f T boot_log_dump
0x08019a31 T boot_log_forever_loop_check
0x08019a49 T boot_log_get_meta_info
0x08019a55 T boot_log_get_time
0x08019a59 T boot_log_image_version
0x08019ad5 T boot_log_init
0x08019afd T boot_log_init_ram
0x08019b61 T boot_log_init_uart
0x08019b6d T boot_log_message
0x08019b73 T boot_log_message_optional_data
0x08019b9d T boot_log_message_ram
0x08019c51 T boot_log_message_raw
0x08019c79 T boot_log_message_uart
0x08019e05 T boot_log_relocate
0x08019e29 T boot_log_set_meta_info
0x08019e35 T boot_log_set_ref_time
0x08019e45 T boot_log_start_timer
0x08019e49 T boot_log_stop_timer
0x08019e4f T boot_log_stop_timer_optional_data
0x08019f01 T boot_mmu_copy_page_table
0x08019f95 T boot_mmu_page_table_map_mem_block_list
0x0801a019 T boot_mmu_page_table_map_single_mem_block
0x0801a05d T boot_nested_exception_c_handler
0x0801a061 T boot_pbl_get_flash_shared_data
0x0801a099 T boot_pbl_get_flash_type
0x0801a0d1 T boot_pbl_interface_init
0x0801a0ed T boot_pbl_is_auth_enabled
0x0801a109 T boot_pbl_log_milestones
0x0801a165 T boot_pm_dev_get_power_on_reason
0x0801a16b T boot_pm_device_init
0x0801a16f T boot_pm_driver_init
0x0801a173 T boot_pm_enable_led
0x0801a19d T boot_pm_init_smem
0x0801a1a1 T boot_pm_pon_ps_hold_cfg
0x0801a1a5 T boot_pm_pon_warm_reset_status
0x0801a1ab T boot_pm_pon_warm_reset_status_clear
0x0801a1b1 T boot_pm_rtc_get_time
0x0801a1b5 T boot_pm_sbl_chg_init
0x0801a20d T boot_populate_cpr_settings
0x0801a211 T boot_populate_ram_partition_table
0x0801a289 T boot_populate_sbl_info
0x0801a313 T boot_pre_ddr_clock_init
0x0801a317 T boot_pre_i2c_clock_init
0x0801a31d T boot_prefetch_abort_c_handler
0x0801aa31 T boot_qhsusb_al_bulk_init
0x0801aa35 T boot_qsee_is_memory_dump_allowed
0x0801aa39 T boot_qsee_is_retail_unlocked
0x0801aa3d T boot_qsee_zero_peripheral_memory
0x0801aa41 T boot_query_bimc_clock
0x0801aa45 T boot_railway_init
0x0801ab8d T boot_ram_dump_header_init
0x0801ac61 T boot_ram_dump_to_raw_parition
0x0801ace1 T boot_ram_dumps_to_sd_card
0x0801ad4d T boot_ram_init
0x0801ae4d T boot_reserved_c_handler
0x0801aec5 T boot_rollback_init_img_set_table
0x0801af21 T boot_rollback_update_img_version
0x0801af55 T boot_sahara_elf_segment_is_loadable
0x0801afe5 T boot_sahara_entry
0x0801b039 T boot_sahara_get_elf_eident_class
0x0801b03d T boot_sahara_get_elf_entry_address
0x0801c275 T boot_sahara_set_is_ssa_enabled
0x0801c3fd T boot_save_reset_register_log
0x0801c3ff T boot_sbl_qsee_interface_get_eident
0x0801c429 T boot_sbl_qsee_interface_get_entry_point
0x0801c453 T boot_sbl_qsee_interface_get_image_entry
0x0801c559 T boot_sdcc_boot_set_device_info
0x0801c55d T boot_sec_img_auth_get_dpo_size
0x0801c561 T boot_sec_img_auth_hash_elf_segments
0x0801c57d T boot_sec_img_auth_is_dp_disable
0x0801c581 T boot_sec_img_auth_is_valid_segment
0x0801c585 T boot_sec_img_auth_validate_elf
0x0801c589 T boot_sec_img_auth_verify_metadata
0x0801c5b1 T boot_secboot_ftbl_init
0x0801c5d5 T boot_secboot_get_ftbl
0x0801c5d9 T boot_secboot_hw_get_ftbl
0x0801c5dd T boot_secure_watchdog_init
0x0801c705 T boot_set_ddr_info
0x0801c75d T boot_set_hash_algo
0x0801c785 T boot_set_hash_table_auth_result
0x0801c791 T boot_set_sdcc_boot_device_info
0x0801c889 T boot_share_extended_ddr_info
0x0801cb25 T boot_share_flash_data
0x0801cb29 T boot_shared_imem_init
0x0801cb55 T boot_smem_alloc
0x0801cb59 T boot_smem_boot_debug_init
0x0801cb5d T boot_smem_boot_init
0x0801cb61 T boot_smem_debug_init
0x0801cb65 T boot_smem_init
0x0801cbc5 T boot_smem_init_get_status
0x0801cbd1 T boot_smem_store_pon_status
0x0801cbfd T boot_start_timer
0x0801cc15 T boot_statistics_auth_read_start
0x0801cc25 T boot_statistics_auth_read_stop
0x0801cc49 T boot_statistics_flash_read_start
0x0801cc59 T boot_statistics_flash_read_stop
0x0801cc89 T boot_statistics_get_flash_byte_counter
0x0801cca9 T boot_statistics_log_flash
0x0801cd45 T boot_statistics_reset_flash_byte_counter
0x0801cd51 T boot_stop_timer
0x0801cd95 T boot_store_tpm_hash_block
0x0801cec1 T boot_strlen
0x0801ced9 T boot_swi_c_handler
0x0801cf05 T boot_toggle_led
0x0801cf39 T boot_toggle_led_init
0x0801cf49 T boot_uart_deinit
0x0801cf4d T boot_uart_init
0x0801cf51 T boot_uart_tx
0x0801cf55 T boot_undefined_instruction_c_handler
0x0801cf81 T boot_update_config_data_table
0x0801d1e1 T boot_update_section_header_table_by_index
0x0801d2c5 T boot_usb_al_bulk_get_max_packet_size
0x0801d2c9 T boot_usb_al_bulk_get_max_raw_data_size
0x0801d2cd T boot_usb_al_bulk_poll
0x0801d2d1 T boot_usb_al_bulk_receive
0x0801d2d5 T boot_usb_al_bulk_shutdown
0x0801d2d9 T boot_usb_al_bulk_transmit
0x0801d2dd T boot_usb_al_check_for_pbl_dload
0x0801d319 T booting_from_storage_media
0x0801d339 T busywait
0x0801d36d T busywait_init
0x0801d4a5 T check_fec_error
0x0801d63d T clear_histogram
0x0801d6d5 T compare
0x0801d6fb T compress_regions
0x0801da81 T configure_remaps
0x0801dbb1 T convert_ddr_regions
0x0801dd69 T copy_debug_policy
0x0801dde1 T count_leading_zeroes
0x0801ddf5 T count_set_bits
0x0801de55 T count_trailing_zeroes
0x0801dfa1 T cpr_aging_poll
0x0801e03d T cpr_calc_aging
0x0801e1cd T cpr_closed_loop_init_default_voltage_levels
0x0801e25d T cpr_config_closed_loop_floor_voltage
0x0801e391 T cpr_config_find_device_fuses
0x0801e441 T cpr_config_find_versioned_voltage_ranges
0x0801e4a5 T cpr_config_global_ceiling_voltage
0x0801e521 T cpr_config_open_loop_voltage
0x0801e5f5 T cpr_config_pmic_step_size
0x0801e651 T cpr_config_round_up_to_pmic_step
0x0801e695 T cpr_corner_params
0x0801e6dd T cpr_device_hw_version_init
0x0801e75d T cpr_device_hw_version_matches_this_device
0x0801e7b5 T cpr_device_target_matches_this_device
0x0801e7d1 T cpr_enable_closed_loop_feedback
0x0801e859 T cpr_enable_init_fn_closed_loop
0x0801eac5 T cpr_enablement_from_xml
0x0801eea1 T cpr_enablement_number_of_rails
0x0801eeb5 T cpr_enablement_rail_info
0x0801ef09 T cpr_externalize_state
0x0801f0a9 T cpr_find_corner_params
0x0801f0d9 T cpr_fuses_get_fuse_value
0x0801f1fd T cpr_fuses_init
0x0801f265 T cpr_image_alloc_image_rail_state
0x0801f29d T cpr_image_alloc_voltage_control_handle
0x0801f2f5 T cpr_image_enable_clocks
0x0801f329 T cpr_image_get_chip_info_version
0x0801f379 T cpr_image_get_current_corner_params
0x0801f399 T cpr_image_get_foundry_info
0x0801f431 T cpr_image_get_rail_mode
0x0801f449 T cpr_image_get_rail_mode_voltage
0x0801f479 T cpr_image_init_image_closed_loop
0x0801f47d T cpr_image_malloc
0x0801f4b1 T cpr_image_memscpy
0x0801f4b5 T cpr_image_prepare_for_voltage_settling
0x0801f4b7 T cpr_image_rail_transition_voltage
0x0801f4bb T cpr_image_set_rail_mode
0x0801f4e1 T cpr_image_set_rail_mode_voltage
0x0801f511 T cpr_init
0x0801f521 T cpr_init_closed_loop_init
0x0801f5e5 T cpr_init_initial_voltage_config
0x0801f68d T cpr_init_rail_hw
0x0801f719 T cpr_offset_fuse_val
0x0801f7d5 T cpr_rpm_railway_rail_name
0x0801f815 T cpr_settle_voltage
0x0801f959 T cpr_target_quotient_calculate_quotients
0x0801fac9 T cpr_target_quotients_handle_rail_info_not_found
0x0801fad1 T cpr_voltage_range_find_target
0x0801fb3d T crc_30_step
0x0801fbc9 T crc_32_calc
0x0801fdc9 T dci_clk_regime_msm_reset_assert
0x0801fded T dci_clk_regime_msm_reset_deassert
0x0801fe11 T dci_dcache_flush
0x0801fe15 T dci_dcache_inval
0x08020189 T dci_init_phy
0x080201ad T dci_is_streaming_mode_disable_required
0x080201b1 T dci_set_bulk_progress
0x080201bd T dci_skip_enumeration
0x0802024d T ddr_do_phy_training
0x08020519 T ddr_enter_deep_power_down
0x0802058d T ddr_enter_self_refresh
0x08020605 T ddr_exit_deep_power_down
0x0802067d T ddr_exit_self_refresh
0x080206f5 T ddr_get_info
0x08020745 T ddr_get_partition
0x080207b9 T ddr_get_size
0x0802080d T ddr_get_status
0x08020845 T ddr_init
0x0802088d T ddr_initialize_device
0x08020965 T ddr_mem_read
0x08020985 T ddr_mem_write_high_speed
0x080209ad T ddr_mem_write_low_speed
0x08020a69 T ddr_params_is_training_on_rpm_required
0x08020a6d T ddr_params_is_training_required
0x08020a89 T ddr_phy_training
0x08020b41 T ddr_post_init
0x08020b6d T ddr_preinit_rpm
0x08020b6f T ddr_remapper
0x08020b71 T ddr_target_init
0x08020c95 T ddr_test
0x08020f35 T ddr_test_all
0x08021179 T ddr_test_exit
0x080215bd T ddr_training_is_required
0x08021681 T ddr_update_info
0x08021845 T ddr_update_size
0x08021905 T ddr_write
0x08021be1 T debug_policy_override_jtag
0x08021e29 T dev_sdcc_read_bytes
0x08021fcd T dev_sdcc_write_bytes
0x08022445 T dload_debug_add_region
0x080224bd T dload_debug_add_restricted_region
0x080224f5 T dload_mem_debug_filename
0x0802251d T dload_mem_debug_init
0x08022681 T dload_mem_debug_is_device_retail_unlocked
0x08022691 T dload_mem_debug_is_restricted_addr
0x08022719 T dload_mem_debug_len
0x0802277d T dload_mem_debug_len_init
0x08022789 T dload_mem_debug_mem_base
0x080227b1 T dload_mem_debug_mem_length
0x080227d9 T dload_mem_debug_num_ent
0x080227e5 T dload_mem_debug_supported
0x08022849 T dload_mem_debug_table_addr
0x08022851 T dload_mem_debug_target_init
0x080229e5 T dload_mem_debug_verify_addr
0x08022a6d T dload_mem_debug_zero_peripheral_memory
0x080231cd T efs_boot_init_romfs
0x08023261 T efs_close
0x080232a1 T efs_closedir
0x08023305 T efs_get_errno_address
0x08023329 T efs_handle_cookies
0x080233d5 T efs_lseek
0x0802353d T efs_mkdir
0x080235a9 T efs_mount
0x08023641 T efs_open
0x080237a5 T efs_opendir
0x0802386d T efs_unlink
0x08023929 T efs_write
0x08023fd5 T f_mutex_create
0x08023fdd T f_mutex_delete
0x08023fe5 T f_mutex_get
0x08023ff5 T f_mutex_put
0x08024029 T fill_lfn_entry
0x0802410d T find_bn_MSB1
0x08024301 T fm_close
0x08024325 T fm_delvolume
0x08024349 T fm_enable_lfn_support
0x0802434d T fm_ftruncate
0x08024375 T fm_getfreespace
0x0802439d T fm_getlabel
0x080243c9 T fm_initvolume
0x080243f5 T fm_read
0x0802442b T fm_seek
0x08024457 T fm_setlabel
0x0802447f T fm_wdelete
0x080244a3 T fm_wfindfirst
0x080244cb T fm_wfindnext
0x080244ef T fm_wmkdir
0x08024513 T fm_wopen
0x0802453b T fm_wrename
0x080245fb T fm_write
0x08024631 T fm_wrmdir
0x08024655 T fm_wsetaccmodtime
0x0802468b T fm_wsetattr
0x080246b3 T fm_wstat
0x080246dd T fnSetTask
0x08024795 T fn_close
0x08024889 T fn_createdriver
0x08024909 T fn_delvolume
0x080249b9 T fn_enable_lfn_support
0x080249c5 T fn_ftruncate
0x08024a11 T fn_getdrive
0x08024a25 T fn_getfreespace
0x08024bc9 T fn_getlabel
0x08024cdd T fn_getsize_from_fp
0x08024cf9 T fn_gettaskID
0x08024cfd T fn_init
0x08024d49 T fn_initvolume
0x08024e05 T fn_initvolumepartition
0x08024e81 T fn_read
0x080250dd T fn_releasedriver
0x08025149 T fn_seek
0x08025219 T fn_seteof
0x0802530d T fn_setlabel
0x080254e5 T fn_setlasterror
0x080254ed T fn_setlasterror_noret
0x080254f3 T fn_wdelete
0x0802568b T fn_wfindfirst
0x08025701 T fn_wfindnext
0x08025825 T fn_wgetdcwd
0x080258d5 T fn_wmkdir
0x08025bed T fn_wmove
0x080261fd T fn_wopen
0x080268c5 T fn_wrename
0x08026bed T fn_write
0x08026f19 T fn_wrmdir
0x08027151 T fn_wsetaccmodtime
0x08027269 T fn_wsetattr
0x0802736f T fn_wstat
0x080274fd T free
0x08027545 T fs_ConvertUTF16toUTF8
0x08027645 T fs_ConvertUTF8toUTF16
0x08027805 T fs_cookie_get_handle_for_ram
0x08027861 T fs_cookie_init
0x080278d9 T fs_cookie_iter_close
0x080278ed T fs_cookie_iter_get_next
0x08027925 T fs_cookie_iter_open
0x08027a4d T fs_cookie_release_handle
0x08027aa1 T fs_cookie_remove_all_cookies
0x08027af5 T fs_desc_alloc
0x08027b61 T fs_desc_free
0x08027b69 T fs_desc_init
0x08027b75 T fs_desc_lookup
0x08027b91 T fs_efs2_protect_memory
0x08027b93 T fs_efs2_unprotect_memory
0x08027b95 T fs_extfs_init
0x08027bf5 T fs_fat_to_posix_time
0x08027c37 T fs_global_lock
0x08027c3d T fs_global_lock_init
0x08027c51 T fs_global_unlock
0x08027c55 T fs_hfat_init
0x08027c81 T fs_inode_construct
0x08027cbf T fs_isLegalUTF8
0x08027d55 T fs_is_path_valid
0x08027d6d T fs_memscpy
0x08027de9 T fs_memsmove
0x08027f05 T fs_mount_init
0x08027f35 T fs_mount_mount
0x08027f55 T fs_mount_register
0x08027f99 T fs_mount_root
0x08027fbd T fs_namei
0x0802822d T fs_nodevfs_init
0x08028259 T fs_os_self
0x08028375 T fs_posix_to_fat_date
0x080283c1 T fs_posix_to_fat_time
0x080288fd T fs_rmts_cookie_is_golden_copy_present
0x08028a5d T fs_romfs_init
0x08028a99 T fs_time
0x08028ac1 T fs_time_ms
0x08028ac9 T fs_time_ms_u64
0x08028ae1 T fs_vnode_alloc
0x08028b09 T fs_vnode_getref
0x08028b0d T fs_vnode_init
0x08028b51 T fs_vnode_invalid_borrow_ram
0x08028b57 T fs_vnode_invalid_chmod
0x08028b5d T fs_vnode_invalid_chown
0x08028b63 T fs_vnode_invalid_closedir
0x08028b69 T fs_vnode_invalid_create
0x08028b6f T fs_vnode_invalid_fs_init_complete
0x08028b75 T fs_vnode_invalid_get_device_attr
0x08028b7b T fs_vnode_invalid_get_fs_data
0x08028b81 T fs_vnode_invalid_get_group_info
0x08028b87 T fs_vnode_invalid_get_item
0x08028b8d T fs_vnode_invalid_get_volume_name
0x08028b93 T fs_vnode_invalid_getsize
0x08028b99 T fs_vnode_invalid_getstat
0x08028b9f T fs_vnode_invalid_image_prepare
0x08028ba5 T fs_vnode_invalid_link
0x08028bab T fs_vnode_invalid_lock_efs
0x08028bb1 T fs_vnode_invalid_lookup
0x08028bb7 T fs_vnode_invalid_make_golden_copy
0x08028bbd T fs_vnode_invalid_mkdir
0x08028bc3 T fs_vnode_invalid_mknod
0x08028bc9 T fs_vnode_invalid_opendir
0x08028bcd T fs_vnode_invalid_put_item
0x08028bd3 T fs_vnode_invalid_read
0x08028bd9 T fs_vnode_invalid_readdir
0x08028bdf T fs_vnode_invalid_readlink
0x08028be5 T fs_vnode_invalid_rename
0x08028beb T fs_vnode_invalid_rmdir
0x08028bf1 T fs_vnode_invalid_scrub
0x08028bf7 T fs_vnode_invalid_set_quota
0x08028bfd T fs_vnode_invalid_set_reservation
0x08028c03 T fs_vnode_invalid_set_volume_name
0x08028c09 T fs_vnode_invalid_shred
0x08028c0f T fs_vnode_invalid_store_data_in_sb
0x08028c15 T fs_vnode_invalid_symlink
0x08028c1b T fs_vnode_invalid_sync_end
0x08028c21 T fs_vnode_invalid_sync_get_status
0x08028c27 T fs_vnode_invalid_sync_no_wait
0x08028c2d T fs_vnode_invalid_sync_start
0x08028c33 T fs_vnode_invalid_sync_wait
0x08028c39 T fs_vnode_invalid_truncate
0x08028c3f T fs_vnode_invalid_unlink
0x08028c45 T fs_vnode_invalid_utime
0x08028c4b T fs_vnode_invalid_write
0x08028c51 T fs_vnode_lookup
0x08028cd5 T fs_vnode_named_lookup
0x08028d91 T fs_vnode_ref
0x08028d99 T fs_vnode_unref
0x08028ded T get_dbg_policy
0x08028e05 T get_device_configuration
0x08028f9d T get_hotplug_dev_handle
0x080290f1 T get_largest_valid_size
0x08029121 T get_minimum_segment_count
0x080292d5 T get_partition_category
0x080293c3 T get_sfn_checksum
0x080293f5 T get_simple_segment_count
0x08029469 T get_system_memory_map
0x08029f5d T hfat_allocate_f_lfnint_buffer
0x08029fb9 T hfat_allocate_f_name_buffer
0x0802a00d T hfat_allocate_path_buffer
0x0802a061 T hfat_device_init
0x0802a101 T hfat_free_f_lfnint_buffer
0x0802a131 T hfat_free_f_name_buffer
0x0802a161 T hfat_free_path_buffer
0x0802a191 T hfat_get_hidden_sectors
0x0802a197 T hfat_getphy
0x0802a1db T hfat_getstatus
0x0802a1df T hfat_init
0x0802a1e3 T hfat_lfn_init
0x0802a1f3 T hfat_readmultiplesector
0x0802a201 T hfat_readsector
0x0802a335 T hfat_write_udata_multiplesector
0x0802a343 T hfat_write_udata_sector
0x0802a351 T hfat_writemultiplesector
0x0802a35f T hfat_writesector
0x0802a5e5 T hotplug_add_hdev_to_phy_hdev
0x0802a695 T hotplug_add_partition
0x0802a6b1 T hotplug_change_physical_dev_state
0x0802a7e5 T hotplug_close_device
0x0802a821 T hotplug_close_device_by_handle
0x0802a895 T hotplug_close_device_by_image_type
0x0802a929 T hotplug_counters_init
0x0802a93d T hotplug_counters_update
0x0802a971 T hotplug_dev_get_device_info
0x0802a9df T hotplug_dev_get_size
0x0802aa09 T hotplug_dev_read
0x0802aa4d T hotplug_dev_write
0x0802aa91 T hotplug_dev_write_udata
0x0802aad9 T hotplug_discover_device
0x0802ab79 T hotplug_fat_parse_check
0x0802ab8d T hotplug_find_partition
0x0802ac01 T hotplug_find_physical_device
0x0802ac61 T hotplug_get_partition_size_by_image_id
0x0802acfd T hotplug_get_physical_start_sector
0x0802ad03 T hotplug_gpt_parse_close
0x0802ad11 T hotplug_gpt_parse_open
0x0802ad65 T hotplug_gpt_parse_read
0x0802ad91 T hotplug_hdev_alloc
0x0802add5 T hotplug_hdev_free
0x0802ae51 T hotplug_init_no_poll
0x0802aea1 T hotplug_init_partitions
0x0802af75 T hotplug_is_gpt_data_partition
0x0802af99 T hotplug_is_it_a_fat_partition
0x0802afbd T hotplug_is_mbr_fat_partition
0x0802afeb T hotplug_is_valid_hdev
0x0802b00d T hotplug_is_valid_hdev_for_read_write
0x0802b053 T hotplug_is_valid_parti
0x0802b069 T hotplug_is_valid_physical_hdev
0x0802b0d9 T hotplug_iter_close
0x0802b0f1 T hotplug_iter_get_next
0x0802b37d T hotplug_iter_init
0x0802b389 T hotplug_iter_open
0x0802b3a7 T hotplug_mbr_check_extended
0x0802b40d T hotplug_mbr_parse_close
0x0802b419 T hotplug_mbr_parse_open
0x0802b43d T hotplug_mbr_read_extended
0x0802b4e1 T hotplug_mbr_read_primary
0x0802b559 T hotplug_open_device
0x0802b61b T hotplug_open_device_by_gpt_partition_type
0x0802b671 T hotplug_open_device_by_partition_type
0x0802b6b9 T hotplug_partition_alloc
0x0802b705 T hotplug_partition_ref
0x0802b749 T hotplug_partition_unref
0x0802b7b9 T hotplug_poll_and_mount_first_fat
0x0802b851 T hotplug_poll_before_mounting_root_helper
0x0802b8f1 T hotplug_poll_device
0x0802ba1d T hotplug_pparser_cache_init
0x0802ba99 T hotplug_remove_hdev_from_phy_hdev
0x0802bac5 T hotplug_set_general_partition_id
0x0802bb05 T hotplug_task_discover_device
0x0802bc11 T hotplug_validate_physical_hdev
0x0802bc41 T image_uuid
0x0802bc61 T image_version_initialize_version_table
0x0802bc7d T image_version_populate_version
0x0802be81 T inverse32
0x0802bea9 T is_dbg_policy_bound
0x0802bf39 T is_dbg_policy_rot_for_image
0x0802bf65 T is_dbg_policy_valid
0x0802c011 T is_debug_policy_disable_fuse_bit_set
0x0802c021 T is_debug_policy_flag_set
0x0802c077 T is_sec_dbg_skip_serial_number
0x0802c0a5 T is_trailing_dot_or_doubledots
0x0802c39d T isonlydotordoubledots
0x0802c3c3 T isonlydotsandspaces
0x0802c511 T malloc
0x0802c571 T map_segments
0x0802cbcd T memscpy
0x0802cbeb T memsmove
0x0802cd0d T mod_exp
0x0802cf1d T montmul_one_ref
0x0802cfa3 T montmul_ref1
0x0802d077 T mult_R_mod_m
0x0802d0db T mult_base_mod_m
0x0802d3ef T num_of_bits_set
0x0802d401 T pbl_clk_julian_to_secs
0x0802d531 T pbl_secasn1_close_sequence
0x0802d54f T pbl_secasn1_decode_bit_string
0x0802d5a5 T pbl_secasn1_decode_boolean
0x0802d5e3 T pbl_secasn1_decode_length
0x0802d681 T pbl_secasn1_decode_tag
0x0802d6d5 T pbl_secasn1_decode_time
0x0802d813 T pbl_secasn1_end
0x0802d831 T pbl_secasn1_next_field
0x0802d929 T pbl_secasn1_start
0x0802d98f T pbl_secx509_check_cert_list
0x0802da2d T pbl_secx509_check_issued
0x0802dac7 T pbl_secx509_check_purpose
0x0802daeb T pbl_secx509_get_asn1_cert_size
0x0802db43 T pbl_secx509_name_cmp
0x0802db61 T pbl_secx509_parse_auth_key_id
0x0802dbe5 T pbl_secx509_parse_basic_constraint
0x0802dc9d T pbl_secx509_parse_cert_buffer
0x0802ddd5 T pbl_secx509_parse_certificate
0x0802df59 T pbl_secx509_parse_dn
0x0802e2b9 T pbl_secx509_parse_ex_key_usage
0x0802e3fd T pbl_secx509_parse_extensions
0x0802e645 T pbl_secx509_parse_gen_name_for_dir
0x0802e68f T pbl_secx509_parse_key_usage
0x0802e6f5 T pbl_secx509_parse_pub_key
0x0802e879 T pbl_secx509_parse_sig_algorithm
0x0802e949 T pbl_secx509_parse_signature
0x0802e9d1 T pbl_secx509_parse_unique_id
0x0802e9fb T pbl_secx509_parse_validity
0x0802eac9 T pbl_secx509_parse_version
0x0802eb1b T pbl_secx509_skip_num_certs
0x0802f0ad T pm_clk_busy_wait
0x0802f0c1 T pm_clk_driver_init
0x0802f205 T pm_coincell_driver_init
0x0802f2a1 T pm_comm_channel_init_internal
0x0802f2d9 T pm_comm_get_comm_info
0x0802f2f9 T pm_comm_info_init
0x0802f351 T pm_comm_read_byte
0x0802f391 T pm_comm_read_byte_array
0x0802f3cd T pm_comm_read_byte_mask
0x0802f3e9 T pm_comm_write_byte
0x0802f41d T pm_comm_write_byte_array
0x0802f44d T pm_comm_write_byte_mask
0x0802f4bd T pm_device_init
0x0802f4eb T pm_device_post_init
0x0802f58d T pm_device_pre_init
0x0802f5bd T pm_driver_init
0x0802f5df T pm_driver_post_init
0x0802f5e3 T pm_driver_pre_init
0x0802f5e7 T pm_fg_adc_usr_enable_bcl_monitoring
0x0802f619 T pm_fg_adc_usr_get_bcl_v_gain_batt
0x0802f651 T pm_fg_adc_usr_get_bcl_values
0x0802f691 T pm_fg_adc_usr_get_calibrated_vbat
0x0802f765 T pm_fg_adc_usr_get_vbat
0x0802f815 T pm_fg_driver_init
0x0802f8a1 T pm_fg_get_data
0x0802f8b5 T pm_fg_memif_irq_status
0x0802f937 T pm_fg_memif_read_data_reg
0x0802f9f5 T pm_fg_memif_set_mem_intf_cfg
0x0802fa37 T pm_fg_memif_set_mem_intf_ctl
0x0802fa79 T pm_fg_memif_write_addr
0x0802fac5 T pm_fg_memif_write_data
0x0802fb53 T pm_get_num_slaves_per_pmic
0x0802fb59 T pm_get_pbs_info
0x0802fbd9 T pm_get_pmic_info
0x0802fc0d T pm_get_pmic_model
0x0802fc35 T pm_get_slave_id
0x0802fc7d T pm_gpio_driver_init
0x0802fd21 T pm_ibb_driver_init
0x0802fd99 T pm_is_pmic_supported
0x0802fded T pm_is_stub_enabled
0x0802fe01 T pm_lab_driver_init
0x0802fe79 T pm_ldo_driver_init
0x08030141 T pm_ldo_get_data
0x08030271 T pm_ldo_volt_level
0x08030291 T pm_led_config
0x080303f5 T pm_led_enable
0x08030479 T pm_led_get_default_led
0x08030489 T pm_led_get_led_info
0x080304a5 T pm_log_pon_reasons
0x08030629 T pm_lpg_config_pwm_type
0x0803068d T pm_lpg_driver_init
0x0803072d T pm_lpg_get_data
0x08030741 T pm_lpg_pattern_config
0x080307a1 T pm_lpg_pwm_clock_sel
0x080307df T pm_lpg_pwm_enable
0x08030823 T pm_lpg_pwm_set_pre_divide
0x08030867 T pm_lpg_pwm_set_pwm_value
0x080308df T pm_lpg_set_pwm_bit_size
0x08030945 T pm_malloc
0x08030a4f T pm_mpp_config_analog_input
0x08030aed T pm_mpp_config_i_sink
0x08030bd1 T pm_mpp_driver_init
0x08030cf1 T pm_mpp_enable
0x08030d35 T pm_mpp_get_data
0x08030d49 T pm_pbs_client_driver_init
0x08030dfd T pm_pbs_config_access
0x08030e4b T pm_pbs_disable_access
0x08030e57 T pm_pbs_enable_access
0x08030e65 T pm_pbs_info_init
0x08031249 T pm_pbs_info_store_glb_ctxt
0x080312bd T pm_pbs_ram_image_load
0x08031349 T pm_pbs_ram_image_verify
0x080313c5 T pm_pon_get_all_pon_reasons
0x0803140d T pm_pon_init
0x080314e5 T pm_pon_ps_hold_cfg
0x080315cd T pm_pon_reset_source_cfg
0x080317b5 T pm_pon_warm_reset_status
0x08031809 T pm_pon_warm_reset_status_clear
0x08031835 T pm_pwm_driver_init
0x080318ad T pm_pwr_volt_level_alg
0x080319b9 T pm_resolve_chip_revision
0x08031b89 T pm_resource_manager_init
0x08031c01 T pm_rgb_driver_init
0x08031c9d T pm_rgb_enable
0x08031d65 T pm_rgb_get_data
0x08031d79 T pm_rgb_led_config
0x08031e5d T pm_rgb_set_voltage_source
0x08031ead T pm_rtc_driver_init
0x08031edd T pm_rtc_get_data
0x08031ef1 T pm_rtc_get_time
0x08031f4d T pm_sbl_chg_check_weak_battery_status
0x080327f9 T pm_sbl_chg_config_vbat_low_threshold
0x0803281d T pm_sbl_chg_get_vbat
0x08032979 T pm_sbl_chg_init
0x080329bd T pm_sbl_chg_no_battery_chgr_detection
0x08032b0d T pm_sbl_chg_post_init
0x08032b11 T pm_sbl_chg_pre_init
0x08032b15 T pm_sbl_config
0x08032c51 T pm_sbl_config_chg_parameters
0x08032f21 T pm_sbl_config_fg_sram
0x0803304d T pm_sbl_validate_reg_config
0x080330d7 T pm_smbchg_bat_if_chg_led
0x0803310b T pm_smbchg_bat_if_config_chg_cmd
0x08033149 T pm_smbchg_bat_if_get_bat_missing_cfg
0x080331b1 T pm_smbchg_bat_if_get_bat_pres_status
0x080331fd T pm_smbchg_bat_if_get_low_bat_volt_threshold
0x0803324d T pm_smbchg_bat_if_irq_status
0x080332cf T pm_smbchg_bat_if_set_bat_missing_cfg
0x08033359 T pm_smbchg_bat_if_set_bat_missing_detection_src
0x080333c1 T pm_smbchg_bat_if_set_low_batt_volt_threshold
0x08033405 T pm_smbchg_bat_if_set_min_sys_volt
0x08033477 T pm_smbchg_chager_active
0x080334b7 T pm_smbchg_chgpth_set_input_priority
0x080334fb T pm_smbchg_chgr_enable_src
0x0803353f T pm_smbchg_chgr_get_chgr_sts
0x080335a3 T pm_smbchg_chgr_set_chg_polarity_low
0x080335e7 T pm_smbchg_chgr_set_fast_chg_i
0x08033645 T pm_smbchg_chgr_set_float_volt
0x080336c1 T pm_smbchg_chgr_set_p2f_threshold
0x08033721 T pm_smbchg_chgr_set_pre_chg_i
0x0803379b T pm_smbchg_chgr_vbat_sts
0x080337d9 T pm_smbchg_driver_init
0x080338a1 T pm_smbchg_get_data
0x080338b5 T pm_smbchg_get_index
0x080338c1 T pm_smbchg_misc_chgr_port_detected
0x08033917 T pm_smbchg_misc_config_wdog
0x08033981 T pm_smbchg_misc_enable_wdog
0x080339a5 T pm_smbchg_misc_get_wdog_config
0x08033a09 T pm_smbchg_misc_set_wdog_timeout
0x08033a4b T pm_smbchg_reset_apsd
0x08033a65 T pm_smbchg_usb_chgpth_config_aicl
0x08033abd T pm_smbchg_usb_chgpth_config_apsd
0x08033b35 T pm_smbchg_usb_chgpth_en_hvdcp
0x08033b83 T pm_smbchg_usb_chgpth_get_apsd_config
0x08033be9 T pm_smbchg_usb_chgpth_input_sts
0x08033c99 T pm_smbchg_usb_chgpth_set_cmd_il
0x08033cdb T pm_smbchg_usb_chgpth_set_usbin_adptr_allowance
0x08033d1f T pm_smbchg_usb_chgpth_set_usbin_current_limit
0x08033d95 T pm_smem_init
0x08033da5 T pm_smps_driver_init
0x080340c5 T pm_smps_get_data
0x08034141 T pm_smps_volt_level
0x08034161 T pm_target_information_get_common_info
0x08034185 T pm_target_information_get_periph_count_info
0x080341a9 T pm_target_information_get_specific_info
0x080341cd T pm_target_information_init
0x080343d1 T pm_target_information_read_peripheral_rev
0x08034459 T pm_target_information_spmi_dyn_chnl_cfg
0x0803447b T pm_target_ps_hold_cfg
0x080344d5 T pm_typec_driver_init
0x080345c1 T pm_version_detect
0x080346e5 T pm_vib_driver_init
0x0803479d T pm_vs_driver_init
0x080348c1 T pm_wled_driver_init
0x0803493d T pmapp_ps_hold_cfg
0x08034ce5 T qhsusb_al_bulk_get_max_packet_size
0x08034ceb T qhsusb_al_bulk_get_max_raw_data_size
0x08034cf1 T qhsusb_al_bulk_handle_rx_zlp_mode
0x08034d21 T qhsusb_al_bulk_init
0x08034ee9 T qhsusb_al_bulk_poll
0x08034f9d T qhsusb_al_bulk_receive
0x080350e5 T qhsusb_al_bulk_receive_zlp
0x080353f9 T qhsusb_al_bulk_setup_timer
0x08035429 T qhsusb_al_bulk_shutdown
0x080354c5 T qhsusb_al_bulk_start_timer
0x080354ed T qhsusb_al_bulk_stop_timer
0x08035505 T qhsusb_al_bulk_transmit
0x08035665 T qhsusb_al_check_for_pbl_dload
0x080356bd T qhsusb_al_check_timer_for_expiry
0x0803578d T qhsusb_boot_dload_get_dload_info_ptr
0x08035791 T qhsusb_boot_dload_is_dload_info_pid_valid
0x080357ad T qhsusb_boot_dload_is_dload_info_serial_num_valid
0x080357c9 T qhsusb_boot_log_message
0x080357cb T qhsusb_dcd_control_transfer
0x080357f9 T qhsusb_dcd_init
0x08035861 T qhsusb_dcd_poll
0x0803586d T qhsusb_dcd_port_status_changed
0x0803593b T qhsusb_dcd_set_config
0x08035a39 T qhsusb_dcd_shutdown
0x08035a75 T qhsusb_dci_cancel_transfer
0x08035b2d T qhsusb_dci_cancel_transfer_wo_dqh_dtd
0x08035b81 T qhsusb_dci_check_for_pbl_dload
0x08035c33 T qhsusb_dci_clk_disable
0x08035c37 T qhsusb_dci_clk_enable
0x08035c3b T qhsusb_dci_clk_is_usb_system_clk_on
0x08035c45 T qhsusb_dci_config_endpoint
0x08035cf9 T qhsusb_dci_connect
0x08035d09 T qhsusb_dci_dcache_flush
0x08035d0b T qhsusb_dci_dcache_inval
0x08035d0d T qhsusb_dci_delay_ms
0x08035d27 T qhsusb_dci_delay_us
0x08035d2d T qhsusb_dci_enable_test_mode
0x08035d71 T qhsusb_dci_get_enum_flag
0x08035d89 T qhsusb_dci_get_phy_tuning_parameters
0x08035da5 T qhsusb_dci_get_speed
0x08035db5 T qhsusb_dci_init
0x08035e7d T qhsusb_dci_is_attached
0x08035e99 T qhsusb_dci_is_suspended
0x08035ead T qhsusb_dci_is_vbus_valid
0x08035ee1 T qhsusb_dci_is_wall_charger
0x08035ee5 T qhsusb_dci_poll_events
0x08035fe1 T qhsusb_dci_read_scratch
0x08035ff5 T qhsusb_dci_read_serial_number
0x08036059 T qhsusb_dci_set_address
0x08036075 T qhsusb_dci_set_enum_flag
0x08036081 T qhsusb_dci_set_max_packet_size
0x0803608d T qhsusb_dci_shutdown
0x080360e5 T qhsusb_dci_stall_endpoint
0x08036139 T qhsusb_dci_start_timer
0x08036195 T qhsusb_dci_transfer_request
0x08036261 T qhsusb_dci_ulpi_read
0x08036305 T qhsusb_dci_ulpi_write
0x08036361 T qhsusb_dci_unconfig_endpoint
0x080363b1 T qhsusb_dci_unstall_endpoint
0x08036461 T qhsusb_dci_write_scratch
0x08036471 T qhsusb_fd_hdlc_bulk_in_progress
0x08036475 T qhsusb_fd_hdlc_init
0x080366a5 T qhsusb_fd_hdlc_rx_pkt
0x08036715 T qhsusb_fd_hdlc_set_core
0x08036741 T qhsusb_fd_hdlc_shutdown
0x0803675d T qhsusb_fd_hdlc_tx_pkt
0x08036949 T qhsusb_fd_set_bulk_mode
0x0803695d T qhsusb_get_shared_imem_address
0x080369bd T qhsusb_is_device_configured
0x080369c9 T qhsusb_log
0x08036a01 T qhsusb_log_message
0x08036a05 T qhsusb_loop_here
0x08036aa1 T qhsusb_submit_urb
0x08036ad1 T qmemcpy
0x08036bc1 T qmemscpy
0x08036bc5 T qsee_is_memory_dump_allowed
0x08036bfd T qsee_is_retail_unlocked
0x08036e29 T qsee_zero_peripheral_memory
0x08037009 T rail_id
0x08037049 T railway_aggregated_voltage_target_uv
0x080370e1 T railway_corner_vote
0x08037145 T railway_create_voter
0x0803749d T railway_get_corner_voltage
0x08037509 T railway_get_current_settings
0x0803757d T railway_init
0x0803764d T railway_level_vote
0x0803779d T railway_set_corner_voltage
0x08037809 T railway_target_init
0x080378bd T railway_transition_rails
0x080378f9 T railway_transitioner_init
0x08037ab9 T rbcpr_externalize_state
0x08037abd T rbcpr_init
0x08037d21 T rpm_rail_corner_remap
0x08037d99 T rpm_rail_level_remap
0x08037e45 T sbl1_boot_logger_deinit
0x08037edd T sbl1_ddr_init
0x08038115 T sbl1_ddr_set_params
0x08038301 T sbl1_dload_entry
0x0803832d T sbl1_efs_handle_cookies
0x08038389 T sbl1_hw_deinit
0x080383b9 T sbl1_hw_dload_init
0x080383bd T sbl1_hw_get_pmictimer_status
0x080383c9 T sbl1_hw_get_reset_status
0x080383d5 T sbl1_hw_init
0x0803847d T sbl1_hw_init_secondary
0x0803851d T sbl1_hw_platform_pre_ddr
0x080385a5 T sbl1_hw_platform_smem
0x080385e9 T sbl1_init_sbl_qsee_interface
0x08038639 T sbl1_load_ddr_training_data
0x08038695 T sbl1_load_ddr_training_data_from_partition
0x08038761 T sbl1_load_dpo_partition
0x080387fd T sbl1_load_sec_partition
0x08038941 T sbl1_main_ctl
0x08038af5 T sbl1_populate_initial_mem_map
0x08038b55 T sbl1_post_ddr_init
0x08038b99 T sbl1_relocate_page_table_to_ddr
0x08038d39 T sbl1_save_ddr_training_data
0x08038d85 T sbl1_save_ddr_training_data_to_partition
0x08038e11 T sbl1_tlmm_init
0x08038f05 T sbl_error_handler
0x08038f99 T sbl_sahara_entry
0x08039021 T sbl_sahara_get_interface
0x0803915d T sbl_set_smem_init_done
0x08039173 T sdcc_activity_timeout_event
0x08039179 T sdcc_boot_set_device_info
0x080391a5 T sdcc_bsp_config_clock
0x08039289 T sdcc_bsp_get_cache_align_size
0x0803928d T sdcc_bsp_get_max_supported_clk
0x080392a1 T sdcc_bsp_get_slot_access_type
0x080392b5 T sdcc_bsp_get_slot_type
0x080392c9 T sdcc_bsp_gpio_control
0x08039315 T sdcc_bsp_hw_busy_wait_init
0x08039329 T sdcc_bsp_hw_clk_busy_wait
0x080393cd T sdcc_command
0x080393e5 T sdcc_command_qc_mode
0x08039449 T sdcc_command_sdhci_mode
0x0803944d T sdcc_complete_data_xfer
0x08039495 T sdcc_config_clk
0x080395d5 T sdcc_config_memory_device
0x0803968d T sdcc_config_mmc_bus_width
0x080396d9 T sdcc_config_mmc_modes_segment
0x08039965 T sdcc_config_rca
0x08039a2d T sdcc_decode_extCSD
0x08039bd1 T sdcc_decode_mmc_cid
0x08039c49 T sdcc_decode_mmc_mfr_date
0x08039c4d T sdcc_decode_scr
0x08039c75 T sdcc_decode_sd_cid
0x08039cd5 T sdcc_decode_sd_mfr_date
0x08039cd9 T sdcc_decode_sd_status
0x08039d75 T sdcc_decode_switch_data
0x08039e21 T sdcc_deinit
0x08039e69 T sdcc_deregister_client_handle
0x08039e8b T sdcc_display_mem_device_info
0x08039ec5 T sdcc_do_transfer
0x08039ed7 T sdcc_do_transfer_qc_mode
0x0803a04b T sdcc_do_transfer_sdhci_mode
0x0803a0ad T sdcc_find_mmc_device
0x0803a131 T sdcc_find_sd_device
0x0803a219 T sdcc_get_cid
0x0803a26d T sdcc_get_config_info
0x0803a285 T sdcc_get_ext_csd
0x0803a2c7 T sdcc_get_memory_info
0x0803a3fd T sdcc_get_scr
0x0803a44d T sdcc_get_sd_speed_class
0x0803a475 T sdcc_get_sd_status
0x0803a4c5 T sdcc_get_slot_handle
0x0803a4e1 T sdcc_get_slot_type
0x0803a559 T sdcc_handle_close
0x0803a575 T sdcc_handle_find_card
0x0803a649 T sdcc_handle_is_mem_present
0x0803a685 T sdcc_handle_mem_get_device_info
0x0803a7ad T sdcc_handle_open
0x0803a8ed T sdcc_handle_optimized_open
0x0803a98d T sdcc_handle_read
0x0803aa39 T sdcc_handle_set_power_on_write_protection
0x0803aa3d T sdcc_handle_write
0x0803aae7 T sdcc_hc_config_buswidth
0x0803aaeb T sdcc_hc_enable_ddr50
0x0803aaef T sdcc_hc_enable_hs200
0x0803aaf3 T sdcc_hc_set_clock
0x0803aaf7 T sdcc_init_memory_device
0x0803ab5d T sdcc_init_qc_mode
0x0803ac75 T sdcc_init_sdhci_mode
0x0803ac79 T sdcc_is_device_still_in_use
0x0803acad T sdcc_is_partial_enumeration
0x0803ad1d T sdcc_mmc_get_phy_partition_info
0x0803adc3 T sdcc_mmc_is_phy_partition_bootable
0x0803adf5 T sdcc_mmc_set_partition_access
0x0803ae3d T sdcc_mmc_switch
0x0803af69 T sdcc_poll_status
0x0803b025 T sdcc_read_fifo
0x0803b0d1 T sdcc_register_client_handle
0x0803b115 T sdcc_reset_reinit
0x0803b189 T sdcc_sd_switch_to_hs
0x0803b2d5 T sdcc_select_card
0x0803b307 T sdcc_send_app_command
0x0803b339 T sdcc_send_cmd
0x0803b3d9 T sdcc_send_status
0x0803b45d T sdcc_set_partition
0x0803b48b T sdcc_set_sd_bus_width
0x0803b4f5 T sdcc_setup_data_xfer
0x0803b55d T sdcc_slot_has_support
0x0803b587 T sdcc_wait_card_ready
0x0803b5b1 T sdcc_wait_data_xfer_complete
0x0803b5fd T sdcc_wait_prog_done
0x0803b651 T sdcc_write_fifo
0x0803b73d T sec_img_auth_authenticate_image_context
0x0803b811 T sec_img_auth_check_address_32
0x0803b82d T sec_img_auth_check_address_64
0x0803b879 T sec_img_auth_elf_find_seg_32
0x0803b89d T sec_img_auth_elf_find_seg_64
0x0803b961 T sec_img_auth_get_code_segment
0x0803b971 T sec_img_auth_get_elf_format
0x0803ba11 T sec_img_auth_get_sw_version
0x0803bae9 T sec_img_auth_hash_elf_segments
0x0803bb89 T sec_img_auth_hw_is_auth_enabled
0x0803bbcb T sec_img_auth_is_valid_area_32
0x0803bc1f T sec_img_auth_is_valid_area_64
0x0803bc83 T sec_img_auth_is_valid_segment
0x0803bcb7 T sec_img_auth_populate_elf_info_32
0x0803bdf9 T sec_img_auth_populate_elf_info_64
0x0803c005 T sec_img_auth_segments
0x0803c1b5 T sec_img_auth_validate_elf
0x0803c23f T sec_img_auth_validate_elf_entry_32
0x0803c2dd T sec_img_auth_validate_elf_entry_64
0x0803c3bb T sec_img_auth_validate_hash_segment_entries_32
0x0803c403 T sec_img_auth_validate_hash_segment_entries_64
0x0803c437 T sec_img_auth_validate_hash_segment_len_32
0x0803c485 T sec_img_auth_validate_hash_segment_len_64
0x0803c4db T sec_img_auth_validate_mi_boot
0x0803c53d T sec_img_auth_verify_metadata
0x0803c6ad T sec_img_auth_verify_sig
0x0803c7e1 T sec_img_auth_zero_segments_32
0x0803c869 T sec_img_auth_zero_segments_64
0x0803c941 T sec_is_dp_disable
0x0803c981 T sec_pil_is_signed_image
0x0803c999 T secboot_authenticate
0x0803ccb5 T secboot_cal_cert_num
0x0803cd01 T secboot_deinit
0x0803cd15 T secboot_get_ftbl
0x0803cd41 T secboot_hash
0x0803d00d T secboot_hw_get_ftbl
0x0803d067 T secboot_hw_get_msm_hw_id
0x0803d0c9 T secboot_hw_get_root_cert_info
0x0803d161 T secboot_hw_get_root_cert_sel
0x0803d17d T secboot_hw_get_root_of_trust
0x0803d23d T secboot_hw_get_serial_num
0x0803d253 T secboot_hw_get_use_serial_num
0x0803d271 T secboot_hw_is_auth_enabled
0x0803d2a5 T secboot_hw_update_and_read_root_cert_sel
0x0803d2dd T secboot_init
0x0803d391 T secboot_init_fuses
0x0803de25 T secmath_BIGINT_modexp
0x0803de99 T secmath_BIGINT_read_unsigned_bin
0x0803df11 T smem_alloc
0x0803e0f5 T smem_boot_debug_init
0x0803e115 T smem_boot_init
0x0803e22d T smem_ext_get_smem_base
0x0803e231 T smem_ext_get_smem_size
0x0803e235 T smem_get_addr
0x0803e315 T smem_get_base_addr
0x0803e325 T smem_get_offset
0x0803e379 T smem_get_phys_base_addr
0x0803e391 T smem_get_size
0x0803e3a9 T smem_get_static_size
0x0803e44d T smem_init
0x0803e4e5 T smem_map_base_va
0x0803e4e9 T smem_map_memory_va
0x0803e4f5 T smem_map_smem_targ_info
0x0803e511 T smem_map_spinlock_region_va
0x0803e515 T smem_os_ext_get_smem_base
0x0803e539 T smem_os_ext_get_smem_size
0x0803e55d T smem_save_targ_smem_info
0x0803e5cd T smem_set_base_addr
0x0803e5f1 T smem_set_ext_mem_region
0x0803e645 T smem_set_spin_lock_api
0x0803e649 T smem_set_spinlock_base_addr
0x0803e82d T smem_spin_lock
0x0803e82f T smem_spin_lock_init
0x0803e831 T smem_spin_unlock
0x0803e835 T smem_version_set
0x0803e899 T strlcat
0x0803e8ef T strlcpy
0x0803e931 T sub
0x0803ea65 T uart_log
0x0803eae1 T uie_clear_fec
0x0803eaed T uie_decrypt_ccm
0x0803eb1d T uie_decrypt_ccm_priv
0x0803ed35 T uie_decrypt_cts
0x0803eead T uie_decrypt_segment
0x0803ef8d T uie_deinit
0x0803efa7 T uie_fec_error_occurred
0x0803efc1 T uie_get_fec
0x0803efd1 T uie_get_l1_fuse_key
0x0803f0a9 T uie_get_l1_key
0x0803f0b3 T uie_hash_sha256
0x0803f145 T uie_init
0x0803f1a5 T uie_is_image_encrypted
0x0803f1d1 T uie_is_image_encryption_fuse_enabled
0x0803f1df T uie_is_segment_encrypted
0x0803f5b9 T v_romfs_closedir
0x0803f701 T v_romfs_opendir
0x0803f729 T v_romfs_read
0x0803f769 T v_romfs_readdir
0x0803fabd T wstrlcpy
0x0803fb01 T __fpl_dcheck_NaN1
0x0803fb11 T __aeabi_d2uiz
0x0803fb11 T _dfixu
0x0803fb6b T __aeabi_ui2d
0x0803fb6b T _dfltu
0x0803fb91 T __aeabi_dmul
0x0803fb91 T _dmul
0x0803fce5 T __fpl_dnaninf
0x0803fd81 T __fpl_dretinf
0x0803fd8d T __fpl_return_NaN
0x0803fdf1 T __ARM_scalbn
0x0803fe4d T __fpl_cmpreturn
0x0803fe7c N __I$use$fp
0x0803fe7c D sbl_initial_memory_map
0x0803ff5c D sbl1_addtional_memory_map
0x080401c0 D QC_IMAGE_VERSION_STRING_AUTO_UPDATED
0x080401ea D IMAGE_VARIANT_STRING_AUTO_UPDATED
0x08040209 D OEM_IMAGE_VERSION_STRING_AUTO_UPDATED
0x08040226 D OEM_IMAGE_UUID_STRING_AUTO_UPDATED
0x0804027c D mob_sw_rev
0x08040298 D path_id
0x08040308 D DALSystem_DriverInfo
0x08040314 D DALPROP_PropBin
0x08041898 D driver_list
0x08041a60 D DALPROP_PropsInfo
0x08041a70 D smem_buf_data_tbl
0x08041c14 D Clock_I2CRegs
0x08041cc0 D Clock_SDCCRegs
0x08041e8c D DALI2C_DriverInfo
0x08041ea0 D AdcBootBsp_8937_PM8950
0x08041eb8 D AdcBootBsp_8937_PM8950_PMI8950
0x080421e8 D VAdcBsp_8937_PM8950
0x0804230c D VAdcBsp_8937_PMI8950
0x08042370 D DALVAdc_DriverInfo
0x08042380 D bam_tgt_config
0x080423c0 D BootTempCheckBsp
0x08042694 D TsensBootBsp
0x080426d4 D TsensBootBsp_8917
0x08042714 D smem_partition_toc_entries
0x08042854 D RAILWAY_CONFIG_DATA
0x08042a0c D crc30_table
0x08042e0c D crc16_table
0x0804300c D crc_16_l_table
0x0804320c D crc32_table
0x0804360c D fs_rmts_fs1_guid
0x0804361c D fs_rmts_fs2_guid
0x0804362c D fs_rmts_fsg_guid
0x0804363c D fs_rmts_fsc_guid
0x0804364c D fs_rmts_fs1_fusion_guid
0x0804365c D fs_rmts_fs2_fusion_guid
0x0804366c D fs_rmts_fsg_fusion_guid
0x0804367c D fs_rmts_fsc_fusion_guid
0x0804368c D extfs_ops
0x08043b24 D fs_vnode_nodev_ops
0x08043c14 D DALChipInfo_DriverInfo
0x08043c20 D DALPlatformInfo_DriverInfo
0x08043cba D default_led
0x08043cbb D pm_periph_bitmap
0x08043d3b D pmi8940_default_led
0x08043d3c D pmi8940_pm_periph_bitmap
0x08043dbc D pmi8950_default_led
0x08043dbd D pmi8950_pm_periph_bitmap
0x08043ec0 D DALTLMM_DriverInfo
0x08044154 D CPR_ENABLE_OPEN_LOOP
0x0804415c D CPR_ENABLE_GLOBAL_CEILING_VOLTAGE
0x08044164 D CPR_ENABLE_CLOSED_LOOP
0x0804416c D pbl_secx509_ext_auth_key_id
0x0804416f D pbl_secx509_ext_sub_key_id
0x08044172 D pbl_secx509_ext_key_usage
0x08044175 D pbl_secx509_ext_sub_alt_name
0x08044178 D pbl_secx509_ext_basic_constraint
0x0804417b D pbl_secx509_ext_name_constraint
0x0804417e D pbl_secx509_ext_policy_constraint
0x08044181 D pbl_secx509_ext_ex_key_usage
0x08044184 D pbl_secx509_ext_cert_policies
0x08044187 D sha1_codehash_str
0x0804418c D debug_string
0x08044192 D sw_id_string
0x08044198 D hw_id_string
0x0804419e D sha256_codehash_str
0x080441a5 D pbl_secx509_ex_key_sauth
0x080441ad D pbl_secx509_ex_key_cauth
0x080441b5 D pbl_secx509_ex_key_code
0x080441bd D pbl_secx509_ex_key_email
0x080441c5 D pbl_secx509_ex_key_time
0x080441cd D pbl_secx509_asn1_rsa
0x080441d6 D pbl_secx509_md5WithRSAEncryption
0x080441df D pbl_secx509_md2WithRSAEncryption
0x080441e8 D pbl_secx509_sha1WithRSAEncryption
0x080441f1 D pbl_secx509_sha256WithRSAEncryption
0x080441fa D pbl_secx509_ex_key_ms_sgc
0x08044204 D pbl_secx509_ex_key_ns_sgc
0x0804420d D crash_dump_string
0x08044260 D fs_hfat_ops
0x080442bc D SDCCSdhciEnable
0x08044478 D cpr_bsp_fuse_config_8917
0x08044488 D cpr_bsp_fuse_config
0x0804459c D cpr_bsp_hw_enablement_type
0x080445a8 D cpr_bsp_closed_loop_config
0x08045028 D cpr_bsp_hw_voltage_ranges
0x08045030 D cpr_bsp_misc_info_config
0x080455ec D cpr_bsp_hw_target_quotient
0x080457f4 D fs_convert_utf8
0x0805b008 D L2_parity_error_in_sbl
0x0805b010 D page_table_is_in_ddr
0x0805b014 D sbl1_ddr_mem_block
0x0805b084 D boot_crash_dump_regs_ptr
0x0805b088 D sbl_dload_entry
0x0805b0c8 D load_qsee_pre_procs
0x0805b0f8 D load_qsee_post_procs
0x0805b12c D sbl1_pre_dload_procs
0x0805b140 D sbl1_config_table
0x0805b398 D config_data_table
0x0805b798 D config_data_table_size
0x0805b79c D boot_rollback_version_img_set_table
0x0805b8b4 D boot_rollback_version_img_set_num
0x0805b988 D ddr_init_done
0x0805b9dc D __stack_chk_guard
0x0805b9e4 D bl_err_if
0x0805b9f8 D dccookie_found
0x0805ba24 D sahara_start_of_segment_load
0x0805ba2c D sahara_shared_data
0x0805ba44 D sahara_cmd_exec_data
0x0805ba80 D last_loaded_segment_end_offset
0x0805ba84 D remaining_elf_segments_data
0x0805ba90 D non_block_mode
0x0805ba94 D sbl_hash_algorithm
0x0805ba98 D sbl_hash_len
0x0805baad D image_partition_id
0x0805bbc5 D appsbl_partition_id
0x0805bbd5 D qsee_partition_id
0x0805bbe5 D rpm_partition_id
0x0805bbf5 D ddr_params_partition_id
0x0805bc05 D cdt_partition_id
0x0805bc15 D ram_dump_partition_id
0x0805bc25 D log_dump_partition_id
0x0805bc35 D sec_partition_id
0x0805bc45 D dpo_partition_id
0x0805bc55 D apdp_partition_id
0x0805bc65 D devcfg_partition_id
0x0805bc84 D trans_if
0x0805bca8 D config_data_table_info
0x0805bcb0 D smem_init_done
0x0805bcb4 D boot_shared_imem_cookie_ptr
0x0805bcb8 D boot_ddr_info_set
0x0805bcd4 D gDALProcessDriverModList
0x0805bce8 D ddr_fmax
0x0805be38 D dev_config_valid
0x0805be50 D DALPROP_StructPtrs
0x0805bffc D gDALModDriverInfoList
0x0805c024 D num_allocated_devices
0x0805c02c D bams
0x0805c030 D bam_drv_sync
0x0805c040 D gnTsensLastTemp
0x0805c044 D guTsensLastSensor
0x0805c050 D smem_hw_mutex_base_ptr
0x0805c058 D smem_init_info
0x0805c080 D mx_rail_id
0x0805c084 D railway
0x0805c110 D _fs_catch
0x0805c114 D fs_in_boot_mode
0x0805c118 D efs_boot_init_romfs_complete
0x0805c130 D clock_apps_speed_khz
0x0805c298 D ca_training_pattern
0x0805c2c8 D dq_training_pattern
0x0805c410 D icbcfg_boot_data
0x0805c758 D icbcfg_boot_prop
0x0805c760 D map_ddr_regions
0x0805c770 D channel_map
0x0805c774 D bimc_hal_info
0x0805c798 D safe_reset_seg
0x0805c7b8 D msm8917_all
0x0805c7f0 D configs
0x0805c7f4 D icbcfg_info
0x0805c824 D pmicArbBaseAddrs
0x0805c82c D bamcore_pipe_tzprotect
0x0805c830 D bam_tgt_config_ptr
0x0805c834 D bam_num_configs
0x0805c8bc D fs_global_lock_init_complete
0x0805c8c4 D fs_root_dev
0x0805c8cc D fs_root_mpoint
0x0805c8d0 D fs_root_vnode
0x0805c8dc D hotplug_init_complete
0x0805c8e0 D hotplug_init_no_poll_complete
0x0805c8e4 D hotplug_crit_sect
0x0805c8e8 D hotplug_total_devices
0x0805c8ec D hotplug_total_physical_devices
0x0805c8f0 D hotplug_total_partitions
0x0805c8f4 D sdcc_mini_boot_device_info
0x0805c910 D Clock_SBLConfigData
0x0805d988 D Clock_SBL_MuxMap
0x0805d9b4 D Clock_SBL_SourceMap
0x0805d9e0 D BIMCPLLConfig
0x0805dc80 D settings_test_flag_reg
0x0805dc84 D fts_range
0x0805dc88 D fts_volt
0x0805dca0 D fts2p5_range
0x0805dca4 D fts2p5_volt
0x0805dcbc D hfs_range
0x0805dcc0 D hfs_volt
0x0805dcd8 D n1200_range
0x0805dcdc D n1200_volt
0x0805dd00 D n600_range
0x0805dd04 D n600_volt
0x0805dd28 D pmos_range
0x0805dd2c D pmos_volt
0x0805dd68 D ln_range
0x0805dd6c D ln_volt
0x0805dd84 D nmos_range
0x0805dd88 D nmos_volt
0x0805ddac D ult_buck_range_1
0x0805ddb0 D ult_buck_volt_1
0x0805ddc8 D ult_buck_range_2
0x0805ddcc D ult_buck_volt_2
0x0805ddd8 D ult_pmos_range
0x0805dddc D ult_pmos_volt
0x0805dde8 D ult_nmos_range
0x0805ddec D ult_nmos_volt
0x0805ddf8 D clk_reg
0x0805de02 D smps_reg
0x0805de3a D ldo_reg
0x0805de72 D vs_reg
0x0805deaa D pwm_reg
0x0805dec6 D wled_ctrl_reg
0x0805df1a D wled_sink_reg
0x0805df6c D wled_reg
0x0805df74 D ibb_reg
0x0805dfc4 D lab_reg
0x0805e000 D clk_sleep_reg
0x0805e004 D clk_xo_reg
0x0805e008 D clk_common
0x0805e016 D gpio_reg
0x0805e040 D mpp_reg
0x0805e06c D rgb_reg
0x0805e076 D lpg_reg
0x0805e0a2 D vib_reg
0x0805e0ac D fg_batt_reg
0x0805e0f2 D fg_memif_reg
0x0805e12a D fg_adc_usr_reg
0x0805e178 D fg_reg
0x0805e184 D pbs_client_reg
0x0805e1a0 D smbchg_chgr_reg
0x0805e1e8 D smbchg_bat_if_reg
0x0805e234 D smbchg_usb_chgpth_reg
0x0805e278 D smbchg_dc_chgpth_reg
0x0805e2b0 D smbchg_misc_reg
0x0805e2f4 D smbchg_reg
0x0805e308 D coincell_reg
0x0805e314 D typec_reg
0x0805e324 D led_array
0x0805e330 D rgb_configs
0x0805e348 D led_info
0x0805e354 D smbchg_specific_data
0x0805e39c D chg_range_data
0x0805e494 D fg_sram_data
0x0805e4e8 D mpp_specific
0x0805e4ec D vib_specific
0x0805e4f0 D sbl_specific_data
0x0805e4f2 D pm_pbs_info_data_a
0x0805e508 D pm_pbs_info_data_b
0x0805e520 D pm_pbs_info_data
0x0805e528 D pm_sbl_seq
0x0805fcf8 D pm_pbs_seq
0x080604f8 D pmi8940_led_array
0x08060504 D pmi8940_rgb_configs
0x0806051c D pmi8940_led_info
0x08060528 D pmi8940_smbchg_specific_data
0x08060570 D pmi8940_chg_range_data
0x08060668 D pmi8940_fg_sram_data
0x080606bc D pmi8940_mpp_specific
0x080606c0 D pmi8940_vib_specific
0x080606c4 D pmi8940_sbl_specific_data
0x080606c6 D pmi8940_pm_pbs_info_data_a
0x080606dc D pmi8940_pm_pbs_info_data_b
0x080606f4 D pmi8940_pm_pbs_info_data
0x080606fc D pmi8940_pm_sbl_seq
0x08061f44 D pmi8940_pm_pbs_seq
0x08062744 D pmi8950_led_array
0x08062750 D pmi8950_rgb_configs
0x08062768 D pmi8950_led_info
0x08062774 D pmi8950_smbchg_specific_data
0x080627bc D pmi8950_chg_range_data
0x080628b4 D pmi8950_fg_sram_data
0x08062908 D pmi8950_mpp_specific
0x0806290c D pmi8950_vib_specific
0x08062910 D pmi8950_sbl_specific_data
0x08062912 D pmi8950_pm_pbs_info_data_a
0x08062928 D pmi8950_pm_pbs_info_data_b
0x08062940 D pmi8950_pm_pbs_info_data
0x08062948 D pmi8950_pm_sbl_seq
0x080641cc D pmi8950_pm_pbs_seq
0x080649d4 D low_vbat_tab
0x08064a56 D hdlc_usb_config_obex
0x08064a76 D hdlc_usb_config_obex_only
0x08064bd4 D sw_config
0x08064be4 D sw_device
0x08064c90 D sw_strings
0x08064d14 D uart_driver_props
0x08064d18 D static_uart_context
0x08064d60 D gVAdcDrvCtxt
0x08064f3c D cpr_open_loop_rail_root
0x08064f40 D cpr_closed_loop_rail_root
0x08064f48 D MagicNumber
0x08064f50 D hfat_crit_sect
0x08064f54 D fat_gmutex
0x08064f58 D hfat_lfn_enabled
0x08064f5c D blockdev_driver_list
0x08064f6c D SpeedMode
0x08064f8c D hwio_init_done
0x08064f90 D sdcc_reg_base
0x08064f98 D sdcc_reg_phys
0x08064fa0 D sdhc_reg_base
0x08064fa8 D sdhc_reg_phys
0x08065080 D TLMM_DriverCtxt
0x08065120 D uart_log_struct
0x08065328 D g_bIsPM8950v1_0
0x08065331 D cpr_char_rev
0x08065332 D cpr_foundry
0x08065338 D cpr_chip_version
0x0806533c D cpr_chip_family
0x08065954 D cx_config
0x080659ac D fs_convert
0x080659c8 D blockdev_devnull_driver
0x080659d8 D blockdev_sd_driver
0x08065a50 D amPartMap
0x08065b88 D chipIdMap
0x08065cd0 D pgLowPowerConfigs
0x08065cd8 D gnTotalGPIO
0x08065cdc D hNonDalProps
0x08065d28 D cx_voltage_ranges_8917
0x08065d34 D mss_voltage_ranges_8917
0x08065d40 D cpr_bsp_voltage_ranges_config_8917
0x08065d58 D cx_voltage_ranges_8920
0x08065d64 D mss_voltage_ranges_8920
0x08065d70 D cpr_bsp_voltage_ranges_config_8920
0x08065e7c D pgtState
0x08065e88 D boot_err_log_ptr
0x08065ef0 D bl_shared_data
0x08066230 D sbl_verified_info
0x08066288 D ddr_physical_size
0x080662c8 D ddr_system_size
0x08066300 D ddr_status
0x080682c8 D req_remaps
0x08068348 D spmiBusInfo
0x08068650 D smem_ext_heap_info
0x08068a38 D s_img_handle
0x08068bec D fail_count_histogram_perbyte
0x08068f40 D spmiPmicArbInfo
0x0806974c D spmiLogBuf
0x080697cc D version_internal_uuid
0x08069a40 D hotplug_devices
0x08069ac0 D hotplug_physical_devices
0x08069c1c D hotplug_partitions
0x0806b2b0 D smps_phase_lut_a
0x0806b2c0 D pmi8940_smps_phase_lut_a
0x0806b2d0 D pmi8950_smps_phase_lut_a
0x0806b528 D hotplug_counter
0x86700a2c D fs_cookie_list_manager_objs
0x86700a48 D f_filesystem
0x86719488 D f_volume_map
0x867194a4 D g_multi
0x86719930 D CeMLIovecTypeArray
0x867199d0 D CeMLHashCipherAlgoCntxTypeBuff
0x86719c40 D hfat_path_buffers
0x8671a450 D hfat_f_name_buffers
0x8671ac60 D hfat_f_lfnint_buffers
0x867388c4 D nameidata_buffer
0x86738a08 D nameidata_buf2
0x86739414 D fs_mpoints
0x8673af7c D hfat_iterators
0x8673be44 D boot_external_heap
0x86768000 D mmu_l1_pagetable
0x8676c000 D mmu_l2_pagetable
0x86771fb0 D sahara_packet_buffer
0x86772be8 D raw_dump_header
0x86772c20 D raw_dump_section_header_table
0x86773a00 D qhsusb_dload_info
0x86776180 D dci_core_info
