  <device id="/tlmm/dragonboard">
    <props name="blsp_uart_tx[8]" type="TLMMGpioIdType">{4, 2}</props>
    <props name="blsp_uart_rx[8]" type="TLMMGpioIdType">{5, 2}</props>
    <props name="blsp_i2c_sda[8]" type="TLMMGpioIdType">{6, 3}</props>
    <props name="blsp_i2c_scl[8]" type="TLMMGpioIdType">{7, 3}</props>
    <props name="lcd0_reset_n" type="TLMMGpioIdType">{8, 0}</props>
    <props name="disp_gpio3" type="TLMMGpioIdType">{9, 255}</props>
    <props name="mdp_vsync_p" type="TLMMGpioIdType">{10, 1}</props>
    <props name="mdp_vsync_s" type="TLMMGpioIdType">{11, 1}</props>
    <props name="cam_mclk0" type="TLMMGpioIdType">{13, 1}</props>
    <props name="cam_mclk1" type="TLMMGpioIdType">{14, 1}</props>
    <props name="cam_mclk2" type="TLMMGpioIdType">{15, 1}</props>
    <props name="cam_mclk3" type="TLMMGpioIdType">{16, 1}</props>
    <props name="cci_i2c_sda0" type="TLMMGpioIdType">{17, 1}</props>
    <props name="cci_i2c_scl0" type="TLMMGpioIdType">{18, 1}</props>
    <props name="cci_i2c_sda1" type="TLMMGpioIdType">{19, 1}</props>
    <props name="cci_i2c_scl1" type="TLMMGpioIdType">{20, 1}</props>
    <props name="cci_timer0" type="TLMMGpioIdType">{21, 1}</props>
    <props name="cci_timer1" type="TLMMGpioIdType">{22, 1}</props>
    <props name="cam2_rst_n" type="TLMMGpioIdType">{23, 0}</props>
    <props name="cam_irq" type="TLMMGpioIdType">{24, 255}</props>
    <props name="blsp_i2c_sda[6]" type="TLMMGpioIdType">{27, 3}</props>
    <props name="blsp_i2c_scl[6]" type="TLMMGpioIdType">{28, 3}</props>
    <props name="cam0_standby_n" type="TLMMGpioIdType">{29, 0}</props>
    <props name="cam0_rst_n" type="TLMMGpioIdType">{30, 0}</props>
    <props name="hdmi_cec" type="TLMMGpioIdType">{31, 1}</props>
    <props name="hdmi_ddc_clock" type="TLMMGpioIdType">{32, 1}</props>
    <props name="hdmi_ddc_data" type="TLMMGpioIdType">{33, 1}</props>
    <props name="hdmi_hot_plug_detect" type="TLMMGpioIdType">{34, 1}</props>
    <props name="pci_e0_rst_n" type="TLMMGpioIdType">{35, 1}</props>
    <props name="pci_e0_clkreqn" type="TLMMGpioIdType">{36, 1}</props>
    <props name="pci_e0_wake" type="TLMMGpioIdType">{37, 0}</props>
    <props name="sd_card_det_n" type="TLMMGpioIdType">{38, 0}</props>
    <props name="edu_gp" type="TLMMGpioIdType">{39, 255}</props>
    <props name="edu_irq" type="TLMMGpioIdType">{40, 255}</props>
    <props name="blsp_uart_tx[2]" type="TLMMGpioIdType">{41, 2}</props>
    <props name="blsp_uart_rx[2]" type="TLMMGpioIdType">{42, 2}</props>
    <props name="blsp_uart_cts_n[2]" type="TLMMGpioIdType">{43, 2}</props>
    <props name="blsp_uart_rfr_n[2]" type="TLMMGpioIdType">{44, 2}</props>
    <props name="blsp_spi_mosi[3]" type="TLMMGpioIdType">{45, 1}</props>
    <props name="blsp_spi_miso[3]" type="TLMMGpioIdType">{46, 1}</props>
    <props name="blsp_spi_cs_n[3]" type="TLMMGpioIdType">{47, 1}</props>
    <props name="blsp_spi_clk[3]" type="TLMMGpioIdType">{48, 1}</props>
    <props name="blsp_spi_mosi[1]" type="TLMMGpioIdType">{49, 255}</props>
    <props name="blsp_spi_miso[1]" type="TLMMGpioIdType">{50, 255}</props>
    <props name="blsp_spi_cs_n[1]" type="TLMMGpioIdType">{51, 255}</props>
    <props name="blsp_spi_clk[1]" type="TLMMGpioIdType">{52, 255}</props>
    <props name="codec_int2" type="TLMMGpioIdType">{53, 0}</props>
    <props name="codec_int1" type="TLMMGpioIdType">{54, 0}</props>
    <props name="qua_mi2s_mclk" type="TLMMGpioIdType">{57, 1}</props>
    <props name="qua_mi2s_sck" type="TLMMGpioIdType">{58, 1}</props>
    <props name="qua_mi2s_ws" type="TLMMGpioIdType">{59, 1}</props>
    <props name="qua_mi2s_data0" type="TLMMGpioIdType">{60, 1}</props>
    <props name="qua_mi2s_data1" type="TLMMGpioIdType">{61, 1}</props>
    <props name="qua_mi2s_data2" type="TLMMGpioIdType">{62, 1}</props>
    <props name="qua_mi2s_data3" type="TLMMGpioIdType">{63, 1}</props>
    <props name="codec_rst_n" type="TLMMGpioIdType">{64, 0}</props>
    <props name="pcm_clk" type="TLMMGpioIdType">{65, 0}</props>
    <props name="pcm_sync" type="TLMMGpioIdType">{66, 0}</props>
    <props name="pcm_din" type="TLMMGpioIdType">{67, 0}</props>
    <props name="pcm_dout" type="TLMMGpioIdType">{68, 0}</props>
    <props name="audio_ref_clk" type="TLMMGpioIdType">{69, 2}</props>
    <props name="lpass_slimbus_clk" type="TLMMGpioIdType">{70, 1}</props>
    <props name="lpass_slimbus_data0" type="TLMMGpioIdType">{71, 1}</props>
    <props name="lpass_slimbus_data1" type="TLMMGpioIdType">{72, 1}</props>
    <props name="ts1_reset_n" type="TLMMGpioIdType">{79, 0}</props>
    <props name="mems_reset_n" type="TLMMGpioIdType">{80, 0}</props>
    <props name="disp_gpio2" type="TLMMGpioIdType">{81, 255}</props>
    <props name="blsp_spi_mosi[12]" type="TLMMGpioIdType">{85, 1}</props>
    <props name="blsp_spi_miso[12]" type="TLMMGpioIdType">{86, 1}</props>
    <props name="blsp_i2c_sda[12]" type="TLMMGpioIdType">{87, 3}</props>
    <props name="blsp_i2c_scl[12]" type="TLMMGpioIdType">{88, 3}</props>
    <props name="ts0_reset_n" type="TLMMGpioIdType">{89, 0}</props>
    <props name="cam1_standby_n" type="TLMMGpioIdType">{98, 0}</props>
    <props name="lcd1_reset_n" type="TLMMGpioIdType">{101, 0}</props>
    <props name="pcie_slt_prsnt_n" type="TLMMGpioIdType">{102, 255}</props>
    <props name="usb_hub_reset_n" type="TLMMGpioIdType">{103, 255}</props>
    <props name="cam1_rst_n" type="TLMMGpioIdType">{104, 0}</props>
    <props name="nfc_disable" type="TLMMGpioIdType">{105, 0}</props>
    <props name="nfc_irq" type="TLMMGpioIdType">{106, 0}</props>
    <props name="disp_gpio1" type="TLMMGpioIdType">{107, 255}</props>
    <props name="ts_int_1_n" type="TLMMGpioIdType">{108, 255}</props>
    <props name="uim1_data" type="TLMMGpioIdType">{109, 1}</props>
    <props name="uim1_clk" type="TLMMGpioIdType">{110, 1}</props>
    <props name="uim1_reset" type="TLMMGpioIdType">{111, 1}</props>
    <props name="uim1_present" type="TLMMGpioIdType">{112, 1}</props>
    <props name="pci_e2_rst_n" type="TLMMGpioIdType">{114, 2}</props>
    <props name="pci_e2_clkreq_n" type="TLMMGpioIdType">{115, 255}</props>
    <props name="pci_e2_wake" type="TLMMGpioIdType">{116, 0}</props>
    <props name="ssc_irq_0" type="TLMMGpioIdType">{117, 255}</props>
    <props name="ssc_irq_1" type="TLMMGpioIdType">{118, 255}</props>
    <props name="ssc_irq_2" type="TLMMGpioIdType">{119, 255}</props>
    <props name="ssc_irq_3" type="TLMMGpioIdType">{120, 255}</props>
    <props name="ssc_irq_4" type="TLMMGpioIdType">{121, 255}</props>
    <props name="ssc_irq_5" type="TLMMGpioIdType">{122, 255}</props>
    <props name="ssc_irq_6" type="TLMMGpioIdType">{123, 255}</props>
    <props name="ssc_irq_7" type="TLMMGpioIdType">{124, 255}</props>
    <props name="ssc_irq_8" type="TLMMGpioIdType">{125, 255}</props>
    <props name="edu_gpio1" type="TLMMGpioIdType">{127, 255}</props>
    <props name="pci_e1_rst_n" type="TLMMGpioIdType">{130, 1}</props>
    <props name="pci_e1_clkreqn" type="TLMMGpioIdType">{131, 1}</props>
    <props name="pci_e1_wake" type="TLMMGpioIdType">{132, 0}</props>
    <props name="cam2_standby_n" type="TLMMGpioIdType">{133, 0}</props>
    <props name="edu_gpio3" type="TLMMGpioIdType">{134, 255}</props>
    <props name="bl0_en" type="TLMMGpioIdType">{135, 0}</props>
    <props name="qspi_cs_n_1" type="TLMMGpioIdType">{138, 2}</props>
    <props name="ssbi2" type="TLMMGpioIdType">{139, 2}</props>
    <props name="ssbi1" type="TLMMGpioIdType">{140, 2}</props>
    <props name="qspi_cs_n_0" type="TLMMGpioIdType">{141, 2}</props>
    <props name="qspi_reset_n" type="TLMMGpioIdType">{142, 0}</props>
    <props name="qspi_clk" type="TLMMGpioIdType">{145, 2}</props>
    <props name="qspi_data[0]" type="TLMMGpioIdType">{146, 2}</props>
    <props name="qspi_data[1]" type="TLMMGpioIdType">{147, 2}</props>
    <props name="qspi_data[2]" type="TLMMGpioIdType">{148, 2}</props>
    <props name="qspi_data[3]" type="TLMMGpioIdType">{149, 2}</props>
  </device>
