  <device id="/tlmm/fusion">
    <props name="blsp_spi_mosi[1]" type="TLMMGpioIdType">{0, 1}</props>
    <props name="blsp_spi_miso[1]" type="TLMMGpioIdType">{1, 1}</props>
    <props name="blsp_spi_cs_n[1]" type="TLMMGpioIdType">{2, 1}</props>
    <props name="blsp_spi_clk[1]" type="TLMMGpioIdType">{3, 1}</props>
    <props name="blsp_uart_tx[8]" type="TLMMGpioIdType">{4, 2}</props>
    <props name="blsp_uart_rx[8]" type="TLMMGpioIdType">{5, 2}</props>
    <props name="blsp_i2c_sda[8]" type="TLMMGpioIdType">{6, 3}</props>
    <props name="blsp_i2c_scl[8]" type="TLMMGpioIdType">{7, 3}</props>
    <props name="lcd0_reset_n" type="TLMMGpioIdType">{8, 0}</props>
    <props name="nfc_irq" type="TLMMGpioIdType">{9, 0}</props>
    <props name="mdp_vsync_p" type="TLMMGpioIdType">{10, 1}</props>
    <props name="mdp_vsync_s" type="TLMMGpioIdType">{11, 1}</props>
    <props name="ethernet_int" type="TLMMGpioIdType">{11, 0}</props>
    <props name="nfc_disable" type="TLMMGpioIdType">{12, 0}</props>
    <props name="cam_mclk0" type="TLMMGpioIdType">{13, 1}</props>
    <props name="cam_mclk1" type="TLMMGpioIdType">{14, 1}</props>
    <props name="cam_mclk2" type="TLMMGpioIdType">{15, 1}</props>
    <props name="webcam2_reset_n" type="TLMMGpioIdType">{16, 0}</props>
    <props name="cci_i2c_sda0" type="TLMMGpioIdType">{17, 1}</props>
    <props name="cci_i2c_scl0" type="TLMMGpioIdType">{18, 1}</props>
    <props name="cci_i2c_sda1" type="TLMMGpioIdType">{19, 1}</props>
    <props name="cci_i2c_scl1" type="TLMMGpioIdType">{20, 1}</props>
    <props name="cci_timer0" type="TLMMGpioIdType">{21, 1}</props>
    <props name="cci_timer1" type="TLMMGpioIdType">{22, 1}</props>
    <props name="webcam1_reset_n" type="TLMMGpioIdType">{23, 0}</props>
    <props name="qdss_cti_trig_in_a" type="TLMMGpioIdType">{24, 5}</props>
    <props name="qdss_cti_trig_out_a" type="TLMMGpioIdType">{25, 8}</props>
    <props name="webcam1_standby" type="TLMMGpioIdType">{26, 0}</props>
    <props name="cam1_standby_n" type="TLMMGpioIdType">{29, 0}</props>
    <props name="cam1_rst_n" type="TLMMGpioIdType">{30, 0}</props>
    <props name="hdmi_cec" type="TLMMGpioIdType">{31, 1}</props>
    <props name="hdmi_ddc_clk" type="TLMMGpioIdType">{32, 255}</props>
    <props name="hdmi_ddc_data" type="TLMMGpioIdType">{33, 1}</props>
    <props name="hdmi_hot_plug_detect" type="TLMMGpioIdType">{34, 1}</props>
    <props name="pci_e0_rst_n" type="TLMMGpioIdType">{35, 1}</props>
    <props name="pci_e0_clkreq_n" type="TLMMGpioIdType">{36, 255}</props>
    <props name="pci_e0_wake" type="TLMMGpioIdType">{37, 0}</props>
    <props name="fm_rds_int_n" type="TLMMGpioIdType">{38, 0}</props>
    <props name="fm_rst_n" type="TLMMGpioIdType">{39, 0}</props>
    <props name="sd_write_protect" type="TLMMGpioIdType">{40, 1}</props>
    <props name="blsp_uart_tx[2]" type="TLMMGpioIdType">{41, 2}</props>
    <props name="blsp_uart_rx[2]" type="TLMMGpioIdType">{42, 2}</props>
    <props name="blsp_uart_cts_n[2]" type="TLMMGpioIdType">{43, 2}</props>
    <props name="blsp_uart_rfr_n[2]" type="TLMMGpioIdType">{44, 2}</props>
    <props name="blsp_uart_tx[3]" type="TLMMGpioIdType">{45, 2}</props>
    <props name="blsp_uart_rx[3]" type="TLMMGpioIdType">{46, 2}</props>
    <props name="blsp_uart_cts_n[3]" type="TLMMGpioIdType">{47, 2}</props>
    <props name="blsp_uart_rfr_n[3]" type="TLMMGpioIdType">{48, 2}</props>
    <props name="blsp_uart_tx[9]" type="TLMMGpioIdType">{49, 3}</props>
    <props name="blsp_uart_rx[9]" type="TLMMGpioIdType">{50, 3}</props>
    <props name="gnss_reset_n" type="TLMMGpioIdType">{52, 0}</props>
    <props name="codec_int2" type="TLMMGpioIdType">{53, 0}</props>
    <props name="codec_int1" type="TLMMGpioIdType">{54, 0}</props>
    <props name="blsp_i2c_sda[7]" type="TLMMGpioIdType">{55, 3}</props>
    <props name="blsp_i2c_scl[7]" type="TLMMGpioIdType">{56, 3}</props>
    <props name="forced_usb_boot" type="TLMMGpioIdType">{57, 6}</props>
    <props name="uim4_data" type="TLMMGpioIdType">{58, 2}</props>
    <props name="uim4_clk" type="TLMMGpioIdType">{59, 2}</props>
    <props name="uim4_reset" type="TLMMGpioIdType">{60, 2}</props>
    <props name="uim4_present" type="TLMMGpioIdType">{61, 2}</props>
    <props name="cam2_standby_n" type="TLMMGpioIdType">{62, 0}</props>
    <props name="cam2_rst_n" type="TLMMGpioIdType">{63, 0}</props>
    <props name="codec_rst_n" type="TLMMGpioIdType">{64, 0}</props>
    <props name="pcm_clk" type="TLMMGpioIdType">{65, 1}</props>
    <props name="pcm_sync" type="TLMMGpioIdType">{66, 1}</props>
    <props name="pcm_din" type="TLMMGpioIdType">{67, 1}</props>
    <props name="pcm_dout" type="TLMMGpioIdType">{68, 1}</props>
    <props name="audio_ref_clk" type="TLMMGpioIdType">{69, 2}</props>
    <props name="slimbus_clk" type="TLMMGpioIdType">{70, 255}</props>
    <props name="slimbus_data0" type="TLMMGpioIdType">{71, 255}</props>
    <props name="slimbus_data1" type="TLMMGpioIdType">{72, 255}</props>
    <props name="btfm_slimbus_data" type="TLMMGpioIdType">{73, 1}</props>
    <props name="btfm_slimbus_clk" type="TLMMGpioIdType">{74, 1}</props>
    <props name="ter_mi2s_sck" type="TLMMGpioIdType">{75, 1}</props>
    <props name="ter_mi2s_ws" type="TLMMGpioIdType">{76, 1}</props>
    <props name="ter_mi2s_data0" type="TLMMGpioIdType">{77, 1}</props>
    <props name="fm_status_gpio" type="TLMMGpioIdType">{78, 0}</props>
    <props name="ethernet_rst" type="TLMMGpioIdType">{79, 0}</props>
    <props name="wlan_en" type="TLMMGpioIdType">{80, 0}</props>
    <props name="blsp_spi_mosi[5]" type="TLMMGpioIdType">{81, 2}</props>
    <props name="blsp_spi_miso[5]" type="TLMMGpioIdType">{82, 2}</props>
    <props name="blsp_spi_cs_n[5]" type="TLMMGpioIdType">{83, 2}</props>
    <props name="blsp_spi_clk[5]" type="TLMMGpioIdType">{84, 1}</props>
    <props name="blsp_spi_mosi[12]" type="TLMMGpioIdType">{85, 1}</props>
    <props name="ts_aux" type="TLMMGpioIdType">{86, 0}</props>
    <props name="blsp_i2c_sda[12]" type="TLMMGpioIdType">{87, 3}</props>
    <props name="blsp_i2c_scl[12]" type="TLMMGpioIdType">{88, 3}</props>
    <props name="ts_reset_n" type="TLMMGpioIdType">{89, 0}</props>
    <props name="blsp1_spi_cs1_n" type="TLMMGpioIdType">{90, 2}</props>
    <props name="rcm_trigger1" type="TLMMGpioIdType">{91, 0}</props>
    <props name="rcm_trigger2" type="TLMMGpioIdType">{92, 0}</props>
    <props name="rcm_trigger3" type="TLMMGpioIdType">{93, 0}</props>
    <props name="wigg_en" type="TLMMGpioIdType">{94, 0}</props>
    <props name="sd_card_det_n" type="TLMMGpioIdType">{95, 0}</props>
    <props name="lcd1_reset_n" type="TLMMGpioIdType">{96, 0}</props>
    <props name="qdss_cti_trig_out_d" type="TLMMGpioIdType">{100, 4}</props>
    <props name="qdss_cti_trig_in_d" type="TLMMGpioIdType">{101, 3}</props>
    <props name="apq_div_clk1_en" type="TLMMGpioIdType">{102, 0}</props>
    <props name="ap2mdm_chnl_rdy" type="TLMMGpioIdType">{103, 0}</props>
    <props name="mdm2ap_wakeup" type="TLMMGpioIdType">{104, 0}</props>
    <props name="ap2mdm_wakeup" type="TLMMGpioIdType">{105, 0}</props>
    <props name="mdm2ap_status" type="TLMMGpioIdType">{106, 0}</props>
    <props name="ap2mdm_status" type="TLMMGpioIdType">{107, 0}</props>
    <props name="mdm2ap_err_fatal" type="TLMMGpioIdType">{108, 0}</props>
    <props name="ap2mdm_err_fatal" type="TLMMGpioIdType">{109, 0}</props>
    <props name="mdm2ap_chnl_rdy" type="TLMMGpioIdType">{110, 0}</props>
    <props name="ap2mdm_vdd_min" type="TLMMGpioIdType">{111, 0}</props>
    <props name="mdm2ap_vdd_min" type="TLMMGpioIdType">{112, 0}</props>
    <props name="ap2mdm_pon_reset" type="TLMMGpioIdType">{113, 0}</props>
    <props name="pci_e2_rst_n" type="TLMMGpioIdType">{114, 2}</props>
    <props name="pci_e2_clkreq_n" type="TLMMGpioIdType">{115, 255}</props>
    <props name="pci_e2_wake" type="TLMMGpioIdType">{116, 0}</props>
    <props name="ssc_irq_0" type="TLMMGpioIdType">{117, 0}</props>
    <props name="ssc_irq_1" type="TLMMGpioIdType">{118, 0}</props>
    <props name="ssc_ir1_2" type="TLMMGpioIdType">{119, 0}</props>
    <props name="ssc_irq_3" type="TLMMGpioIdType">{120, 0}</props>
    <props name="ssc_irq_4" type="TLMMGpioIdType">{121, 0}</props>
    <props name="ssc_irq_5" type="TLMMGpioIdType">{122, 0}</props>
    <props name="ssc_irq_6" type="TLMMGpioIdType">{123, 0}</props>
    <props name="ssc_irq_7" type="TLMMGpioIdType">{124, 0}</props>
    <props name="ssc_irq_8" type="TLMMGpioIdType">{125, 0}</props>
    <props name="mems_reset_n" type="TLMMGpioIdType">{126, 0}</props>
    <props name="pci_e1_rst_n" type="TLMMGpioIdType">{130, 1}</props>
    <props name="pci_e1_clkreq_n" type="TLMMGpioIdType">{131, 255}</props>
    <props name="pci_e1_wake" type="TLMMGpioIdType">{132, 0}</props>
  </device>
