<driver name="NULL">
  <device id="/lpass/pmic">
    <props name="PAM_Node_Rsr" type=DALPROP_ATTR_TYPE_STRUCT_PTR>
      pm_npa_lpass_pam_node_rsrcs
    </props>
    <props name="PAM_Num" type=DALPROP_ATTR_TYPE_STRUCT_PTR>
      num_of_pm_lpass_nodes
    </props>
    <props name="MX_Info" type=DALPROP_ATTR_TYPE_STRUCT_PTR>
      MX_Info
    </props>
    <props name="CX_Info" type=DALPROP_ATTR_TYPE_STRUCT_PTR>
      CX_Info
    </props>
    <props name="RemoteLDORsrc" type=DALPROP_ATTR_TYPE_STRUCT_PTR>
      pmic_npa_remote_ldo
    </props>
    <props name="RemoteVSRsrc" type=DALPROP_ATTR_TYPE_STRUCT_PTR>
      pmic_npa_remote_vs
    </props>
    <props name="RemoteSMPSRsrc" type=DALPROP_ATTR_TYPE_STRUCT_PTR>
      pmic_npa_remote_smps
    </props>
  </device>
</driver>
