<!-- Copyright (c) 2013 Qualcomm Technologies Incorporated. All Rights Reserved. DESCRIPTION:
 Configuration of the dynamic modules to be loaded by the DSP. $Header: $ -->
<!-- NULL Driver does not require Dal Driver Interface APIs, since none of
 AVS HWD drivers uses DAL Device framework -->
 <!--
 Explanation of the fields:
 NumModules: Number of dynamic modules.
 All subsequent fields must end with _ followed by a sequence number.
 The sequence numbers should not have any gaps and must start with 1.
 URI: The full path of the shared object.
 TYPE: 0 = CAPI, 1 = APPI 2 = CAPI_V2
 PRELOAD: 0 = FALSE, 1 = TRUE
 For CAPIs:
 ID: Unique identifier used to create the module
 GETSIZE: name of the getsize function
 CTOR: name of the ctor function
 For APPIs:
 ID: Unique identifier used to create the module
 GETSIZE: name of the getsize function
 INIT: name of the init function
 For CAPI_V2s:
 CAPIV2TYPE: Type of the module. 0 = GENERIC, 1 = DECODER 2 = ENCODER 3 = CONVERTER 4 = PACKETIZER
 ID1: For GENERIC modules, the module id;
   For DECODER modules, the input format id;
   For ENCODER modules, the output format id;
   For CONVERTER modules, the input format id;
   For PACKETIZER modules, the format id of the bitstream
 ID2: For CONVERTER modules, the output format id;
      For all other modules, must be set to 0.
 GETSTATICPROPERTIES: name of the get_static_properties function
 INIT: name of the init function
 All strings should be declared in the global section and the variable names
 should be mentioned in the props sections. Please refer to the example data
 below.
  -->
<driver name="NULL">
 <!-- Example data
 <global_def>
  <var_seq name="uri_1" type=DALPROP_DATA_TYPE_STRING>
   /path/capi_mp3.so
  </var_seq>
  <var_seq name="getsize_1" type=DALPROP_DATA_TYPE_STRING>
   capi_mp3_getsize
  </var_seq>
  <var_seq name="ctor_1" type=DALPROP_DATA_TYPE_STRING>
   capi_mp3_ctor
  </var_seq>
  <var_seq name="uri_2" type=DALPROP_DATA_TYPE_STRING>
   /path/appi_gain.so
  </var_seq>
  <var_seq name="getsize_2" type=DALPROP_DATA_TYPE_STRING>
   appi_gain_getsize
  </var_seq>
  <var_seq name="init_2" type=DALPROP_DATA_TYPE_STRING>
   appi_gain_init
  </var_seq>
  <var_seq name="uri_3" type=DALPROP_DATA_TYPE_STRING>
   /path/capi_v2_volume.so
  </var_seq>
  <var_seq name="get_static_properties_3" type=DALPROP_DATA_TYPE_STRING>
   capi_v2_volume_get_static_properties
  </var_seq>
  <var_seq name="init_3" type=DALPROP_DATA_TYPE_STRING>
   capi_v2_volume_init
  </var_seq>
 </global_def>
 <device id="dynamic_modules">
  <props name="NumModules" type=DALPROP_ATTR_TYPE_UINT32>
   3
  </props>
  <props name="URI_1" type=DALPROP_ATTR_TYPE_STRING_PTR>
   uri_1
  </props>
  <props name="TYPE_1" type=DALPROP_ATTR_TYPE_UINT32>
   0
  </props>
  <props name="PRELOAD_1" type=DALPROP_ATTR_TYPE_UINT32>
   0
  </props>
  <props name="ID_1" type=DALPROP_ATTR_TYPE_UINT32>
   0x10BE9
  </props>
  <props name="GETSIZE_1" type=DALPROP_ATTR_TYPE_STRING_PTR>
   getsize_1
  </props>
  <props name="CTOR_1" type=DALPROP_ATTR_TYPE_STRING_PTR>
   ctor_1
  </props>
  <props name="URI_2" type=DALPROP_ATTR_TYPE_STRING_PTR>
   uri_2
  </props>
  <props name="TYPE_2" type=DALPROP_ATTR_TYPE_UINT32>
   1
  </props>
  <props name="PRELOAD_2" type=DALPROP_ATTR_TYPE_UINT32>
   1
  </props>
  <props name="ID_2" type=DALPROP_ATTR_TYPE_UINT32>
   0x10BFE
  </props>
  <props name="GETSIZE_2" type=DALPROP_ATTR_TYPE_STRING_PTR>
   getsize_2
  </props>
  <props name="INIT_2" type=DALPROP_ATTR_TYPE_STRING_PTR>
   init_2
  </props>
  <props name="URI_3" type=DALPROP_ATTR_TYPE_STRING_PTR>
   uri_3
  </props>
  <props name="TYPE_3" type=DALPROP_ATTR_TYPE_UINT32>
   2
  </props>
  <props name="PRELOAD_3" type=DALPROP_ATTR_TYPE_UINT32>
   1
  </props>
  <props name="CAPIV2TYPE_3" type=DALPROP_ATTR_TYPE_UINT32>
   0
  </props>
  <props name="ID1_3" type=DALPROP_ATTR_TYPE_UINT32>
   0x10000001
  </props>
  <props name="ID2_3" type=DALPROP_ATTR_TYPE_UINT32>
   0
  </props>
  <props name="GETSTATICPROPERTIES_3" type=DALPROP_ATTR_TYPE_STRING_PTR>
   get_static_properties_3
  </props>
  <props name="INIT_3" type=DALPROP_ATTR_TYPE_STRING_PTR>
   init_3
  </props>
 </device>
 -->
 <device id="dynamic_modules">
<props name="NumModules" type=DALPROP_ATTR_TYPE_UINT32>
   0
  </props>
 </device>
</driver>
