{
  "TZ.BF.4.0.5": {
    "patch_file": "patches/TZ.BF.4.0.5-00017.1.patch",
    "sample_app_target_name": "smplap64",
    "metadata": {
      "privileges": [
        "default",
        "HdmiStatus"
      ]
    },
    "extra_sources": [
      "extra_src_tz4.0/arm_ta_*",
      "extra_src_tz4.0/stubs/arm_ta_security_stream_checker_STUB.c"
    ]
  },
  "TZ.BF.4.0.1": {
    "patch_file": "patches/TZ.BF.4.0.1-00134.patch",
    "sample_app_target_name": "smplap64",
    "metadata": {
      "privileges": [
        "default",
        "HdmiStatus"
      ]
    },
    "extra_sources": [
      "extra_src_tz4.0/arm_ta_*",
      "extra_src_tz4.0/stubs/arm_ta_security_stream_checker_STUB.c"
    ]
  },
  "TZ.BF.3.0.r1": {
    "patch_file": "patches/TZ.BF.3.0.r1-00180.patch",
    "sample_app_target_name": "sampleap",
    "extra_sources": [
      "extra_src_tz2.0/arm_ta_*",
      "extra_src_tz2.0/stubs/arm_ta_security_stream_checker_STUB.c",
      "extra_src_tz2.0/stubs/arm_ta_drm_prov_STUB.c"
    ]
  },
  "TZ.BF.2.0": {
    "patch_file": "patches/TZ.BF.2.0-2.0.0117.patch",
    "sample_app_target_name": "sampleapp",
    "extra_sources": [
      "extra_src_tz2.0/arm_ta_*",
      "extra_src_tz2.0/stubs/arm_ta_drm_prov_STUB.c",
      "extra_src_tz2.0/stubs/arm_ta_tag_mem_STUB.c"
    ],
    "extra_qc_libs": [
      "core/securemsm/trustzone/qsapps/tzdrm/tzcommon/security_checker/shared/build/widevine/scorpion/$build_id/sme_tzcommon_security_checker_shared.lib"
    ],
    "update_effective_from_revisions": {
      "2.0.0098": {
        "extra_sources": [
          "extra_src_tz2.0/arm_ta_*",
          "extra_src_tz2.0/stubs/arm_ta_drm_prov_STUB.c"
        ]
      }
    }
  },
  "TZ.BF.2.4": {
    "patch_file": "patches/TZ.BF.3.0.r1-00180.patch",
    "sample_app_target_name": "sampleapp",
    "extra_sources": [
      "extra_src_tz2.0/arm_ta_*"
    ],
    "extra_qc_libs": [
      "core/securemsm/trustzone/qsapps/common/security_checker/shared/build/widevine/scorpion/$build_id/sme_tzcommon_security_checker_shared.lib",
      "core/securemsm/trustzone/qsapps/tzdrm/tzcommon/common/shared/build/playready/scorpion/$build_id/sme_tzcommon_common_shared.lib",
      "core/securemsm/trustzone/qsapps/tzdrm/tzcommon/config/shared/build/playready/scorpion/$build_id/sme_tzcommon_config_shared.lib",
      "core/securemsm/trustzone/qsapps/tzdrm/drmprov/shared/build/playready/scorpion/$build_id/sme_drmprov_shared.lib",
      "core/securemsm/trustzone/qsapps/tzdrm/drmprov/oem/build/playready/scorpion/$build_id/sme_drmprov_oemimpl.lib"
    ]
  }
}
