#<SYMDEFS># ARM Linker, 5.01 [Build 94]: Last Updated: Thu Aug 18 03:01:38 2016
0x00000000 N _printf_flags
0x00000000 N _printf_return_value
0x00000000 N _printf_sizespec
0x00000000 N _printf_widthprec
0x00210000 D main_channel_buffer_A
0x00214000 D main_channel_buffer_B
0x00218000 D transmit_buffer
0x0021900c D qusb_dload_info
0x00219538 D qusb_log_buffer
0x00224191 T sys_debug_busywait
0x002241b9 T sys_debug_busywait_init
0x002241d9 T sys_debug_disable
0x00224245 T sys_debug_enable_clocks
0x002242a9 T sys_debug_main_ctl
0x00224395 T sys_debug_wdt_start
0x0022441c A boot_enable_aarch64
0x00224438 A boot_generate_warm_reset
0x0022445c A boot_configure_vbar
0x00224475 T boot_hw_powerdown
0x002244bd T boot_hw_reset
0x002244f1 T boot_switch_to_aarch64
0x00224539 T BIMC_Config_sdi
0x00224571 T BIMC_DDR_Addr_Setup_sdi
0x002246cd T BIMC_Exit_Self_Refresh_sdi
0x002247e9 T BIMC_Memory_Device_Init_Lpddr3_sdi
0x002248fd T BIMC_Memory_Device_Init_sdi
0x00224935 T BIMC_Post_Init_Setup_sdi
0x00224b01 T BIMC_Pre_Init_Setup_sdi
0x00224b49 T BIMC_ZQ_Calibration_sdi
0x00224bcd T DDR_PHY_CC_Config_sdi
0x00224c19 T HAL_DDR_Init_SDI
0x00224d25 T Set_config
0x00224d99 T ddr_get_params
0x00224db1 T ddr_mpm_config_ebi1_freeze_io
0x00224dd5 T ddr_restore_from_wdog_reset
0x00224e1d T sys_debug_bric_settings
0x00226314 D ddrsns_share_data
0x00226318 D bimc_global0_config_sdi
0x00226320 D bimc_scmo_config_sdi
0x00226328 D bimc_dpe_config_sdi
0x00226330 D bimc_shke_config_sdi
0x00226338 D ddr_phy_dq_config_sdi
0x00226340 D ddr_phy_ca_config_sdi
0x00226348 D ddr_cc_config_sdi
0x00226350 D ddrsns_struct
0x08006021 T _printf_n
0x08006021 T _printf_percent
0x08006027 T _printf_p
0x0800602d T _printf_f
0x08006033 T _printf_e
0x08006039 T _printf_g
0x0800603f T _printf_a
0x08006045 T _printf_ll
0x0800604f T _printf_i
0x08006055 T _printf_d
0x0800605b T _printf_u
0x08006061 T _printf_o
0x08006067 T _printf_x
0x0800606d T _printf_lli
0x08006073 T _printf_lld
0x08006079 T _printf_llu
0x0800607f T _printf_llo
0x08006085 T _printf_llx
0x0800608b T _printf_l
0x08006095 T _printf_c
0x0800609b T _printf_s
0x080060a1 T _printf_lc
0x080060a7 T _printf_ls
0x080060ad T _printf_percent_end
0x080060b1 T __rt_ctype_table
0x080060b1 T __rt_lib_init_lc_ctype_2
0x080060b1 T __rt_lib_init_lc_numeric_2
0x080060b1 T __rt_lib_init_stdio_2
0x080060b1 T __rt_lib_shutdown_stdio_2
0x080060c0 A __aeabi_uldivmod
0x080060c0 A _ll_udiv
0x080060d4 A _ll_udiv_donemoving
0x080063f1 T __aeabi_llsl
0x080063f1 T _ll_shift_l
0x08006419 T __c89vsnprintf
0x0800644d T __2snprintf
0x08006485 T _printf_pre_padding
0x080064b3 T _printf_post_padding
0x080064d7 T _printf_str
0x08006529 T _printf_int_dec
0x0800659d T _printf_longlong_dec
0x08006615 T _printf_longlong_hex
0x08006671 T _printf_int_hex
0x0800668d T _printf_ll_hex
0x08006699 T _printf_hex_ptr
0x080066b1 T __printf
0x0800683d T strtoull
0x08006841 T setlocale
0x08006851 T __aeabi_assert
0x08006851 T __assert
0x080068d1 T strchr
0x080068e5 T strstr
0x08006909 T memcmp
0x08006961 T strrchr
0x08006977 T strlen
0x080069b0 A strncmp
0x08006aa0 A __aeabi_memcpy
0x08006aa0 A __rt_memcpy
0x08006b54 A _memcpy_lastbytes
0x08006b74 A __aeabi_memmove
0x08006b74 A __rt_memmove
0x08006c28 A __memmove_lastfew
0x08006c48 A __aeabi_memcpy4
0x08006c48 A __aeabi_memcpy8
0x08006c48 A __rt_memcpy_w
0x08006c94 A _memcpy_lastbytes_aligned
0x08006cad T __aeabi_memset
0x08006cbd T __aeabi_memclr
0x08006cbd T __rt_memclr
0x08006cc1 T _memset
0x08006d01 T __aeabi_memclr4
0x08006d01 T __aeabi_memclr8
0x08006d01 T __rt_memclr_w
0x08006d05 T _memset_w
0x08006d50 A strcmp
0x08006df1 T __aeabi_uread4
0x08006df1 T __rt_uread4
0x08006e07 T __aeabi_uwrite4
0x08006e07 T __rt_uwrite4
0x08006e1d T __aeabi_uread8
0x08006e1d T __rt_uread8
0x08006e50 A __aeabi_idiv
0x08006e50 A __aeabi_idivmod
0x0800707d T __aeabi_idiv0
0x08007081 T __aeabi_ldiv0
0x08007085 T __rt_locale
0x0800708c A _ll_udiv10
0x08007125 T _printf_truncate_signed
0x08007137 T _printf_truncate_unsigned
0x08007149 T _printf_int_common
0x08007201 T _printf_charcount
0x08007237 T _printf_char_common
0x0800725d T _sputc
0x08007267 T _snputc
0x08007277 T _printf_cs_common
0x0800728b T _printf_char
0x0800729b T _printf_string
0x080072a5 T _printf_wctomb
0x08007361 T _printf_longlong_oct
0x080073ad T _printf_int_oct
0x080073c5 T _printf_ll_oct
0x080073d9 T __strtoull
0x080074ef T _setlocale_r
0x080075fd T abort
0x0800760c A __aeabi_memmove4
0x0800760c A __aeabi_memmove8
0x0800760c A __rt_memmove_w
0x08007638 A __memmove_aligned
0x08007674 A __memmove_lastfew_aligned
0x0800768c A __rt_udiv10
0x080076b9 T _sys_exit
0x080076c5 T __rt_div0
0x080076d1 T __aeabi_errno_addr
0x080076d1 T __errno
0x080076d1 T __rt_errno_addr
0x080076d9 T __lib_sel_fp_printf
0x08007887 T _printf_fp_dec_real
0x08007af1 T _printf_lcs_common
0x08007b05 T _printf_wchar
0x08007b15 T _printf_wstring
0x08007b1d T _strtoull
0x08007bdd T _initio
0x08007caf T _terminateio
0x08007d15 T _wcrtomb
0x08007d55 T __rt_SIGABRT
0x08007d5d T _sys_open
0x08007d71 T _sys_close
0x08007d7d T _sys_write
0x08007d8d T _sys_read
0x08007d9b T _sys_istty
0x08007da7 T _sys_seek
0x08007db5 T _sys_ensure
0x08007db7 T _sys_flen
0x08007dc3 T __I$use$semihosting
0x08007dc3 T __use_no_semihosting_swi
0x08007dc5 T __semihosting_library_function
0x08007dc5 T _printf_fp_infnan
0x08007e45 T _chval
0x08007e61 T _btod_etento
0x08007f39 T __flsbuf
0x08007f39 T __flsbuf_byte
0x08007f39 T __flsbuf_wide
0x08008119 T setvbuf
0x08008161 T freopen
0x080081ff T fopen
0x0800824d T _fclose_internal
0x0800824d T fclose
0x08008299 T __rt_SIGFPE
0x080082a1 T __rt_SIGRTRED
0x080082a9 T _fseek
0x080082a9 T fseek
0x080083a1 T _seterr
0x080083b5 T _writebuf
0x08008409 T _fflush
0x0800844f T _deferredlazyseek
0x08008491 T __assert_puts
0x080084a9 T _do_fflush
0x080084df T fflush
0x0800850d T fputs
0x0800852f T _ftell_internal
0x0800852f T ftell
0x08008574 A __aeabi_uidiv
0x08008574 A __aeabi_uidivmod
0x080085a8 A mmu_invalidate_tlb
0x080085c4 A mmu_invalidate_instruction_cache
0x080085e0 A mmu_invalidate_data_cache
0x08008610 A mmu_enable_instruction_cache
0x08008634 A cache_mmu_disable
0x08008664 A memory_barrier
0x0800866c A cache_set_memory_barrier_location
0x08008678 A dcache_clean_all
0x0800870c A dcache_flush_region
0x08008774 A dcache_inval_region
0x080087f0 A dcache_clean_region
0x08008858 A mmu_flush_cache
0x0800887c A mmu_flush_cache_and_disable
0x08008914 A mmu_relocate_page_table_base
0x08008954 A mmu_get_page_table_base
0x08008968 A mmu_set_dacr
0x0800897c A qmemset
0x08008a79 T _btod_d2e
0x08008ab7 T _d2e_denorm_low
0x08008afd T _d2e_norm_op1
0x08008b5d T __btod_div_common
0x08008e95 T _e2e
0x08008f5b T _btod_ediv
0x08008f83 T _btod_emul
0x08008fab T __btod_mult_common
0x080091f0 A __main
0x080091f0 A _main
0x08009244 A sbl_save_regs
0x08009334 A sbl_loop_here
0x080093b0 A boot_read_l2esr
0x080093cc A sbl1_external_abort_enable
0x08009458 A hal_sdcc_memcpy32
0x08009474 A hal_sdcc_memcpy_read
0x08009494 A hal_sdcc_memcpy_write
0x080094e5 T AdcMapLinearInt32toInt32
0x08009579 T AuthenticateImage
0x08009685 T BootTempCheck
0x0800972d T CeCLIOCtlCipherRegXfer
0x08009a3d T CeCLIOCtlGetCipherCntx
0x08009a81 T CeCLIOCtlGetHashCntx
0x08009af5 T CeCLIOCtlGetHashDigest
0x08009b45 T CeCLIOCtlHashRegXfer
0x08009c5d T CeCLIOCtlSetCipherCntx
0x08009fb1 T CeCLIOCtlSetHashCntx
0x0800a0a9 T CeClClockDisable
0x0800a0ad T CeClClockEnable
0x0800a0b1 T CeClIOCtlCipher
0x0800a127 T CeClIOCtlHash
0x0800a19d T CeClInit
0x0800a1d1 T CeELBamCipherXfer
0x0800a3a9 T CeELBamHashCipherXfer
0x0800a4f5 T CeELBamHashXfer
0x0800a619 T CeELCipherRegXfer
0x0800a649 T CeELHashRegXfer
0x0800a671 T CeElBamDeInit
0x0800a695 T CeElBamInit
0x0800a8c5 T CeElBamXferFunction
0x0800a98d T CeElCeil
0x0800a9a3 T CeElDeinit
0x0800a9a7 T CeElDisableClock
0x0800a9ab T CeElEnableClock
0x0800a9af T CeElGetXferModeList
0x0800a9b9 T CeElGetXferfunction
0x0800a9dd T CeElInit
0x0800a9e1 T CeElMemcpy
0x0800a9eb T CeElMemoryBarrier
0x0800a9f5 T CeElMemset
0x0800aa05 T CeElRegXferFunction
0x0800aa9f T CeElfree
0x0800aaa9 T CeElfree_Env
0x0800aaf5 T CeElmalloc
0x0800ab01 T CeElmalloc_Env
0x0800aba1 T CeMLDeInit
0x0800abb5 T CeMLHashAtomic
0x0800aca9 T CeMLHashDeInit
0x0800acd5 T CeMLHashFinal
0x0800ae45 T CeMLHashInit
0x0800af61 T CeMLHashUpdate
0x0800b285 T CeMLInit
0x0800b2b9 T CeMlHashUpdate
0x0800b3b9 T ChipInfo_Close
0x0800b3c5 T ChipInfo_DalChipInfo_Attach
0x0800b483 T ChipInfo_DeviceDeInit
0x0800b487 T ChipInfo_DeviceInit
0x0800b48b T ChipInfo_DriverDeInit
0x0800b4a1 T ChipInfo_DriverInit
0x0800b701 T ChipInfo_GetChipFamily
0x0800b70d T ChipInfo_GetChipId
0x0800b719 T ChipInfo_GetChipIdString
0x0800b72f T ChipInfo_GetChipVersion
0x0800b73d T ChipInfo_GetFamily
0x0800b791 T ChipInfo_GetFamilyByPart
0x0800b7e5 T ChipInfo_GetFoundry
0x0800b84d T ChipInfo_GetFoundryId
0x0800b859 T ChipInfo_GetModemSupport
0x0800b869 T ChipInfo_GetPart
0x0800b8a1 T ChipInfo_GetRawChipId
0x0800b8af T ChipInfo_GetRawChipVersion
0x0800b8bd T ChipInfo_GetRawPart
0x0800b915 T ChipInfo_GetRawVersion
0x0800b96d T ChipInfo_GetSerialNumber
0x0800b97d T ChipInfo_GetVersion
0x0800ba3d T ChipInfo_Info
0x0800ba55 T ChipInfo_Open
0x0800ba59 T ChipInfo_PowerEvent
0x0800ba5d T Clock_APCSMuxMapToSource
0x0800ba81 T Clock_BIMCConfigFSM
0x0800baf5 T Clock_BIMCIsFSMConfigured
0x0800bb0d T Clock_BIMCMuxMapToSource
0x0800bb39 T Clock_CCIMuxMapToSource
0x0800bb51 T Clock_ConfigMux
0x0800bbfd T Clock_ConfigurePLL
0x0800bd69 T Clock_ConfigureSource
0x0800be25 T Clock_DebugInit
0x0800be75 T Clock_DisableUARTClock
0x0800bec5 T Clock_EnablePLL
0x0800c025 T Clock_EnableSource
0x0800c0e1 T Clock_GCCMuxMapToSource
0x0800c103 T Clock_I2CInit
0x0800c109 T Clock_IPAConfig
0x0800c1c1 T Clock_IPAMuxMapToSource
0x0800c1ed T Clock_Init
0x0800c26d T Clock_InitCrypto
0x0800c2bd T Clock_InitVotes
0x0800c301 T Clock_PreDDRInitEx
0x0800c565 T Clock_ReplaceUSBBootClockEnable
0x0800c5f9 T Clock_SBLConfig
0x0800c601 T Clock_SDCCMuxMapToSource
0x0800c623 T Clock_SetCCIPerfLevel
0x0800c65d T Clock_SetCPUPerfLevel
0x0800c6fd T Clock_SetSDCClockFrequency
0x0800c729 T Clock_SetSDCClockFrequencyExt
0x0800c819 T Clock_SetSysPerfLevel
0x0800c8e9 T Clock_SetUARTClockFrequency
0x0800ca0d T Clock_SourceMapToAPCS
0x0800ca2f T Clock_SourceMapToBIMC
0x0800ca5b T Clock_SourceMapToCCI
0x0800ca73 T Clock_SourceMapToGCC
0x0800ca95 T Clock_SourceMapToIPA
0x0800cac1 T Clock_SourceMapToMux
0x0800cadd T Clock_SourceMapToSDCC
0x0800caff T Clock_SourceMapToUSB
0x0800cb0f T Clock_ToggleClock
0x0800cb37 T Clock_TriggerUpdate
0x0800cb69 T Clock_USBMuxMapToSource
0x0800cb79 T Clock_Usb30EnableSWCollapse
0x0800cb95 T Clock_Usb30GetSWCollapse
0x0800cbad T DALFW_AddRef
0x0800cbc9 T DALFW_AttachToDevice
0x0800cc4d T DALFW_AttachToStringDevice
0x0800cd6b T DALFW_Release
0x0800cda9 T DALGLBCTXT_AllocCtxt
0x0800ce55 T DALGLBCTXT_Init
0x0800cf83 T DALSYS_BusyWait
0x0800cf87 T DALSYS_CacheCommand
0x0800cfb9 T DALSYS_DestroyObject
0x0800cfbd T DALSYS_EventCreate
0x0800cfdd T DALSYS_EventMultipleWait
0x0800cfe5 T DALSYS_Free
0x0800cffd T DALSYS_GetDALPropertyHandle
0x0800d001 T DALSYS_GetDALPropertyHandleStr
0x0800d045 T DALSYS_GetPropDir
0x0800d051 T DALSYS_GetPropStructPtrArray
0x0800d05d T DALSYS_GetPropertyValue
0x0800d061 T DALSYS_HeapInit
0x0800d09d T DALSYS_InitMod
0x0800d0ad T DALSYS_LogEvent
0x0800d0d1 T DALSYS_Malloc
0x0800d149 T DALSYS_MemInfo
0x0800d175 T DALSYS_MemRegionAlloc
0x0800d1e5 T DALSYS_SyncCreate
0x0800d1f9 T DALSYS_SyncEnter
0x0800d1fb T DALSYS_SyncLeave
0x0800d1fd T DALTLMMState_Init
0x0800d341 T DALTLMMState_MacroToStruct
0x0800d35b T DALTLMMState_StructToMacro
0x0800d395 T DAL_DeviceAttach
0x0800d3d3 T DAL_DeviceAttachEx
0x0800d425 T DAL_DeviceAttachLocal
0x0800d475 T DAL_DeviceDetach
0x0800d4a9 T DAL_StringDeviceObjectLookup
0x0800d5cd T GetPID
0x0800d60d T HAL_sdcc_DataControl
0x0800d645 T HAL_sdcc_FifoBlockRead
0x0800d679 T HAL_sdcc_FifoBlockWrite
0x0800d6c1 T HAL_sdcc_HCModeEnable
0x0800d6c5 T HAL_sdcc_InitializeRegisters
0x0800d70d T HAL_sdcc_SetBusWidth
0x0800d741 T HAL_sdcc_SetSdCmd
0x0800d795 T HAL_sdcc_Supports8BitBus
0x0800d799 T HAL_sdcc_WaitWrActive
0x0800d7b5 T HAL_sdhci_PowerSave
0x0800d7b9 T HAL_tlmm_ConfigGpio
0x0800d815 T HAL_tlmm_Init
0x0800d829 T HAL_tlmm_SetPort
0x0800d845 T HAL_tlmm_WriteConfig
0x0800d85d T HAL_tlmm_WriteGpio
0x0800d899 T HAL_tsens_CalSelect
0x0800d8a9 T HAL_tsens_ConfigSensor
0x0800d8b5 T HAL_tsens_DisableInterrupt
0x0800d939 T HAL_tsens_EnableInterrupt
0x0800d9b5 T HAL_tsens_GetBaseX1
0x0800d9c5 T HAL_tsens_GetBaseX2
0x0800d9d5 T HAL_tsens_GetDisabledCPUsMask
0x0800d9d9 T HAL_tsens_GetMaxTemp
0x0800d9e1 T HAL_tsens_GetMinTemp
0x0800d9e9 T HAL_tsens_GetPointX1
0x0800dab5 T HAL_tsens_GetSensorPrevTemp
0x0800dae9 T HAL_tsens_Init
0x0800daf5 T HAL_tsens_MTC_ConfigZone
0x0800db35 T HAL_tsens_MTC_ConfigZoneSwMask
0x0800db85 T HAL_tsens_MTC_SetMargins
0x0800dbb7 T HAL_tsens_MTC_SetThresholds
0x0800dbdb T HAL_tsens_Reset
0x0800dbf9 T HAL_tsens_SelectADCClkSrc
0x0800dc1f T HAL_tsens_SetAutoAdjustPeriod
0x0800dc45 T HAL_tsens_SetConversionFactors
0x0800dcad T HAL_tsens_SetCpuHighLowEnable
0x0800dcaf T HAL_tsens_SetCpuHighLowThreshold
0x0800dcb1 T HAL_tsens_SetCpuIndexes
0x0800dcb3 T HAL_tsens_SetMTCState
0x0800dcd7 T HAL_tsens_SetPSHoldResetEn
0x0800dcf7 T HAL_tsens_SetPWMEn
0x0800dd17 T HAL_tsens_SetPeriod
0x0800dd29 T HAL_tsens_SetPeriodSleep
0x0800dd3f T HAL_tsens_SetResultFormat
0x0800dd65 T HAL_tsens_SetSensorID
0x0800dd7d T HAL_tsens_SetSensorsEnabled
0x0800dd9d T HAL_tsens_SetSidebandSensorsEnabled
0x0800ddb1 T HAL_tsens_SetState
0x0800ddd9 T HAL_tsens_SetThreshold
0x0800de55 T HAL_tsens_TempMeasurementIsComplete
0x0800de6d T HAL_tsens_UseRedundant
0x0800de71 T HALuart_DisableInterrupts
0x0800de87 T HALuart_GetFifoSize
0x0800de97 T HALuart_GetInterruptStatus
0x0800dea1 T HALuart_GetStatus
0x0800deab T HALuart_GetTxFifoSize
0x0800deb3 T HALuart_ResetErrorStatus
0x0800debb T HALuart_ResetReceiver
0x0800dec3 T HALuart_ResetTransmitter
0x0800decb T HALuart_SetAutoInboundFlowCtl
0x0800dedd T HALuart_SetCharFormat
0x0800deff T HALuart_SetCmdSynchronization
0x0800df11 T HALuart_SetDivider
0x0800df17 T HALuart_SetDmaEnable
0x0800df2d T HALuart_SetIrdaEnable
0x0800df47 T HALuart_SetLoopback
0x0800df5d T HALuart_SetOutboundFlowCtl
0x0800df6f T HALuart_SetRxEnable
0x0800df7d T HALuart_SetRxSCEnable
0x0800df93 T HALuart_SetRxWatermark
0x0800dfb1 T HALuart_SetStaleEvent
0x0800dfc3 T HALuart_SetStaleTimeout
0x0800dfe5 T HALuart_SetTxEnable
0x0800dff3 T HALuart_SetTxFifoSize
0x0800dffb T HALuart_SetTxSCEnable
0x0800e011 T HALuart_SetTxWatermark
0x0800e027 T HALuart_SetupDmaRx
0x0800e02b T HALuart_WriteTxFifo
0x0800e07b T I2C_DalI2C_Attach
0x0800e0c1 T IsExternalMemReady
0x0800e0d5 T PerformSHA256
0x0800e10f T PlatformInfo_CDTConfigPostDDR
0x0800e139 T PlatformInfo_CDTConfigPreDDR
0x0800e275 T PlatformInfo_DeviceAttach
0x0800e2dd T PlatformInfo_DriverInit
0x0800e2e1 T PlatformInfo_GetKeyValue
0x0800e329 T PlatformInfo_GetPlatform
0x0800e339 T PlatformInfo_GetPlatformInfo
0x0800e631 T PmicArb_AddCacheEntry
0x0800e745 T PmicArb_ExecuteCommand
0x0800e8c1 T PmicArb_FindChannel
0x0800e91d T PmicArb_GetHwStatus
0x0800e949 T PmicArb_GetMaxChannelSupport
0x0800e94f T PmicArb_GetNumBusesSupported
0x0800e955 T PmicArb_HasInterruptSupport
0x0800e961 T PmicArb_Init
0x0800e9b1 T PmicArb_InvalidateCache
0x0800ea09 T PmicArb_UpdateCache
0x0800ea4d T PrngCL_getdata
0x0800eaf5 T PrngCL_lite_deinit
0x0800eaf9 T PrngCL_lite_init
0x0800eb2b T PrngEL_ClkDisable
0x0800eb2f T PrngEL_ClkEnable
0x0800eb33 T PrngML_getdata_lite
0x0800eb59 T SpmiBusCfg_ConfigureChannel
0x0800ebc1 T SpmiBusCfg_ConfigureChannels
0x0800ebe5 T SpmiBusCfg_InDynamicChannelMode
0x0800ebf1 T SpmiBusCfg_Init
0x0800ec3d T SpmiBusCfg_SetDynamicChannelMode
0x0800ec85 T SpmiBus_DeInit
0x0800ecfd T SpmiBus_Init
0x0800ed51 T SpmiBus_ReadLong
0x0800ed71 T SpmiBus_WriteLong
0x0800ed91 T SpmiHal_Init
0x0800edb1 T SpmiMaster_ConfigHW
0x0800ef71 T SpmiMaster_LoadFirmware
0x0800f099 T SpmiMaster_LoadRadixTree
0x0800f135 T SpmiOsNhlos_GetDalProp
0x0800f1d1 T SpmiOs_Free
0x0800f1d5 T SpmiOs_GetAhbClkState
0x0800f20d T SpmiOs_GetOwnerId
0x0800f231 T SpmiOs_GetPmicArbBaseAddr
0x0800f2c5 T SpmiOs_GetReservedChannels
0x0800f2fd T SpmiOs_GetSerialClkState
0x0800f335 T SpmiOs_GetTimeTick
0x0800f33b T SpmiOs_HandleTransactionError
0x0800f391 T SpmiOs_Malloc
0x0800f395 T SpmiOs_RegisterISR
0x0800f399 T SpmiOs_Wait
0x0800f39d T System_DalSystem_Attach
0x0800f3a5 T TLMM_Close
0x0800f3a9 T TLMM_ConfigGpio
0x0800f3bd T TLMM_ConfigGpioGroup
0x0800f499 T TLMM_DalTlmm_Attach
0x0800f545 T TLMM_DeviceDeInit
0x0800f55d T TLMM_DeviceInit
0x0800f7a1 T TLMM_DriverDeInit
0x0800f7a5 T TLMM_DriverInit
0x0800f7a9 T TLMM_GpioOut
0x0800f7b7 T TLMM_Info
0x0800f7d1 T TLMM_Open
0x0800f7d5 T TLMM_PostInit
0x0800f82d T TLMM_PowerEvent
0x0800f831 T TLMM_SetInactiveConfig
0x0800f875 T TLMM_SetPort
0x0800f8d9 T Tlmm_ConfigGpioGroup
0x0800f9fd T Tlmm_Init
0x0800fc41 T Tsens_GetTemp
0x0800fd59 T Tsens_Init
0x08010079 T Uart_busy_wait
0x0801007d T Uart_clock_close
0x080100c9 T Uart_clock_open
0x0801014d T Uart_deinit
0x080101d5 T Uart_get_driver_properties
0x0801023d T Uart_get_properties
0x0801033d T Uart_init
0x08010451 T Uart_tlmm_close
0x080104b5 T Uart_tlmm_open
0x08010533 T Uart_transmit
0x080105ad T VAdcHalGetConversionCode
0x08010601 T VAdcHalGetRevisionInfo
0x0801066d T VAdcHalGetStatus
0x08010701 T VAdcHalRequestConversion
0x08010739 T VAdcHalSetConversionParameters
0x080107e1 T VAdcHalSetEnable
0x08010821 T VAdcHalSetOpMode
0x08010861 T VAdcHalSetSequencerParameters
0x080108cd T VAdcHalStoreFabID
0x08010949 T VAdcScalePmicTherm
0x0801095d T VAdcScaleTdkNTCGTherm
0x0801099b T VAdc_Calibrate
0x08010ac5 T VAdc_Close
0x08010aed T VAdc_DalAdcDevice_Attach
0x08010beb T VAdc_DeviceDeInit
0x08010c0d T VAdc_DeviceInit
0x08010da1 T VAdc_DriverDeInit
0x08010da5 T VAdc_DriverInit
0x08010da9 T VAdc_GetChannel
0x08010df5 T VAdc_GetChannelStatus
0x08010dfb T VAdc_GetDeviceProperties
0x08010e07 T VAdc_Info
0x08010e21 T VAdc_Open
0x08010e41 T VAdc_PowerEvent
0x0801106b T VAdc_ReadChannelSync
0x080110bb T VAdc_RecalibrateChannel
0x080110c1 T VAdc_RecalibrateChannelSync
0x08011169 T VAdc_ScaleResult
0x080111cd T VAdc_ScaleResultAbsolute
0x08011225 T VAdc_StartConversion
0x080114d9 T _DALSYS_GetDALPropertyHandle
0x0801151d T _DALSYS_GetPropertyValue
0x080115db T _DALSYS_memscpy
0x08011867 T __ARM_fpclassify
0x08011891 T __rt_raise
0x080118bd T __stack_chk_fail
0x080118bf T _is_digit
0x080118cd T add
0x08011991 T authenticateSignedHash
0x08011aad T bLoad8
0x08011ac1 T bStor8
0x08011ae5 T bam_drv_init
0x08011b0d T bam_init
0x08011e8d T bam_isr
0x08011ec9 T bam_osal_cachecmd
0x08011ee1 T bam_osal_free
0x08011ee5 T bam_osal_freememregion
0x08011ef5 T bam_osal_init
0x08011ef7 T bam_osal_isrinstall
0x08011efb T bam_osal_malloc
0x08011f0d T bam_osal_mallocmemregion
0x08011f65 T bam_osal_memorybarrier
0x08011f69 T bam_osal_syncenter
0x08011f6b T bam_osal_syncinit
0x08011f6f T bam_osal_syncleave
0x08011f71 T bam_pipe_disable
0x08011fc7 T bam_pipe_enable
0x08012041 T bam_pipe_eot_handler
0x080121f3 T bam_pipe_init
0x0801235f T bam_pipe_poll
0x080123cb T bam_pipe_setirqmode
0x08012423 T bam_pipe_transfer
0x0801247d T bam_secure_init
0x080124c5 T bam_tgt_getcfg
0x08012509 T bam_tgt_getnumdevs
0x08012545 T bamcore_bam_enabled
0x080125a7 T bamcore_check
0x080126d1 T bamcore_getirqmode
0x080126d7 T bamcore_init
0x0801275f T bamcore_lpae_supported
0x08012765 T bamcore_pipe_deinit
0x080127b1 T bamcore_pipe_get_toggle
0x080127cd T bamcore_pipe_getandclearirqstatus
0x080127fd T bamcore_pipe_getdescreadoffset
0x08012811 T bamcore_pipe_init
0x08012929 T bamcore_pipe_nwd_done
0x08012949 T bamcore_pipe_secure_init
0x08012a11 T bamcore_pipe_setdescwriteoffset
0x08012a25 T bamcore_pipe_setirqmode
0x08012ab1 T bamcore_pipe_setlockgroup
0x08012acd T bamcore_secure_init
0x08012b2d T bamcore_secure_set_sg
0x08012bb5 T bamcore_setirqmode
0x08012bfb T bamdev_read_reg
0x08012c0b T bamdev_write_reg
0x08012c11 T bamdev_write_reg_field
0x08012c25 T bami_pipe_transfer_no_lock
0x08012d15 T blockdev_close
0x08012d31 T blockdev_get_device_info
0x08012d4d T blockdev_get_device_size
0x08012d75 T blockdev_get_entire_device_id
0x08012d8d T blockdev_is_embedded_device
0x08012da9 T blockdev_open
0x08012dc5 T blockdev_read
0x08012e09 T boot_BootTempCheck
0x08012e0d T boot_DALSYS_HeapInit
0x08012e11 T boot_DALSYS_InitMod
0x08012e15 T boot_PrngML_getdata_lite
0x08012e19 T boot_Tsens_Init
0x08012e1d T boot_bam_drv_init
0x08012e21 T boot_busywait
0x08012e25 T boot_busywait_init
0x08012e29 T boot_check_device_temp
0x08012e61 T boot_clobber_add_global_protection_region
0x08012ef9 T boot_clock_SetUARTClockFrequency
0x08012efd T boot_clock_debug_init
0x08012f01 T boot_clock_disable_UARTClock
0x08012f05 T boot_data_abort_c_handler
0x08012f29 T boot_dload_set_cookie
0x08012f39 T boot_dload_transition_pbl_forced_dload
0x08012f59 T boot_err_fatal
0x08012f61 T boot_error_handler
0x08013091 T boot_fiq_c_handler
0x080130bd T boot_flash_dev_if_get_singleton
0x080130f9 T boot_get_time
0x0801313d T boot_hand_control_to_deviceprogrammer_lite_main
0x08013141 T boot_init_stack_chk_canary
0x08013185 T boot_init_timer
0x080131f5 T boot_irq_c_handler
0x08013221 T boot_is_auth_enabled
0x0801323d T boot_is_ddr_initialized
0x08013249 T boot_l2_page_table_init
0x08013315 T boot_log_boot_config_register
0x0801336d T boot_log_get_meta_info
0x08013379 T boot_log_image_version
0x080133f5 T boot_log_init
0x0801341d T boot_log_init_ram
0x08013481 T boot_log_init_uart
0x0801348d T boot_log_message
0x08013493 T boot_log_message_optional_data
0x080134bd T boot_log_message_ram
0x08013571 T boot_log_message_raw
0x08013599 T boot_log_message_uart
0x08013725 T boot_log_set_meta_info
0x08013731 T boot_log_set_ref_time
0x08013741 T boot_log_start_timer
0x08013745 T boot_log_stop_timer
0x0801374b T boot_log_stop_timer_optional_data
0x080137fd T boot_mmu_page_table_map_mem_block_list
0x08013881 T boot_nested_exception_c_handler
0x08013885 T boot_pbl_get_flash_type
0x080138bd T boot_pbl_interface_init
0x080138d9 T boot_pbl_log_milestones
0x08013935 T boot_pm_device_init
0x08013939 T boot_pm_pon_ps_hold_cfg
0x0801393d T boot_pre_i2c_clock_init
0x08013941 T boot_prefetch_abort_c_handler
0x0801396d T boot_reserved_c_handler
0x08013999 T boot_rollback_init_img_set_table
0x080139e1 T boot_secboot_ftbl_init
0x08013a05 T boot_secboot_get_ftbl
0x08013a09 T boot_secboot_hw_get_ftbl
0x08013a0d T boot_set_hash_algo
0x08013a35 T boot_shared_imem_init
0x08013a61 T boot_smem_init_get_status
0x08013a6d T boot_start_timer
0x08013a85 T boot_stop_timer
0x08013ac9 T boot_store_tpm_hash_block
0x08013bf5 T boot_strlen
0x08013c0d T boot_swi_c_handler
0x08013c39 T boot_uart_init
0x08013c3d T boot_uart_tx
0x08013c41 T boot_undefined_instruction_c_handler
0x08013c6d T boot_usb_al_hs_phy_nondrive_mode_set
0x08013c71 T booting_from_storage_media
0x08013c91 T bsp_target_poweroff
0x08013ca9 T bsp_target_reset
0x08013cc1 T busywait
0x08013cf5 T busywait_init
0x08013d85 T calc_crc16_wrapper
0x08013dcd T calc_crc32
0x08013ef5 T check_fec_error
0x080140f9 T compare
0x0801449d T crc_16_step
0x0801495d T debugMessage
0x080149d5 T delaySeconds
0x080149f1 T deviceprogrammer_entry
0x08014a05 T deviceprogrammer_init_hw
0x08014b71 T deviceprogrammer_zi_buffers
0x08014d41 T find_bn_MSB1
0x08014e01 T firehoseResetValidation
0x08014f01 T fputc
0x08014f1b T free
0x08014f1d T fs_memscpy
0x08014f99 T getNextPacket
0x0801504f T get_time
0x080153d1 T handleBenchmark
0x080157c5 T handleConfigure
0x08015ccd T handleErase
0x08015e31 T handleFirmwareProgram
0x080161e5 T handleGetDigest
0x08016709 T handleGetStorageInfo
0x08016835 T handleNop
0x08016841 T handlePatch
0x08016e85 T handlePeek
0x0801707d T handlePoke
0x080172d5 T handlePower
0x08017411 T handleProgram
0x08017b91 T handleRead
0x08017fd9 T handleSetBootableStorageDrive
0x08018145 T handleStorageExtras
0x08018cad T hotplug_add_hdev_to_phy_hdev
0x08018d5d T hotplug_add_partition
0x08018d79 T hotplug_counters_update
0x08018dad T hotplug_dev_get_device_info
0x08018e1d T hotplug_discover_device
0x08018ebd T hotplug_fat_parse_check
0x08018ed1 T hotplug_find_partition
0x08018f45 T hotplug_find_physical_device
0x08018fa5 T hotplug_gpt_parse_close
0x08018fb1 T hotplug_gpt_parse_open
0x08019005 T hotplug_gpt_parse_read
0x08019031 T hotplug_hdev_alloc
0x08019075 T hotplug_hdev_free
0x080190c5 T hotplug_is_gpt_data_partition
0x080190e9 T hotplug_is_it_a_fat_partition
0x0801910d T hotplug_is_mbr_fat_partition
0x0801913b T hotplug_is_valid_hdev
0x0801915d T hotplug_is_valid_parti
0x08019175 T hotplug_is_valid_physical_hdev
0x080191e5 T hotplug_iter_close
0x080191fd T hotplug_iter_get_next
0x08019487 T hotplug_iter_open
0x080194a5 T hotplug_mbr_check_extended
0x0801950b T hotplug_mbr_parse_close
0x08019519 T hotplug_mbr_parse_open
0x0801953d T hotplug_mbr_read_extended
0x080195e1 T hotplug_mbr_read_primary
0x08019659 T hotplug_open_device
0x0801971b T hotplug_open_device_by_gpt_partition_type
0x08019771 T hotplug_partition_alloc
0x080197bd T hotplug_partition_ref
0x08019801 T hotplug_partition_unref
0x08019871 T hotplug_pparser_cache_init
0x080198ed T hotplug_task_discover_device
0x08019a6d T initFirehoseProtocol
0x08019b2d T initFirehoseStorage
0x08019b39 T initFirehoseTransport
0x08019b3f T init_storage_device_hw
0x08019ba3 T init_storage_device_struct
0x08019bdf T inverse32
0x08019c09 T isAuthenticationEnabled
0x08019c49 T isValidationMode
0x08019d35 T logDigest
0x08019de9 T logMessage
0x08019ea1 T main_firehose
0x08019edd T malloc
0x08019f3d T memscpy
0x08019f5b T memsmove
0x0801a07d T mod_exp
0x0801a24f T montmul_one_ref
0x0801a2d5 T montmul_ref1
0x0801a3a9 T mult_R_mod_m
0x0801a40d T mult_base_mod_m
0x0801a689 T our_memset
0x0801a6bd T packet_handle_incoming_buf
0x0801a749 T packet_handle_outgoing_buf
0x0801a785 T parseExpression
0x0801aadd T parseIntegerValue
0x0801abd5 T pbl_clk_julian_to_secs
0x0801ad05 T pbl_secasn1_close_sequence
0x0801ad23 T pbl_secasn1_decode_bit_string
0x0801ad79 T pbl_secasn1_decode_boolean
0x0801adb7 T pbl_secasn1_decode_length
0x0801ae55 T pbl_secasn1_decode_tag
0x0801aea9 T pbl_secasn1_decode_time
0x0801afe7 T pbl_secasn1_end
0x0801b005 T pbl_secasn1_next_field
0x0801b0fd T pbl_secasn1_start
0x0801b163 T pbl_secx509_check_cert_list
0x0801b201 T pbl_secx509_check_issued
0x0801b29b T pbl_secx509_check_purpose
0x0801b2bf T pbl_secx509_get_asn1_cert_size
0x0801b317 T pbl_secx509_name_cmp
0x0801b335 T pbl_secx509_parse_auth_key_id
0x0801b3b9 T pbl_secx509_parse_basic_constraint
0x0801b471 T pbl_secx509_parse_cert_buffer
0x0801b5a9 T pbl_secx509_parse_certificate
0x0801b72d T pbl_secx509_parse_dn
0x0801ba8d T pbl_secx509_parse_ex_key_usage
0x0801bbd1 T pbl_secx509_parse_extensions
0x0801be19 T pbl_secx509_parse_gen_name_for_dir
0x0801be63 T pbl_secx509_parse_key_usage
0x0801bec9 T pbl_secx509_parse_pub_key
0x0801c04d T pbl_secx509_parse_sig_algorithm
0x0801c11d T pbl_secx509_parse_signature
0x0801c1a5 T pbl_secx509_parse_unique_id
0x0801c1cf T pbl_secx509_parse_validity
0x0801c29d T pbl_secx509_parse_version
0x0801c2ef T pbl_secx509_skip_num_certs
0x0801c881 T pm_clk_busy_wait
0x0801c895 T pm_comm_channel_init_internal
0x0801c8cd T pm_comm_info_init
0x0801c925 T pm_comm_read_byte
0x0801c965 T pm_comm_read_byte_array
0x0801c9a1 T pm_comm_write_byte
0x0801c9d5 T pm_comm_write_byte_array
0x0801ca05 T pm_comm_write_byte_mask
0x0801ca75 T pm_device_init
0x0801cab1 T pm_device_post_init
0x0801cb53 T pm_device_pre_init
0x0801cb83 T pm_get_num_slaves_per_pmic
0x0801cb89 T pm_get_pbs_info
0x0801cc09 T pm_get_pmic_info
0x0801cc3d T pm_get_pmic_model
0x0801cc65 T pm_get_slave_id
0x0801ccad T pm_is_pmic_supported
0x0801cd01 T pm_is_stub_enabled
0x0801cd15 T pm_log_pon_reasons
0x0801ce99 T pm_malloc
0x0801cfa3 T pm_mpp_config_analog_input
0x0801d075 T pm_mpp_enable
0x0801d0b9 T pm_mpp_get_data
0x0801d0cd T pm_pbs_config_access
0x0801d11b T pm_pbs_disable_access
0x0801d127 T pm_pbs_enable_access
0x0801d135 T pm_pbs_info_init
0x0801d519 T pm_pbs_ram_image_load
0x0801d5a5 T pm_pbs_ram_image_verify
0x0801d621 T pm_pon_channel_config
0x0801d65d T pm_pon_get_all_pon_reasons
0x0801d6a5 T pm_pon_init
0x0801d77d T pm_pon_ps_hold_cfg
0x0801d829 T pm_pon_reset_source_cfg
0x0801da11 T pm_pon_reset_source_ctl
0x0801da85 T pm_resolve_chip_revision
0x0801dac1 T pm_sbl_config
0x0801dc35 T pm_sbl_validate_reg_config
0x0801dcc1 T pm_smbchg_get_data
0x0801dcd5 T pm_smbchg_usb_chgpth_input_sts
0x0801dd59 T pm_target_information_get_specific_info
0x0801dd7d T pm_target_information_init
0x0801df81 T pm_target_information_spmi_dyn_chnl_cfg
0x0801dfa3 T pm_target_ps_hold_cfg
0x0801dffd T pm_typec_get_data
0x0801e011 T pm_typec_get_plug_orientation_status
0x0801e071 T pm_typec_get_pmic_index
0x0801e0c9 T pm_version_detect
0x0801e1ed T pmapp_ps_hold_cfg
0x0801e3ad T processNextXMLTag
0x0801e75d T qmemcpy
0x0801e84d T queueNextPacket
0x0801e86d T qusb_al_bulk_get_max_packet_size
0x0801e891 T qusb_al_bulk_get_max_raw_data_size
0x0801e89d T qusb_al_bulk_handle_rx_zlp_mode
0x0801e8cd T qusb_al_bulk_init
0x0801e995 T qusb_al_bulk_poll
0x0801ea01 T qusb_al_bulk_receive
0x0801eaed T qusb_al_bulk_receive_zlp
0x0801ed11 T qusb_al_bulk_set_zlp_mode
0x0801ed31 T qusb_al_bulk_shutdown
0x0801ed75 T qusb_al_bulk_snps_shutdown
0x0801ed95 T qusb_al_bulk_transmit
0x0801eec1 T qusb_al_hs_phy_nondrive_mode_set
0x0801eec5 T qusb_boot_dload_get_dload_info_ptr
0x0801eec9 T qusb_boot_dload_is_dload_info_pid_valid
0x0801eef1 T qusb_boot_dload_is_dload_info_serial_num_valid
0x0801ef19 T qusb_bus_log
0x0801ef61 T qusb_dcd_control_transfer
0x0801efb5 T qusb_dcd_init
0x0801f039 T qusb_dcd_poll
0x0801f043 T qusb_dcd_port_status_changed
0x0801f065 T qusb_dcd_set_config
0x0801f115 T qusb_dcd_shutdown
0x0801f1a5 T qusb_dci_cancel_transfer
0x0801f229 T qusb_dci_config_endpoint
0x0801f2ed T qusb_dci_configure_device_mode
0x0801f345 T qusb_dci_configure_usb30
0x0801f521 T qusb_dci_deinit_hs_phy
0x0801f539 T qusb_dci_delay_ms
0x0801f553 T qusb_dci_delay_us
0x0801f557 T qusb_dci_disable_usb30_clocks
0x0801f565 T qusb_dci_enable_ref_clk
0x0801f599 T qusb_dci_enable_usb30_clocks
0x0801f59d T qusb_dci_enable_usb30_power_collapse
0x0801f5a1 T qusb_dci_enable_vbus_valid
0x0801f5d5 T qusb_dci_ep0_start_xfer
0x0801f641 T qusb_dci_event_buffer_restore
0x0801f669 T qusb_dci_get_address
0x0801f6ad T qusb_dci_get_phy_tuning_parameters
0x0801f6c1 T qusb_dci_get_speed
0x0801fc21 T qusb_dci_handle_set_select
0x0801fc55 T qusb_dci_handle_suspend_entry
0x0801fced T qusb_dci_handle_test_mode
0x0801fe39 T qusb_dci_handle_u1_u2_enable
0x0801ffe5 T qusb_dci_hs_phy_nondrive_mode_set
0x08020015 T qusb_dci_init
0x08020115 T qusb_dci_is_usb30_sw_collapsed
0x08020119 T qusb_dci_is_vbus_valid
0x08020185 T qusb_dci_poll_events
0x08020341 T qusb_dci_read_enum_cookie
0x0802034d T qusb_dci_read_evt_buff_cur_pos_cookie
0x08020359 T qusb_dci_read_serial_number
0x080203c5 T qusb_dci_select_utmi_clk
0x08020419 T qusb_dci_set_address
0x08020445 T qusb_dci_set_max_packet_size
0x0802046d T qusb_dci_set_run_stop
0x08020499 T qusb_dci_shutdown
0x080204f9 T qusb_dci_skip_enumeration
0x08020555 T qusb_dci_ss_phy_present
0x080205ed T qusb_dci_stall_endpoint
0x080207c1 T qusb_dci_transfer_request
0x08020869 T qusb_dci_typec_lane_detect
0x0802097d T qusb_dci_unconfig_endpoint
0x0802099d T qusb_dci_unstall_endpoint
0x08020a01 T qusb_dci_usb30_gcc_reset
0x08020add T qusb_dci_write_enum_cookie
0x08020ba1 T qusb_dci_write_evt_buff_cur_pos_cookie
0x08020bad T qusb_error_log
0x08020c01 T qusb_fd_get_shutdown_mode
0x08020c0d T qusb_fd_init
0x08020d2d T qusb_fd_rx_pkt
0x08020d99 T qusb_fd_set_buffer_mode
0x08020db1 T qusb_fd_set_core
0x08020ddd T qusb_fd_shutdown
0x08020dfd T qusb_fd_tx_pkt
0x080210c1 T qusb_get_shared_imem_address
0x080210c9 T qusb_hs_phy_init
0x08021175 T qusb_hs_phy_refclk_enable
0x080211f5 T qusb_log
0x080213b5 T qusb_ss_phy_init
0x080215fd T qusb_submit_urb
0x08021639 T qusb_timer_check_for_expiry
0x08021679 T qusb_timer_start
0x08021701 T qusb_uart_log
0x08021705 T readAndProcessXML
0x08021819 T readChannel
0x080219e9 T recvNextPacket
0x08021fdd T sbl1_hw_init
0x08022089 T sbl1_init_sbl_qsee_interface
0x080220d9 T sbl1_main_ctl
0x08022249 T sbl1_populate_initial_mem_map
0x080223b5 T sbl_error_handler
0x08022431 T sdcc_bsp_config_clock
0x08022515 T sdcc_bsp_get_cache_align_size
0x08022519 T sdcc_bsp_get_max_supported_clk
0x0802252d T sdcc_bsp_get_slot_type
0x08022541 T sdcc_bsp_gpio_control
0x0802258d T sdcc_bsp_hw_busy_wait_init
0x080225a1 T sdcc_bsp_hw_clk_busy_wait
0x08022645 T sdcc_command
0x0802265d T sdcc_command_qc_mode
0x080226c1 T sdcc_command_sdhci_mode
0x080226c5 T sdcc_complete_data_xfer
0x0802270d T sdcc_config_clk
0x0802284d T sdcc_config_memory_device
0x08022905 T sdcc_config_mmc_bus_width
0x08022951 T sdcc_config_mmc_modes_segment
0x08022bdd T sdcc_config_rca
0x08022ca5 T sdcc_decode_extCSD
0x08022e49 T sdcc_decode_mmc_cid
0x08022ec1 T sdcc_decode_mmc_mfr_date
0x08022ec5 T sdcc_decode_scr
0x08022eed T sdcc_decode_sd_cid
0x08022f4d T sdcc_decode_sd_mfr_date
0x08022f51 T sdcc_decode_sd_status
0x08022fed T sdcc_decode_switch_data
0x08023099 T sdcc_deinit
0x080230e1 T sdcc_deregister_client_handle
0x08023103 T sdcc_display_mem_device_info
0x0802313d T sdcc_do_transfer
0x0802314f T sdcc_do_transfer_qc_mode
0x080232c3 T sdcc_do_transfer_sdhci_mode
0x08023325 T sdcc_find_mmc_device
0x080233a9 T sdcc_find_sd_device
0x08023491 T sdcc_get_cid
0x080234e5 T sdcc_get_ext_csd
0x08023527 T sdcc_get_memory_info
0x0802365d T sdcc_get_scr
0x080236ad T sdcc_get_sd_speed_class
0x080236d5 T sdcc_get_sd_status
0x08023725 T sdcc_get_slot_handle
0x08023761 T sdcc_handle_close
0x0802377d T sdcc_handle_erase
0x08023851 T sdcc_handle_find_card
0x08023925 T sdcc_handle_get_fw_version
0x08023945 T sdcc_handle_mem_get_device_info
0x08023a6d T sdcc_handle_open
0x08023bad T sdcc_handle_optimized_open
0x08023c4d T sdcc_handle_read
0x08023cf9 T sdcc_handle_set_active_bootable_partition
0x08023d1f T sdcc_handle_write
0x08023dc9 T sdcc_hc_config_buswidth
0x08023dcd T sdcc_hc_enable_ddr50
0x08023dd1 T sdcc_hc_enable_hs200
0x08023dd5 T sdcc_hc_set_clock
0x08023dd9 T sdcc_init_memory_device
0x08023e41 T sdcc_init_qc_mode
0x08023f59 T sdcc_init_sdhci_mode
0x08023f5d T sdcc_is_device_still_in_use
0x08023f91 T sdcc_is_partial_enumeration
0x08024001 T sdcc_mmc_get_fw_version
0x08024007 T sdcc_mmc_get_phy_partition_info
0x080240ad T sdcc_mmc_is_phy_partition_bootable
0x080240e1 T sdcc_mmc_set_active_bootable_partition
0x08024141 T sdcc_mmc_set_partition_access
0x08024189 T sdcc_mmc_switch
0x080242b5 T sdcc_poll_status
0x08024371 T sdcc_read_fifo
0x0802441d T sdcc_register_client_handle
0x08024461 T sdcc_reset_reinit
0x080244d5 T sdcc_sd_switch_to_hs
0x08024621 T sdcc_select_card
0x08024653 T sdcc_send_app_command
0x08024685 T sdcc_send_cmd
0x08024725 T sdcc_send_status
0x080247a9 T sdcc_set_partition
0x080247d7 T sdcc_set_sd_bus_width
0x08024841 T sdcc_setup_data_xfer
0x080248a9 T sdcc_wait_card_ready
0x080248d5 T sdcc_wait_data_xfer_complete
0x08024921 T sdcc_wait_prog_done
0x08024975 T sdcc_write_fifo
0x08024a61 T secboot_authenticate
0x08024d7d T secboot_cal_cert_num
0x08024dc9 T secboot_deinit
0x08024ddd T secboot_get_ftbl
0x08024e09 T secboot_hash
0x080250d5 T secboot_hw_get_ftbl
0x0802512f T secboot_hw_get_msm_hw_id
0x08025191 T secboot_hw_get_root_cert_info
0x08025229 T secboot_hw_get_root_cert_sel
0x08025245 T secboot_hw_get_root_of_trust
0x08025301 T secboot_hw_get_serial_num
0x08025317 T secboot_hw_get_use_serial_num
0x08025335 T secboot_hw_is_auth_enabled
0x08025369 T secboot_hw_update_and_read_root_cert_sel
0x080253a1 T secboot_init
0x08025455 T secboot_init_fuses
0x08025ee9 T sechsharm_sha256_final
0x08025f41 T sechsharm_sha256_init
0x08026aa9 T sechsharm_sha256_update
0x08026b89 T secmath_BIGINT_modexp
0x08026bfd T secmath_BIGINT_read_unsigned_bin
0x08026c71 T sendResponse
0x08026c79 T sendResponseFields
0x08026ded T sendXMLBuffer
0x08026eb9 T simpleStrReplace
0x08026f45 T smem_alloc
0x08027129 T smem_ext_get_smem_base
0x0802712d T smem_ext_get_smem_size
0x08027131 T smem_get_offset
0x08027185 T smem_get_phys_base_addr
0x0802719d T smem_get_size
0x080271b5 T smem_init
0x0802724d T smem_map_base_va
0x08027251 T smem_map_memory_va
0x0802725d T smem_map_smem_targ_info
0x08027279 T smem_map_spinlock_region_va
0x0802727d T smem_os_ext_get_smem_base
0x080272a1 T smem_os_ext_get_smem_size
0x080272c5 T smem_set_base_addr
0x080272e9 T smem_set_ext_mem_region
0x0802733d T smem_set_spin_lock_api
0x08027341 T smem_set_spinlock_base_addr
0x08027359 T smem_spin_lock
0x0802735b T smem_spin_lock_init
0x0802735d T smem_spin_unlock
0x08027361 T smem_version_set
0x080273c5 T storageDeviceClosePartition
0x080273db T storageDeviceErase
0x0802741d T storageDeviceExtrasCommit
0x08027445 T storageDeviceFWUpdate
0x080275f9 T storageDeviceGetExtras
0x080276d5 T storageDeviceGetPartitionSizeSectors
0x0802770d T storageDeviceGetStorageInfo
0x0802785d T storageDeviceRead
0x08027893 T storageDeviceSetBootableStorageDrive
0x080278b5 T storageDeviceSetExtras
0x08027a41 T storageDeviceWrite
0x08027a7b T storage_device_open_partition
0x08027ab9 T strcasecmp
0x08027ac1 T stringToNumber
0x08027b09 T strlcat
0x08027b5f T strlcpy
0x08027ba1 T strncasecmp
0x08027be3 T sub
0x08027c19 T uart_log
0x08027cb1 T validateXMLBuffer
0x08027e25 T writeChannel
0x08027ed1 T xmlGetAttributeName
0x08027f13 T xmlGetAttributeValue
0x08027f55 T xmlGetTag
0x08027f97 T xmlGetToken
0x08028317 T xmlInitReader
0x0802832d T xmlInitWriter
0x08028357 T xmlIsAttribute
0x0802837d T xmlIsTag
0x080283a3 T xmlWriterMarkRollbackPoint
0x080283c5 T xmlWriterRawCloseTag
0x080283d1 T xmlWriterRawCloseTagName
0x080283e1 T xmlWriterRawStartTag
0x080283ed T xmlWriterRawStartTagNoAttributes
0x080283fd T xmlWriterRawWrite
0x08028411 T xmlWriterRawWriteArgList
0x08028475 T xmlWriterRawWriteAttribute
0x0802848d T xmlWriterRawWriteAttributeValueFromBuffer
0x080284f1 T xmlWriterRawWriteFromBuffer
0x0802853b T xmlWriterReset
0x08028551 T _get_lc_ctype
0x0802857d T _get_lc_numeric
0x080285a9 T __fpl_dcheck_NaN1
0x080285b9 T __aeabi_d2uiz
0x080285b9 T _dfixu
0x08028613 T __aeabi_ui2d
0x08028613 T _dfltu
0x08028639 T __aeabi_dmul
0x08028639 T _dmul
0x0802878d T __fpl_dnaninf
0x08028829 T __fpl_dretinf
0x08028835 T _printf_fp_dec
0x08028839 T __fpl_return_NaN
0x0802889d T __ARM_scalbn
0x080288f9 T __fpl_cmpreturn
0x08028928 N __I$use$fp
0x08028928 D sbl_initial_memory_map
0x08028a08 D sbl1_addtional_memory_map
0x08028ba9 D QC_IMAGE_VERSION_STRING_AUTO_UPDATED
0x08028bd3 D IMAGE_VARIANT_STRING_AUTO_UPDATED
0x08028bf2 D OEM_IMAGE_VERSION_STRING_AUTO_UPDATED
0x08028c0f D mob_sw_rev
0x08028c30 D DALSystem_DriverInfo
0x08028c3c D smem_buf_data_tbl
0x08028c8c D Clock_I2CRegs
0x08028ed4 D Clock_SDCCRegs
0x08028f70 D DALPROP_PropBin
0x0802a180 D driver_list
0x0802a318 D DALPROP_PropsInfo
0x0802a328 D bam_tgt_config
0x0802a51c D crc30_table
0x0802a91c D crc16_table
0x0802ab1c D crc_16_l_table
0x0802ad1c D crc32_table
0x0802bc28 D DALI2C_DriverInfo
0x0802bde8 D AdcBootBsp_8953_PM8953
0x0802be00 D AdcBootBsp_8953_PM8953_PMI8950
0x0802c130 D VAdcBsp_8953_PM8953
0x0802c254 D VAdcBsp_8953_PMI8950
0x0802c2b8 D DALVAdc_DriverInfo
0x0802c2c4 D BootTempCheckBsp
0x0802c4f8 D TsensBootBsp
0x0802c54c D smem_partition_toc_entries
0x0802c62c D pbl_secx509_ext_auth_key_id
0x0802c62f D pbl_secx509_ext_sub_key_id
0x0802c632 D pbl_secx509_ext_key_usage
0x0802c635 D pbl_secx509_ext_sub_alt_name
0x0802c638 D pbl_secx509_ext_basic_constraint
0x0802c63b D pbl_secx509_ext_name_constraint
0x0802c63e D pbl_secx509_ext_policy_constraint
0x0802c641 D pbl_secx509_ext_ex_key_usage
0x0802c644 D pbl_secx509_ext_cert_policies
0x0802c647 D sha1_codehash_str
0x0802c64c D debug_string
0x0802c652 D sw_id_string
0x0802c658 D hw_id_string
0x0802c65e D sha256_codehash_str
0x0802c665 D pbl_secx509_ex_key_sauth
0x0802c66d D pbl_secx509_ex_key_cauth
0x0802c675 D pbl_secx509_ex_key_code
0x0802c67d D pbl_secx509_ex_key_email
0x0802c685 D pbl_secx509_ex_key_time
0x0802c68d D pbl_secx509_asn1_rsa
0x0802c696 D pbl_secx509_md5WithRSAEncryption
0x0802c69f D pbl_secx509_md2WithRSAEncryption
0x0802c6a8 D pbl_secx509_sha1WithRSAEncryption
0x0802c6b1 D pbl_secx509_sha256WithRSAEncryption
0x0802c6ba D pbl_secx509_ex_key_ms_sgc
0x0802c6c4 D pbl_secx509_ex_key_ns_sgc
0x0802c6cd D crash_dump_string
0x0802c6d8 D SDCCSdhciEnable
0x0802c810 D DALChipInfo_DriverInfo
0x0802c81c D DALPlatformInfo_DriverInfo
0x0802c860 D default_led
0x0802c861 D pm_periph_bitmap
0x0802c8e4 D DALTLMM_DriverInfo
0x0802cffc D __stdin_name
0x0802d000 D __stdout_name
0x0802d004 D __stderr_name
0x0802d471 D __ctype
0x0802d580 D __lcnull_start
0x0805c008 D L2_parity_error_in_sbl
0x0805c010 D page_table_is_in_ddr
0x0805c014 D sbl1_ddr_mem_block
0x0805c084 D boot_crash_dump_regs_ptr
0x0805c088 D sbl_dload_entry
0x0805c08c D boot_rollback_version_img_set_table
0x0805c1a4 D boot_rollback_version_img_set_num
0x0805c1d8 D __stack_chk_guard
0x0805c1e0 D bl_err_if
0x0805c1e8 D non_block_mode
0x0805c1ec D sbl_hash_algorithm
0x0805c1f0 D sbl_hash_len
0x0805c20c D trans_if
0x0805c230 D smem_init_done
0x0805c234 D boot_shared_imem_cookie_ptr
0x0805c388 D gDALProcessDriverModList
0x0805c3ac D num_allocated_devices
0x0805c3b4 D bams
0x0805c3b8 D bam_drv_sync
0x0805c3c8 D gbTsensInitialized
0x0805c3cc D smem_hw_mutex_base_ptr
0x0805c3d4 D smem_init_info
0x0805c3f4 D pbl_shared_global
0x0805c408 D ddr_fuse_limit
0x0805c418 D clock_apps_speed_khz
0x0805c59c D pmicArbBaseAddrs
0x0805c5a0 D DALPROP_StructPtrs
0x0805c6d0 D gDALModDriverInfoList
0x0805c6d8 D bamcore_pipe_tzprotect
0x0805c6dc D bam_tgt_config_ptr
0x0805c6e0 D bam_num_configs
0x0805c6f0 D hotplug_init_complete
0x0805c6f4 D hotplug_init_no_poll_complete
0x0805c6f8 D hotplug_crit_sect
0x0805c6fc D hotplug_total_devices
0x0805c700 D hotplug_total_physical_devices
0x0805c704 D hotplug_total_partitions
0x0805c708 D sdcc_mini_boot_device_info
0x0805c720 D Clock_SBLConfigData
0x0805d4c8 D Clock_SBL_MuxMap
0x0805d4f4 D Clock_SBL_SourceMap
0x0805d520 D BIMCPLLConfig
0x0805d786 D qusb_usb_bos_obex
0x0805d79c D qusb_desc_dev_qual
0x0805d7a6 D qusb_usb_config_obex_fs
0x0805d7c6 D qusb_usb_config_obex_hs
0x0805d7e6 D qusb_usb_config_obex_ss
0x0805dadc D dci_core_info
0x0805db10 D icbcfg_boot_data
0x0805de44 D icbcfg_boot_prop
0x0805de50 D map_ddr_regions
0x0805de60 D channel_map
0x0805de64 D bimc_hal_info
0x0805de88 D safe_reset_seg
0x0805dea8 D msm8953_all
0x0805dee0 D configs
0x0805dee4 D icbcfg_info
0x0805deec D uart_driver_props
0x0805def0 D static_uart_context
0x0805df3c D SpeedMode
0x0805df5c D hwio_init_done
0x0805df60 D sdcc_reg_base
0x0805df68 D sdcc_reg_phys
0x0805df70 D sdhc_reg_base
0x0805df78 D sdhc_reg_phys
0x0805e014 D settings_test_flag_reg
0x0805e018 D fts_range
0x0805e01c D fts_volt
0x0805e034 D fts2p5_range
0x0805e038 D fts2p5_volt
0x0805e050 D hfs_range
0x0805e054 D hfs_volt
0x0805e06c D n1200_range
0x0805e070 D n1200_volt
0x0805e094 D n600_range
0x0805e098 D n600_volt
0x0805e0bc D pmos_range
0x0805e0c0 D pmos_volt
0x0805e0fc D ln_range
0x0805e100 D ln_volt
0x0805e118 D nmos_range
0x0805e11c D nmos_volt
0x0805e140 D ult_buck_range_1
0x0805e144 D ult_buck_volt_1
0x0805e15c D ult_buck_range_2
0x0805e160 D ult_buck_volt_2
0x0805e16c D ult_pmos_range
0x0805e170 D ult_pmos_volt
0x0805e17c D ult_nmos_range
0x0805e180 D ult_nmos_volt
0x0805e18c D clk_reg
0x0805e196 D smps_reg
0x0805e1ce D ldo_reg
0x0805e206 D vs_reg
0x0805e23e D pwm_reg
0x0805e25a D wled_ctrl_reg
0x0805e2ae D wled_sink_reg
0x0805e300 D wled_reg
0x0805e308 D ibb_reg
0x0805e358 D lab_reg
0x0805e394 D clk_sleep_reg
0x0805e398 D clk_xo_reg
0x0805e39c D clk_common
0x0805e3aa D gpio_reg
0x0805e3d4 D mpp_reg
0x0805e400 D rgb_reg
0x0805e40a D lpg_reg
0x0805e436 D vib_reg
0x0805e440 D fg_batt_reg
0x0805e486 D fg_memif_reg
0x0805e4be D fg_adc_usr_reg
0x0805e50c D fg_reg
0x0805e518 D pbs_client_reg
0x0805e534 D smbchg_chgr_reg
0x0805e57c D smbchg_bat_if_reg
0x0805e5c8 D smbchg_usb_chgpth_reg
0x0805e60c D smbchg_dc_chgpth_reg
0x0805e644 D smbchg_misc_reg
0x0805e688 D smbchg_reg
0x0805e69c D coincell_reg
0x0805e6a8 D typec_reg
0x0805e6b8 D led_array
0x0805e6c4 D rgb_configs
0x0805e6dc D led_info
0x0805e6e8 D smbchg_specific_data
0x0805e730 D chg_range_data
0x0805e828 D fg_sram_data
0x0805e87c D mpp_specific
0x0805e880 D vib_specific
0x0805e884 D sbl_specific_data
0x0805e886 D pm_pbs_info_data_a
0x0805e89c D pm_pbs_info_data_b
0x0805e8b4 D pm_pbs_info_data
0x0805e8bc D pm_sbl_seq
0x08060494 D pm_pbs_seq
0x08060ca4 D uart_log_struct
0x08060eb0 D gVAdcDrvCtxt
0x08061170 D TLMM_DriverCtxt
0x08061210 D g_bIsPM8950v1_0
0x08061218 D amPartMap
0x08061350 D chipIdMap
0x08061498 D pgLowPowerConfigs
0x080614a0 D gnTotalGPIO
0x080614a4 D hNonDalProps
0x080614b0 D pgtState
0x080614bc D __aeabi_stdin
0x080614c0 D __aeabi_stdout
0x080614c4 D __aeabi_stderr
0x080614c8 D boot_err_log_ptr
0x08061530 D bl_shared_data
0x08061870 D sbl_verified_info
0x08061dc0 D spmiBusInfo
0x080620e8 D gTsensDevCtxt
0x08062100 D gTsensController
0x080621e8 D smem_ext_heap_info
0x0806230c D spmiPmicArbInfo
0x08062b18 D spmiLogBuf
0x08062b98 D hotplug_devices
0x08062c18 D hotplug_physical_devices
0x08062d74 D hotplug_partitions
0x08064370 D fh
0x08067980 D image_info
0x080679c0 D verified_info
0x08067c28 D hotplug_counter
0x08068220 D smps_phase_lut_a
0x08068790 D __stdin
0x080687e4 D __stdout
0x08068838 D __stderr
0x867000a8 D CeMLIovecTypeArray
0x86700148 D CeMLHashCipherAlgoCntxTypeBuff
