#<SYMDEFS># ARM Linker, 5.01 [Build 94]: Last Updated: Thu Aug 18 03:01:05 2016
0x00000000 N _printf_flags
0x00000000 N _printf_return_value
0x00000000 N _printf_sizespec
0x00000000 N _printf_widthprec
0x00224191 T sys_debug_busywait
0x002241b9 T sys_debug_busywait_init
0x002241d9 T sys_debug_disable
0x00224245 T sys_debug_enable_clocks
0x002242a9 T sys_debug_main_ctl
0x00224395 T sys_debug_wdt_start
0x0022441c A boot_enable_aarch64
0x00224438 A boot_generate_warm_reset
0x0022445c A boot_configure_vbar
0x00224475 T boot_hw_powerdown
0x002244bd T boot_hw_reset
0x002244f1 T boot_switch_to_aarch64
0x00224575 T BIMC_Config_sdi
0x002245ad T BIMC_DDR_Addr_Setup_sdi
0x00224709 T BIMC_Enter_Power_Collapse
0x00224789 T BIMC_Enter_Self_Refresh
0x00224825 T BIMC_Exit_Power_Collapse
0x0022487d T BIMC_Exit_Self_Refresh
0x00224961 T BIMC_Exit_Self_Refresh_sdi
0x00224a7d T BIMC_Freq_Switch_Params_Index
0x00224ab1 T BIMC_HW_Self_Refresh_Ctrl
0x00224b05 T BIMC_MR_Read
0x00224b69 T BIMC_Memory_Device_Init_Lpddr3_sdi
0x00224c7d T BIMC_Memory_Device_Init_sdi
0x00224cb5 T BIMC_Post_Clock_Switch
0x00224cdd T BIMC_Post_Init_Setup_sdi
0x00224ea9 T BIMC_Pre_Clock_Switch
0x00224f9d T BIMC_Pre_Exit_Power_Collapse
0x00225099 T BIMC_Pre_Init_Setup_sdi
0x002250e1 T BIMC_RL_WL_Freq_Index
0x00225115 T BIMC_Temp_Ctrl_Min_Freq
0x00225211 T BIMC_Wait_Timer_Setup
0x00225245 T BIMC_ZQ_Calibration
0x00225305 T BIMC_ZQ_Calibration_sdi
0x00225389 T DDRCC_dll_analog_freq_range_table_Index
0x002253c1 T DDRSS_Copy_Dram_Latency_Struct
0x002253eb T DDRSS_Copy_Frequency_Switch_Params_Struct
0x0022540d T DDRSS_Create_Ecdt_Runtime_Structs
0x00225541 T DDRSS_Post_Init
0x00225545 T DDRSS_Pre_Init
0x00225551 T DDR_CC_Pre_Clock_Switch
0x00225671 T DDR_PHY_CC_Config_sdi
0x002256bd T DDR_PHY_hal_hpcdc_enable
0x002256f3 T HAL_DDR_Enter_Power_Collapse
0x0022571b T HAL_DDR_Enter_Self_Refresh
0x00225725 T HAL_DDR_Exit_Power_Collapse
0x00225759 T HAL_DDR_Exit_Self_Refresh
0x00225765 T HAL_DDR_Get_CDT_ptr
0x00225779 T HAL_DDR_Get_DDR_Struct_Addr
0x0022578d T HAL_DDR_Get_Status_Reg_Addr
0x002257a5 T HAL_DDR_IOCTL
0x002257dd T HAL_DDR_Init_SDI
0x002258e9 T HAL_DDR_Post_Clock_Switch
0x00225a15 T HAL_DDR_Pre_Clock_Switch
0x00225aa5 T Set_config
0x00225b19 T ddr_busywait
0x00225b45 T ddr_external_get_buffer
0x00225b5d T ddr_external_get_training_log_size
0x00225b69 T ddr_external_page_to_storage
0x00225ba9 T ddr_external_set_clk_speed
0x00225bcb T ddr_external_set_ddrss_cfg_clk
0x00225bd1 T ddr_external_shared_addr
0x00225be1 T ddr_get_params
0x00225bf9 T ddr_mpm_config_ebi1_freeze_io
0x00225c1d T ddr_restore_from_wdog_reset
0x00225c65 T ddrss_lib_modulo
0x00225c9d T ddrss_lib_uidiv
0x00225ce5 T seq_wait
0x00225d1d T sys_debug_bric_settings
0x00226314 D ddrsns_share_data
0x00226318 D bimc_global0_config_sdi
0x00226320 D bimc_scmo_config_sdi
0x00226328 D bimc_dpe_config_sdi
0x00226330 D bimc_shke_config_sdi
0x00226338 D ddr_phy_dq_config_sdi
0x00226340 D ddr_phy_ca_config_sdi
0x00226348 D ddr_cc_config_sdi
0x00226358 D dll_analog_freq_range_table_size
0x00226359 D dll_analog_freq_range
0x00226360 D dll_analog_freq_range_table
0x00226374 D retimer_ref
0x0022637a D retimer_map
0x0022637d D bit_remapping_phy2bimc_DQ
0x002263a1 D bit_remapping_bimc2phy_DQ
0x002263c1 D CA01_bit_remapping_bimc2phy_CA
0x002263cb D CA01_line_remapping_bimc2phy_CA
0x002263d5 D dm_bit
0x002263d8 D dpe_config_8
0x00226408 D RL_WL_lpddr_struct
0x00226488 D bimc_freq_switch_params_struct
0x002264c8 D RL_WL_freq_range_table_size
0x002264c9 D bimc_freq_switch_params_table_size
0x002264d0 D ddr_func_tbl
0x002264f8 D ddrsns_struct
0x08006021 T _printf_n
0x08006021 T _printf_percent
0x08006027 T _printf_p
0x0800602d T _printf_f
0x08006033 T _printf_e
0x08006039 T _printf_g
0x0800603f T _printf_a
0x08006045 T _printf_ll
0x0800604f T _printf_i
0x08006055 T _printf_d
0x0800605b T _printf_u
0x08006061 T _printf_o
0x08006067 T _printf_x
0x0800606d T _printf_lli
0x08006073 T _printf_lld
0x08006079 T _printf_llu
0x0800607f T _printf_llo
0x08006085 T _printf_llx
0x0800608b T _printf_l
0x08006095 T _printf_c
0x0800609b T _printf_s
0x080060a1 T _printf_lc
0x080060a7 T _printf_ls
0x080060ad T _printf_percent_end
0x080060b1 T __rt_ctype_table
0x080060b1 T __rt_lib_init_lc_ctype_2
0x080060b1 T __rt_lib_init_lc_numeric_2
0x080060b1 T __rt_lib_init_stdio_2
0x080060b1 T __rt_lib_shutdown_stdio_2
0x080060c0 A __aeabi_uldivmod
0x080060c0 A _ll_udiv
0x080060d4 A _ll_udiv_donemoving
0x080063f1 T __aeabi_llsl
0x080063f1 T _ll_shift_l
0x08006417 T __aeabi_llsr
0x08006417 T _ll_ushift_r
0x0800643d T __c89vsnprintf
0x08006471 T __2printf
0x08006489 T __2snprintf
0x080064c1 T _printf_pre_padding
0x080064ef T _printf_post_padding
0x08006513 T _printf_str
0x08006565 T _printf_int_dec
0x080065d9 T _printf_longlong_dec
0x08006651 T _printf_longlong_hex
0x080066ad T _printf_int_hex
0x080066c9 T _printf_ll_hex
0x080066d5 T _printf_hex_ptr
0x080066ed T __printf
0x08006879 T strtoull
0x0800687d T setlocale
0x0800688d T __aeabi_assert
0x0800688d T __assert
0x0800690d T strchr
0x08006921 T strstr
0x08006945 T memcmp
0x0800699d T strrchr
0x080069b3 T strlen
0x080069ec A strncmp
0x08006adc A __aeabi_memcpy
0x08006adc A __rt_memcpy
0x08006b90 A _memcpy_lastbytes
0x08006bb0 A __aeabi_memmove
0x08006bb0 A __rt_memmove
0x08006c64 A __memmove_lastfew
0x08006c84 A __aeabi_memcpy4
0x08006c84 A __aeabi_memcpy8
0x08006c84 A __rt_memcpy_w
0x08006cd0 A _memcpy_lastbytes_aligned
0x08006ce9 T __aeabi_memset
0x08006cf9 T __aeabi_memclr
0x08006cf9 T __rt_memclr
0x08006cfd T _memset
0x08006d3d T __aeabi_memclr4
0x08006d3d T __aeabi_memclr8
0x08006d3d T __rt_memclr_w
0x08006d41 T _memset_w
0x08006d8c A strcmp
0x08006e2d T __aeabi_uread4
0x08006e2d T __rt_uread4
0x08006e43 T __aeabi_uwrite4
0x08006e43 T __rt_uwrite4
0x08006e59 T __aeabi_uread8
0x08006e59 T __rt_uread8
0x08006e87 T __aeabi_uwrite8
0x08006e87 T __rt_uwrite8
0x08006eb4 A __aeabi_idiv
0x08006eb4 A __aeabi_idivmod
0x080070e1 T __aeabi_idiv0
0x080070e5 T __aeabi_ldiv0
0x080070e9 T __rt_locale
0x080070f0 A _ll_udiv10
0x08007189 T _printf_truncate_signed
0x0800719b T _printf_truncate_unsigned
0x080071ad T _printf_int_common
0x08007265 T _printf_charcount
0x0800729b T _printf_char_common
0x080072c1 T _sputc
0x080072cb T _snputc
0x080072db T _printf_cs_common
0x080072ef T _printf_char
0x080072ff T _printf_string
0x08007309 T _printf_char_file
0x0800732d T _printf_wctomb
0x080073e9 T _printf_longlong_oct
0x08007435 T _printf_int_oct
0x0800744d T _printf_ll_oct
0x08007461 T __strtoull
0x08007577 T _setlocale_r
0x08007685 T abort
0x08007694 A __aeabi_memmove4
0x08007694 A __aeabi_memmove8
0x08007694 A __rt_memmove_w
0x080076c0 A __memmove_aligned
0x080076fc A __memmove_lastfew_aligned
0x08007714 A __rt_udiv10
0x08007741 T _sys_exit
0x0800774d T __rt_div0
0x08007759 T __aeabi_errno_addr
0x08007759 T __errno
0x08007759 T __rt_errno_addr
0x08007761 T __lib_sel_fp_printf
0x0800790f T _printf_fp_dec_real
0x08007b79 T _printf_lcs_common
0x08007b8d T _printf_wchar
0x08007b9d T _printf_wstring
0x08007ba5 T _strtoull
0x08007c65 T ferror
0x08007c6d T _initio
0x08007d3f T _terminateio
0x08007da5 T _wcrtomb
0x08007de5 T __rt_SIGABRT
0x08007ded T _sys_open
0x08007e01 T _sys_close
0x08007e0d T _sys_write
0x08007e1d T _sys_read
0x08007e2b T _sys_istty
0x08007e37 T _sys_seek
0x08007e45 T _sys_ensure
0x08007e47 T _sys_flen
0x08007e53 T __I$use$semihosting
0x08007e53 T __use_no_semihosting_swi
0x08007e55 T __semihosting_library_function
0x08007e55 T _printf_fp_infnan
0x08007ed5 T _chval
0x08007ef1 T _btod_etento
0x08007fc9 T __flsbuf
0x08007fc9 T __flsbuf_byte
0x08007fc9 T __flsbuf_wide
0x080081a9 T setvbuf
0x080081f1 T freopen
0x0800828f T fopen
0x080082dd T _fclose_internal
0x080082dd T fclose
0x08008329 T __rt_SIGFPE
0x08008331 T __rt_SIGRTRED
0x08008339 T _fseek
0x08008339 T fseek
0x08008431 T _seterr
0x08008445 T _writebuf
0x08008499 T _fflush
0x080084df T _deferredlazyseek
0x08008521 T __assert_puts
0x08008539 T _do_fflush
0x0800856f T fflush
0x0800859d T fputs
0x080085bf T _ftell_internal
0x080085bf T ftell
0x08008604 A __aeabi_uidiv
0x08008604 A __aeabi_uidivmod
0x08008634 A apt_jump
0x08008638 A apt_execute
0x08008640 A apt_get_PTptr
0x0800864c A mmu_invalidate_tlb
0x08008668 A mmu_invalidate_instruction_cache
0x08008684 A mmu_invalidate_data_cache
0x080086b4 A mmu_enable_instruction_cache
0x080086d8 A cache_mmu_disable
0x08008708 A memory_barrier
0x08008710 A cache_set_memory_barrier_location
0x0800871c A dcache_clean_all
0x080087b0 A dcache_flush_region
0x08008818 A dcache_inval_region
0x08008894 A dcache_clean_region
0x080088fc A mmu_flush_cache
0x08008920 A mmu_flush_cache_and_disable
0x080089b8 A mmu_relocate_page_table_base
0x080089f8 A mmu_get_page_table_base
0x08008a0c A mmu_set_dacr
0x08008a24 A qmemset
0x08008b21 T _btod_d2e
0x08008b5f T _d2e_denorm_low
0x08008ba5 T _d2e_norm_op1
0x08008c05 T __btod_div_common
0x08008f3d T _e2e
0x08009003 T _btod_ediv
0x0800902b T _btod_emul
0x08009053 T __btod_mult_common
0x0800929c A __blocksCopy
0x08009360 A __main
0x08009360 A _main
0x080093b4 A sbl_save_regs
0x080094a4 A sbl_loop_here
0x08009520 A boot_read_l2esr
0x0800953c A sbl1_external_abort_enable
0x08009675 T boot_ddr_params_is_training_required
0x08009679 T boot_ddr_params_get_training_data
0x0800967d T boot_ddr_params_set_training_data
0x08009681 T boot_ddr_test
0x0800976b T boot_ddr_params_is_training_on_rpm_required
0x0800976f T boot_ddr_do_ddr_training
0x08009773 T boot_ddr_remapper
0x08009777 T boot_ddr_preinit_rpm
0x080097ac A hal_sdcc_memcpy32
0x080097c8 A hal_sdcc_memcpy_read
0x080097e8 A hal_sdcc_memcpy_write
0x08009839 T AdcMapLinearInt32toInt32
0x080098cd T AuthenticateImage
0x080099a5 T BIMC_All_Periodic_Ctrl
0x08009a89 T BIMC_Auto_Refresh_Ctrl
0x08009afd T BIMC_CA_Training_Entry_Lpddr3
0x08009bc5 T BIMC_CA_Training_Exit_Lpddr3
0x08009c41 T BIMC_Config
0x08009cc1 T BIMC_DDR_Addr_Setup
0x0800a031 T BIMC_DDR_Geometry_Detection
0x0800a0bd T BIMC_DDR_Topology_Detection
0x0800a1fd T BIMC_Enter_Deep_Power_Down
0x0800a359 T BIMC_Exit_Deep_Power_Down
0x0800a3c9 T BIMC_Extended_MR_Write
0x0800a429 T BIMC_MR_Write
0x0800a48d T BIMC_Memory_Device_Init
0x0800a515 T BIMC_Memory_Device_Init_Lpddr3
0x0800a629 T BIMC_Post_Init_Setup
0x0800a7e9 T BIMC_Pre_Init_Setup
0x0800aa9d T BIMC_Send_CA_Pattern
0x0800aad1 T BIMC_Set_CA_Training_Pattern
0x0800ab41 T BootTempCheck
0x0800adc1 T CeCLIOCtlCipherRegXfer
0x0800b0d1 T CeCLIOCtlGetCipherCntx
0x0800b115 T CeCLIOCtlGetHashCipherCntx
0x0800b1bd T CeCLIOCtlGetHashCntx
0x0800b231 T CeCLIOCtlGetHashDigest
0x0800b281 T CeCLIOCtlHashCompletion
0x0800b299 T CeCLIOCtlHashRegXfer
0x0800b3b1 T CeCLIOCtlSetCipherCntx
0x0800b705 T CeCLIOCtlSetHashCipherCntx
0x0800b961 T CeCLIOCtlSetHashCntx
0x0800ba59 T CeClClockDisable
0x0800ba5d T CeClClockEnable
0x0800ba61 T CeClIOCtlCipher
0x0800bad7 T CeClIOCtlHash
0x0800bb4d T CeClIOCtlHashCipher
0x0800bb81 T CeClInit
0x0800bbb5 T CeELBamCipherXfer
0x0800bd8d T CeELBamHashCipherXfer
0x0800bed9 T CeELBamHashXfer
0x0800bffd T CeELCipherRegXfer
0x0800c02d T CeELHashRegXfer
0x0800c055 T CeElBamDeInit
0x0800c079 T CeElBamInit
0x0800c2a9 T CeElBamXferFunction
0x0800c371 T CeElCeil
0x0800c387 T CeElDeinit
0x0800c38b T CeElDisableClock
0x0800c38f T CeElEnableClock
0x0800c393 T CeElGetXferModeList
0x0800c39d T CeElGetXferfunction
0x0800c3c1 T CeElInit
0x0800c3c5 T CeElMemScpy
0x0800c3cf T CeElMemcpy
0x0800c3d9 T CeElMemoryBarrier
0x0800c3e3 T CeElMemset
0x0800c3f3 T CeElMutexEnter
0x0800c3f7 T CeElMutexExit
0x0800c3fb T CeElRegXferFunction
0x0800c495 T CeElfree
0x0800c4a1 T CeElfree_Env
0x0800c4ed T CeElmalloc
0x0800c4f9 T CeElmalloc_Env
0x0800c599 T CeMLCipherData
0x0800c7d1 T CeMLCipherDeInit
0x0800c7f7 T CeMLCipherInit
0x0800c845 T CeMLCipherSetParam
0x0800caa1 T CeMLDeInit
0x0800cab5 T CeMLHashAtomic
0x0800cba9 T CeMLHashCipherData
0x0800cdf9 T CeMLHashDeInit
0x0800ce25 T CeMLHashFinal
0x0800cf95 T CeMLHashInit
0x0800d0b1 T CeMLHashSetParam
0x0800d229 T CeMLHashUpdate
0x0800d54d T CeMLInit
0x0800d581 T CeMlHashUpdate
0x0800d681 T ChipInfo_Close
0x0800d68d T ChipInfo_DalChipInfo_Attach
0x0800d74b T ChipInfo_DeviceDeInit
0x0800d74f T ChipInfo_DeviceInit
0x0800d753 T ChipInfo_DriverDeInit
0x0800d769 T ChipInfo_DriverInit
0x0800d9c9 T ChipInfo_GetChipFamily
0x0800d9d5 T ChipInfo_GetChipId
0x0800d9e1 T ChipInfo_GetChipIdString
0x0800d9f7 T ChipInfo_GetChipVersion
0x0800da05 T ChipInfo_GetFamily
0x0800da59 T ChipInfo_GetFamilyByPart
0x0800daad T ChipInfo_GetFoundry
0x0800db15 T ChipInfo_GetFoundryId
0x0800db21 T ChipInfo_GetModemSupport
0x0800db31 T ChipInfo_GetPart
0x0800db69 T ChipInfo_GetRawChipId
0x0800db77 T ChipInfo_GetRawChipVersion
0x0800db85 T ChipInfo_GetRawPart
0x0800dbdd T ChipInfo_GetRawVersion
0x0800dc35 T ChipInfo_GetSerialNumber
0x0800dc45 T ChipInfo_GetVersion
0x0800dd05 T ChipInfo_Info
0x0800dd1d T ChipInfo_Open
0x0800dd21 T ChipInfo_PowerEvent
0x0800dd25 T Clock_APCSMuxMapToSource
0x0800dd49 T Clock_BIMCConfigFSM
0x0800ddbd T Clock_BIMCIsFSMConfigured
0x0800ddd5 T Clock_BIMCMuxMapToSource
0x0800de01 T Clock_BIMCQuery
0x0800df55 T Clock_CCIMuxMapToSource
0x0800df6d T Clock_ConfigBIMCMux
0x0800e01d T Clock_ConfigMux
0x0800e0c9 T Clock_ConfigurePLL
0x0800e235 T Clock_ConfigureSource
0x0800e2f1 T Clock_DDRSpeed
0x0800e2fd T Clock_DebugInit
0x0800e34d T Clock_DetectMuxCfg
0x0800e375 T Clock_DisablePLL
0x0800e415 T Clock_DisableUARTClock
0x0800e465 T Clock_EnablePLL
0x0800e5c5 T Clock_EnableSource
0x0800e681 T Clock_ExitBoot
0x0800e6d9 T Clock_GCCMuxMapToSource
0x0800e6fd T Clock_GetClockFrequency
0x0800e731 T Clock_I2CInit
0x0800e735 T Clock_IPAConfig
0x0800e7ed T Clock_IPAMuxMapToSource
0x0800e819 T Clock_Init
0x0800e899 T Clock_InitCrypto
0x0800e8e9 T Clock_InitForDownloadMode
0x0800e939 T Clock_InitVotes
0x0800e97d T Clock_IsPLLEnabled
0x0800e9c1 T Clock_MuxMapToSource
0x0800e9e1 T Clock_PreDDRInit
0x0800ea11 T Clock_PreDDRInitEx
0x0800ec75 T Clock_RailwayConfig
0x0800ec7d T Clock_ReplaceUSBBootClockEnable
0x0800ed11 T Clock_SBLConfig
0x0800ed19 T Clock_SDCCMuxMapToSource
0x0800ed3d T Clock_SetBIMCSpeed
0x0800eff9 T Clock_SetCCIPerfLevel
0x0800f031 T Clock_SetCPUPerfLevel
0x0800f0d1 T Clock_SetSDCClockFrequency
0x0800f0fd T Clock_SetSDCClockFrequencyExt
0x0800f1ed T Clock_SetSysPerfLevel
0x0800f2bd T Clock_SetUARTClockFrequency
0x0800f3e1 T Clock_SourceMapToAPCS
0x0800f403 T Clock_SourceMapToBIMC
0x0800f42f T Clock_SourceMapToCCI
0x0800f447 T Clock_SourceMapToGCC
0x0800f469 T Clock_SourceMapToIPA
0x0800f495 T Clock_SourceMapToMux
0x0800f4b1 T Clock_SourceMapToSDCC
0x0800f4d3 T Clock_SourceMapToUSB
0x0800f4e3 T Clock_ToggleClock
0x0800f50b T Clock_TriggerUpdate
0x0800f53d T Clock_USBMuxMapToSource
0x0800f54d T Clock_Usb30EnableSWCollapse
0x0800f569 T Clock_Usb30GetSWCollapse
0x0800f581 T DALFW_AddRef
0x0800f59d T DALFW_AttachToDevice
0x0800f621 T DALFW_AttachToStringDevice
0x0800f73f T DALFW_Release
0x0800f77d T DALGLBCTXT_AllocCtxt
0x0800f829 T DALGLBCTXT_Init
0x0800f957 T DALSYS_BusyWait
0x0800f95b T DALSYS_CacheCommand
0x0800f98d T DALSYS_DestroyObject
0x0800f991 T DALSYS_EventCreate
0x0800f9b1 T DALSYS_EventMultipleWait
0x0800f9b9 T DALSYS_Free
0x0800f9d1 T DALSYS_GetDALPropertyHandle
0x0800f9d5 T DALSYS_GetDALPropertyHandleStr
0x0800fa19 T DALSYS_GetPropDir
0x0800fa25 T DALSYS_GetPropStructPtrArray
0x0800fa31 T DALSYS_GetPropertyValue
0x0800fa35 T DALSYS_HeapInit
0x0800fa71 T DALSYS_InitMod
0x0800fa81 T DALSYS_LogEvent
0x0800faa5 T DALSYS_Malloc
0x0800fb1d T DALSYS_MemInfo
0x0800fb49 T DALSYS_MemRegionAlloc
0x0800fbb9 T DALSYS_SyncCreate
0x0800fbcd T DALSYS_SyncEnter
0x0800fbcf T DALSYS_SyncLeave
0x0800fbd1 T DALTLMMState_Init
0x0800fd15 T DALTLMMState_MacroToStruct
0x0800fd2f T DALTLMMState_StructToMacro
0x0800fd69 T DAL_DeviceAttach
0x0800fda7 T DAL_DeviceAttachEx
0x0800fdf9 T DAL_DeviceAttachLocal
0x0800fe49 T DAL_DeviceDetach
0x0800fe7d T DAL_StringDeviceObjectLookup
0x0800ff61 T DDRSS_CDC_Retimer
0x0800ffc1 T DDRSS_Get_Training_Address
0x08010015 T DDRSS_RD_CDC_Coarse_Schmoo
0x08010225 T DDRSS_RD_CDC_Fine_Schmoo
0x08010475 T DDRSS_RD_left_edge_search
0x080105d1 T DDRSS_RD_perbit_align_phase
0x08010795 T DDRSS_RD_phase_schmoo
0x08010941 T DDRSS_RD_sweep_DQS_DCC
0x08010b45 T DDRSS_WR_CDC_1D_Fine_Schmoo
0x08010dbd T DDRSS_WR_CDC_1D_Schmoo
0x08010ec9 T DDRSS_WR_CDC_Coarse_Schmoo
0x080110e9 T DDRSS_boot_training_lpddr3
0x08011715 T DDRSS_ca_training_bit_histogram_update_rise_fall
0x080119a5 T DDRSS_ca_vref_lpddr3
0x08012fa9 T DDRSS_dcc_boot
0x080135d1 T DDRSS_ddr_phy_sw_freq_switch
0x080136bd T DDRSS_dq_remapping_lpddr3
0x080136ed T DDRSS_mem_read_per_bit_phase
0x08013835 T DDRSS_mem_read_per_byte_phase
0x08013941 T DDRSS_mem_write
0x0801395d T DDRSS_passing_region_scan
0x080139d9 T DDRSS_rd_dqdqs_dcc_schmoo
0x08013c95 T DDRSS_rd_dqdqs_lpddr3
0x08014125 T DDRSS_set_training_params
0x080141b1 T DDRSS_training_restore_lpddr3
0x08014839 T DDRSS_update_CGC_optimization
0x08014899 T DDRSS_wr_dqdqs_lpddr3
0x08014d39 T DDRSS_wr_pbit_schmoo
0x08014fc1 T DDRSS_wrlvl
0x08014fd9 T DDRSS_wrlvl_ca
0x08015521 T DDRSS_wrlvl_dqs
0x08015ad9 T DDR_PHY_CC_Config
0x08015b65 T DDR_PHY_CC_init
0x08015c31 T DDR_PHY_cdcext_shift_mask
0x08015c7b T DDR_PHY_cdcext_shift_mask_reg
0x08015c85 T DDR_PHY_hal_cfg_ca_dq_retmr
0x08015cc5 T DDR_PHY_hal_cfg_cdc_mask
0x08015cfb T DDR_PHY_hal_cfg_cdc_shift
0x08015d25 T DDR_PHY_hal_cfg_cdc_slave_rd
0x08015db1 T DDR_PHY_hal_cfg_cdc_slave_wr
0x08015e49 T DDR_PHY_hal_cfg_cdc_slave_wr_cdc
0x08015ea5 T DDR_PHY_hal_cfg_cdc_slave_wrlvl
0x08015f51 T DDR_PHY_hal_cfg_cdcext_slave_rd
0x0801604d T DDR_PHY_hal_cfg_cdcext_slave_wr
0x08016149 T DDR_PHY_hal_cfg_cdcext_wrlvl_update
0x08016227 T DDR_PHY_hal_cfg_dq_ca_training_entry
0x0801629d T DDR_PHY_hal_cfg_dq_ca_training_exit
0x08016301 T DDR_PHY_hal_cfg_pbit_dq_delay
0x08016625 T DDR_PHY_hal_cfg_sw_handshake_complete
0x08016635 T DDR_PHY_hal_cfg_sw_handshake_start
0x08016685 T DDR_PHY_hal_cfg_sw_handshake_stop
0x080166bd T DDR_PHY_hal_cfg_sw_iocal
0x080166e9 T DDR_PHY_hal_cfg_wrlvl_retmr
0x080167d1 T DDR_PHY_hal_cfg_wrlvlext_ctl_update
0x08016b93 T DDR_PHY_hal_sta_ca
0x08016b9d T DDR_PHY_hal_sta_wrlvl_training
0x08016ba5 T DDR_PHY_rtn_training_dcc_io_dqs
0x08016c4d T DDR_PHY_rtn_training_dcc_t90
0x08016d11 T DDR_PHY_rtn_training_dcc_wrlvl
0x08016dbb T DDR_SYNC_INIT
0x08016dbd T DDR_SYNC_LOCK
0x08016dbf T DDR_SYNC_UNLOCK
0x08016e01 T GetPID
0x08016e41 T HAL_DDR_Boot_Training
0x08016fcd T HAL_DDR_Enter_Deep_Power_Down
0x08016fd1 T HAL_DDR_Exit_Deep_Power_Down
0x08016fd5 T HAL_DDR_Init
0x080170dd T HAL_bimc_EnableSlaveSegment
0x080170ef T HAL_bimc_GetSlaveSegment
0x08017105 T HAL_bimc_Init
0x0801710f T HAL_bimc_IsRemapSupported
0x08017119 T HAL_bimc_SetRemapSegment
0x08017127 T HAL_bimc_SetSlaveSegment
0x0801713d T HAL_sdcc_DataControl
0x08017175 T HAL_sdcc_FifoBlockRead
0x080171a9 T HAL_sdcc_FifoBlockWrite
0x080171f1 T HAL_sdcc_HCModeEnable
0x08017211 T HAL_sdcc_InitializeRegisters
0x08017259 T HAL_sdcc_SetBusWidth
0x0801728d T HAL_sdcc_SetSdCmd
0x080172e1 T HAL_sdcc_Supports8BitBus
0x080172e5 T HAL_sdcc_WaitWrActive
0x08017301 T HAL_sdhci_ADMAEnable
0x08017321 T HAL_sdhci_CdrEnable
0x08017341 T HAL_sdhci_ConfigCmDllPhase
0x080173d9 T HAL_sdhci_DLLClockEnable
0x080173f9 T HAL_sdhci_DisableDLLClock
0x08017419 T HAL_sdhci_DllCkOutEnable
0x08017431 T HAL_sdhci_DllEnable
0x08017449 T HAL_sdhci_DllMclkSet
0x08017465 T HAL_sdhci_DllPollCkOutEn
0x080174a1 T HAL_sdhci_DllPollStatusLock
0x080174d1 T HAL_sdhci_DllRstPdn
0x080174f9 T HAL_sdhci_EnableDDR50
0x08017511 T HAL_sdhci_EnableSDClk
0x0801752d T HAL_sdhci_GetCapabilities
0x08017545 T HAL_sdhci_GetInterruptStatus
0x08017555 T HAL_sdhci_GetPowerState
0x08017569 T HAL_sdhci_GetPresentState
0x08017579 T HAL_sdhci_GetResponse
0x080175d1 T HAL_sdhci_HCSelectIn
0x080175f5 T HAL_sdhci_HandlePowerInterrupts
0x0801765d T HAL_sdhci_InterruptSignalEnable
0x08017681 T HAL_sdhci_InterruptStatusEnable
0x080176c9 T HAL_sdhci_IsClkStable
0x080176dd T HAL_sdhci_PowerSave
0x08017701 T HAL_sdhci_ResetInterruptStatus
0x0801773d T HAL_sdhci_SetADMASystemAddress
0x0801774d T HAL_sdhci_SetADMASystemAddress64bit
0x0801775d T HAL_sdhci_SetBlockCount
0x0801776d T HAL_sdhci_SetBlockSize
0x0801777d T HAL_sdhci_SetBusWidth
0x080177b1 T HAL_sdhci_SetCapabilities
0x08017855 T HAL_sdhci_SetClock_10Bits_Mode
0x08017871 T HAL_sdhci_SetCmdArg
0x08017881 T HAL_sdhci_SetCommand
0x080178b1 T HAL_sdhci_SetPower
0x080178c9 T HAL_sdhci_SetTimeout
0x080178d9 T HAL_sdhci_SetTransferMode
0x08017901 T HAL_sdhci_SetUHSMode
0x08017919 T HAL_sdhci_SoftwareReset
0x08017945 T HAL_sdhci_VoltageSelect
0x0801795d T HAL_tlmm_ConfigGpio
0x080179b9 T HAL_tlmm_Init
0x080179cd T HAL_tlmm_SetPort
0x080179e9 T HAL_tlmm_WriteConfig
0x08017a01 T HAL_tlmm_WriteGpio
0x08017a3d T HAL_tsens_CalSelect
0x08017a4d T HAL_tsens_ConfigSensor
0x08017a59 T HAL_tsens_DisableInterrupt
0x08017add T HAL_tsens_EnableInterrupt
0x08017b59 T HAL_tsens_GetBaseX1
0x08017b69 T HAL_tsens_GetBaseX2
0x08017b79 T HAL_tsens_GetDisabledCPUsMask
0x08017b7d T HAL_tsens_GetMaxTemp
0x08017b85 T HAL_tsens_GetMinTemp
0x08017b8d T HAL_tsens_GetPointX1
0x08017c59 T HAL_tsens_GetSensorPrevTemp
0x08017c8d T HAL_tsens_Init
0x08017c99 T HAL_tsens_MTC_ConfigZone
0x08017cd9 T HAL_tsens_MTC_ConfigZoneSwMask
0x08017d29 T HAL_tsens_MTC_SetMargins
0x08017d5b T HAL_tsens_MTC_SetThresholds
0x08017d7f T HAL_tsens_Reset
0x08017d9d T HAL_tsens_SelectADCClkSrc
0x08017dc3 T HAL_tsens_SetAutoAdjustPeriod
0x08017de9 T HAL_tsens_SetConversionFactors
0x08017e51 T HAL_tsens_SetCpuHighLowEnable
0x08017e53 T HAL_tsens_SetCpuHighLowThreshold
0x08017e55 T HAL_tsens_SetCpuIndexes
0x08017e57 T HAL_tsens_SetMTCState
0x08017e7b T HAL_tsens_SetPSHoldResetEn
0x08017e9b T HAL_tsens_SetPWMEn
0x08017ebb T HAL_tsens_SetPeriod
0x08017ecd T HAL_tsens_SetPeriodSleep
0x08017ee3 T HAL_tsens_SetResultFormat
0x08017f09 T HAL_tsens_SetSensorID
0x08017f21 T HAL_tsens_SetSensorsEnabled
0x08017f41 T HAL_tsens_SetSidebandSensorsEnabled
0x08017f55 T HAL_tsens_SetState
0x08017f7d T HAL_tsens_SetThreshold
0x08017ff9 T HAL_tsens_TempMeasurementIsComplete
0x08018011 T HAL_tsens_UseRedundant
0x08018015 T HALuart_DisableInterrupts
0x0801802b T HALuart_GetFifoSize
0x0801803b T HALuart_GetInterruptStatus
0x08018045 T HALuart_GetStatus
0x0801804f T HALuart_GetTxFifoSize
0x08018057 T HALuart_ResetErrorStatus
0x0801805f T HALuart_ResetReceiver
0x08018067 T HALuart_ResetTransmitter
0x0801806f T HALuart_SetAutoInboundFlowCtl
0x08018081 T HALuart_SetCharFormat
0x080180a3 T HALuart_SetCmdSynchronization
0x080180b5 T HALuart_SetDivider
0x080180bb T HALuart_SetDmaEnable
0x080180d1 T HALuart_SetIrdaEnable
0x080180eb T HALuart_SetLoopback
0x08018101 T HALuart_SetOutboundFlowCtl
0x08018113 T HALuart_SetRxEnable
0x08018121 T HALuart_SetRxSCEnable
0x08018137 T HALuart_SetRxWatermark
0x08018155 T HALuart_SetStaleEvent
0x08018167 T HALuart_SetStaleTimeout
0x08018189 T HALuart_SetTxEnable
0x08018197 T HALuart_SetTxFifoSize
0x0801819f T HALuart_SetTxSCEnable
0x080181b5 T HALuart_SetTxWatermark
0x080181cb T HALuart_SetupDmaRx
0x080181cf T HALuart_WriteTxFifo
0x0801821f T I2C_DalI2C_Attach
0x08018223 T ICB_Config_Init
0x0801823d T ICB_Config_PostInit
0x08018475 T ICB_Get_Memmap
0x080184a9 T ICB_RemapEx
0x080186a1 T ICB_Segments_Init
0x0801871d T IsExternalMemReady
0x08018731 T PerformSHA256HW
0x080187a3 T PlatformInfo_CDTConfigPostDDR
0x080187cd T PlatformInfo_CDTConfigPreDDR
0x08018909 T PlatformInfo_DeviceAttach
0x08018971 T PlatformInfo_DriverInit
0x08018975 T PlatformInfo_GetKeyValue
0x080189bd T PlatformInfo_GetPlatform
0x080189cd T PlatformInfo_GetPlatformInfo
0x08018cc5 T PmicArb_AddCacheEntry
0x08018dd9 T PmicArb_ExecuteCommand
0x08018f55 T PmicArb_FindChannel
0x08018fb1 T PmicArb_GetHwStatus
0x08018fdd T PmicArb_GetMaxChannelSupport
0x08018fe3 T PmicArb_GetNumBusesSupported
0x08018fe9 T PmicArb_HasInterruptSupport
0x08018ff5 T PmicArb_Init
0x08019045 T PmicArb_InvalidateCache
0x0801909d T PmicArb_UpdateCache
0x080190e1 T PmicFgSram_PollFgSramAccess
0x08019161 T PmicFgSram_PrintState
0x08019163 T PmicFgSram_ProgBurstAccessEx
0x080192bd T PmicFgSram_ReleaseFgSramAccess
0x080192e3 T PmicFgSram_RequestFgSramAccess
0x08019311 T PmicFgSram_SetState
0x08019335 T PrngCL_getdata
0x080193dd T PrngCL_lite_deinit
0x080193e1 T PrngCL_lite_init
0x08019413 T PrngEL_ClkDisable
0x08019417 T PrngEL_ClkEnable
0x0801941b T PrngML_getdata_lite
0x08019441 T Scale_ca_dqdqs_lpddr3
0x08019651 T Scale_rd_dqdqs_lpddr3
0x08019811 T Scale_wr_dqdqs_lpddr3
0x08019a51 T SpmiBusCfg_ConfigureChannel
0x08019ab9 T SpmiBusCfg_ConfigureChannels
0x08019add T SpmiBusCfg_InDynamicChannelMode
0x08019ae9 T SpmiBusCfg_Init
0x08019b35 T SpmiBusCfg_SetDynamicChannelMode
0x08019b7d T SpmiBus_DeInit
0x08019bf5 T SpmiBus_Init
0x08019c49 T SpmiBus_ReadLong
0x08019c69 T SpmiBus_WriteLong
0x08019c89 T SpmiHal_Init
0x08019ca9 T SpmiMaster_ConfigHW
0x08019e69 T SpmiMaster_LoadFirmware
0x08019f91 T SpmiMaster_LoadRadixTree
0x0801a02d T SpmiOsNhlos_GetDalProp
0x0801a0c9 T SpmiOs_Free
0x0801a0cd T SpmiOs_GetAhbClkState
0x0801a105 T SpmiOs_GetOwnerId
0x0801a129 T SpmiOs_GetPmicArbBaseAddr
0x0801a1bd T SpmiOs_GetReservedChannels
0x0801a1f5 T SpmiOs_GetSerialClkState
0x0801a22d T SpmiOs_GetTimeTick
0x0801a233 T SpmiOs_HandleTransactionError
0x0801a289 T SpmiOs_Malloc
0x0801a28d T SpmiOs_RegisterISR
0x0801a291 T SpmiOs_Wait
0x0801a295 T System_DalSystem_Attach
0x0801a29d T TLMM_Close
0x0801a2a1 T TLMM_ConfigGpio
0x0801a2b5 T TLMM_ConfigGpioGroup
0x0801a391 T TLMM_DalTlmm_Attach
0x0801a43d T TLMM_DeviceDeInit
0x0801a455 T TLMM_DeviceInit
0x0801a699 T TLMM_DriverDeInit
0x0801a69d T TLMM_DriverInit
0x0801a6a1 T TLMM_GpioOut
0x0801a6af T TLMM_Info
0x0801a6c9 T TLMM_Open
0x0801a6cd T TLMM_PostInit
0x0801a725 T TLMM_PowerEvent
0x0801a729 T TLMM_SetInactiveConfig
0x0801a76d T TLMM_SetPort
0x0801a7d1 T Tlmm_ConfigGpioGroup
0x0801a8f5 T Tlmm_Init
0x0801ab39 T Tsens_GetTemp
0x0801ac51 T Tsens_Init
0x0801af71 T Uart_busy_wait
0x0801af75 T Uart_clock_close
0x0801afc1 T Uart_clock_open
0x0801b045 T Uart_deinit
0x0801b0cd T Uart_get_driver_properties
0x0801b135 T Uart_get_properties
0x0801b235 T Uart_init
0x0801b349 T Uart_tlmm_close
0x0801b3ad T Uart_tlmm_open
0x0801b42b T Uart_transmit
0x0801b4a5 T VAdcHalGetConversionCode
0x0801b4f9 T VAdcHalGetRevisionInfo
0x0801b565 T VAdcHalGetStatus
0x0801b5f9 T VAdcHalRequestConversion
0x0801b631 T VAdcHalSetConversionParameters
0x0801b6d9 T VAdcHalSetEnable
0x0801b719 T VAdcHalSetOpMode
0x0801b759 T VAdcHalSetSequencerParameters
0x0801b7c5 T VAdcHalStoreFabID
0x0801b841 T VAdcScalePmicTherm
0x0801b855 T VAdcScaleTdkNTCGTherm
0x0801b893 T VAdc_Calibrate
0x0801b9bd T VAdc_Close
0x0801b9e5 T VAdc_DalAdcDevice_Attach
0x0801bae3 T VAdc_DeviceDeInit
0x0801bb05 T VAdc_DeviceInit
0x0801bc99 T VAdc_DriverDeInit
0x0801bc9d T VAdc_DriverInit
0x0801bca1 T VAdc_GetChannel
0x0801bced T VAdc_GetChannelStatus
0x0801bcf3 T VAdc_GetDeviceProperties
0x0801bcff T VAdc_Info
0x0801bd19 T VAdc_Open
0x0801bd39 T VAdc_PowerEvent
0x0801bf63 T VAdc_ReadChannelSync
0x0801bfb3 T VAdc_RecalibrateChannel
0x0801bfb9 T VAdc_RecalibrateChannelSync
0x0801c061 T VAdc_ScaleResult
0x0801c0c5 T VAdc_ScaleResultAbsolute
0x0801c11d T VAdc_StartConversion
0x0801c3d1 T _DALSYS_GetDALPropertyHandle
0x0801c415 T _DALSYS_GetPropertyValue
0x0801c4d3 T _DALSYS_memscpy
0x0801c75f T __ARM_fpclassify
0x0801c789 T __rt_raise
0x0801c7b5 T __stack_chk_fail
0x0801c7b7 T _is_digit
0x0801c7c5 T add
0x0801c9d1 T adjust_channel
0x0801cb8b T adjust_memory_map
0x0801ccfd T apply_dbg_policy
0x0801cf31 T apt_test
0x0801d0af T auth_image_against_debug_policy
0x0801d221 T authenticateSignedHash
0x0801d33d T bByteCompare
0x0801d36d T bLoad8
0x0801d381 T bStor8
0x0801d3a5 T bam_drv_init
0x0801d3cd T bam_init
0x0801d74d T bam_isr
0x0801d789 T bam_osal_cachecmd
0x0801d7a1 T bam_osal_free
0x0801d7a5 T bam_osal_freememregion
0x0801d7b5 T bam_osal_init
0x0801d7b7 T bam_osal_isrinstall
0x0801d7bb T bam_osal_malloc
0x0801d7cd T bam_osal_mallocmemregion
0x0801d825 T bam_osal_memorybarrier
0x0801d829 T bam_osal_syncenter
0x0801d82b T bam_osal_syncinit
0x0801d82f T bam_osal_syncleave
0x0801d831 T bam_pipe_disable
0x0801d887 T bam_pipe_enable
0x0801d901 T bam_pipe_eot_handler
0x0801dab3 T bam_pipe_init
0x0801dc1f T bam_pipe_poll
0x0801dc8b T bam_pipe_setirqmode
0x0801dce3 T bam_pipe_transfer
0x0801dd3d T bam_secure_init
0x0801dd85 T bam_tgt_getcfg
0x0801ddc9 T bam_tgt_getnumdevs
0x0801de05 T bamcore_bam_enabled
0x0801de67 T bamcore_check
0x0801df91 T bamcore_getirqmode
0x0801df97 T bamcore_init
0x0801e01f T bamcore_lpae_supported
0x0801e025 T bamcore_pipe_deinit
0x0801e071 T bamcore_pipe_get_toggle
0x0801e08d T bamcore_pipe_getandclearirqstatus
0x0801e0bd T bamcore_pipe_getdescreadoffset
0x0801e0d1 T bamcore_pipe_init
0x0801e1e9 T bamcore_pipe_nwd_done
0x0801e209 T bamcore_pipe_secure_init
0x0801e2d1 T bamcore_pipe_setdescwriteoffset
0x0801e2e5 T bamcore_pipe_setirqmode
0x0801e371 T bamcore_pipe_setlockgroup
0x0801e38d T bamcore_secure_init
0x0801e3ed T bamcore_secure_set_sg
0x0801e475 T bamcore_setirqmode
0x0801e4bb T bamdev_read_reg
0x0801e4cb T bamdev_write_reg
0x0801e4d1 T bamdev_write_reg_field
0x0801e4e5 T bami_pipe_transfer_no_lock
0x0801e5d5 T bimc_EnableSlaveSegment
0x0801e605 T bimc_GetSlaveSegment
0x0801e731 T bimc_Init
0x0801e761 T bimc_IsRemapSupported
0x0801e771 T bimc_SetRemapSegment
0x0801e8b9 T bimc_SetSlaveSegment
0x0801e9a9 T bimc_set_config
0x0801ea79 T blockdev_close
0x0801eaad T blockdev_devnull_get_ops
0x0801eb6d T blockdev_driver_get_total_devices
0x0801eb71 T blockdev_find_by_type
0x0801ebb1 T blockdev_get_device_info
0x0801ebcd T blockdev_get_device_size
0x0801ebf5 T blockdev_get_entire_device_id
0x0801ec0d T blockdev_get_name
0x0801ec25 T blockdev_get_type
0x0801ec3d T blockdev_init
0x0801ec71 T blockdev_is_embedded_device
0x0801ec8d T blockdev_is_present
0x0801eca9 T blockdev_open
0x0801ecc5 T blockdev_read
0x0801ed09 T blockdev_reset
0x0801ed69 T blockdev_sd_device_data_init
0x0801edf1 T blockdev_sd_get_device_data
0x0801ef7d T blockdev_sd_get_ops
0x0801f2fd T blockdev_write
0x0801f341 T boot_BootTempCheck
0x0801f345 T boot_CeMLDeInit
0x0801f349 T boot_CeMLHashDeInit
0x0801f34d T boot_CeMLHashFinal
0x0801f351 T boot_CeMLHashInit
0x0801f355 T boot_CeMLHashUpdate
0x0801f365 T boot_CeMLInit
0x0801f369 T boot_DALSYS_HeapInit
0x0801f36d T boot_DALSYS_InitMod
0x0801f371 T boot_DAL_DeviceAttachEx
0x0801f375 T boot_DAL_DeviceDetach
0x0801f379 T boot_DalPlatformInfo_CDTConfigPostDDR
0x0801f37f T boot_DalPlatformInfo_CDTConfigPreDDR
0x0801f385 T boot_ICB_Config_Init
0x0801f389 T boot_ICB_Config_PostInit
0x0801f38d T boot_ICB_RemapEx
0x0801f391 T boot_ICB_Segments_Init
0x0801f395 T boot_PrngML_getdata_lite
0x0801f399 T boot_Tsens_Init
0x0801f39d T boot_apt_test
0x0801f3a1 T boot_auth_compute_verify_hash
0x0801f3f5 T boot_auth_image_hashtable
0x0801f401 T boot_bam_drv_init
0x0801f405 T boot_busywait
0x0801f409 T boot_busywait_init
0x0801f40d T boot_cache_set_memory_barrier
0x0801f445 T boot_check_device_temp
0x0801f4c1 T boot_clobber_add_global_protection_region
0x0801f559 T boot_clobber_add_local_hole
0x0801f5cd T boot_clobber_check_global_address_range
0x0801f645 T boot_clobber_check_global_whitelist_range
0x0801f6cd T boot_clobber_check_local_address_range
0x0801f75d T boot_clobber_import_whitelist_table
0x0801f769 T boot_clobber_local_init
0x0801f775 T boot_clobber_remove_local_hole
0x0801f7dd T boot_clock_SetUARTClockFrequency
0x0801f7e1 T boot_clock_debug_init
0x0801f7e5 T boot_clock_disable_UARTClock
0x0801f7e9 T boot_clock_exit_boot
0x0801f7ed T boot_clock_get_apps_speed
0x0801f7fd T boot_clock_get_ddr_speed
0x0801f801 T boot_clock_init
0x0801f809 T boot_clock_set_bimcspeed
0x0801f84d T boot_config_data_table_init
0x0801f90d T boot_config_process_bl
0x0801fbfd T boot_cpr_init
0x0801fc01 T boot_data_abort_c_handler
0x0801fc25 T boot_ddr_get_info
0x0801fc29 T boot_ddr_get_partition
0x0801fc2d T boot_ddr_get_size
0x0801fc31 T boot_ddr_initialize_device
0x0801fc35 T boot_ddr_post_init
0x0801fc39 T boot_ddr_set_params
0x0801fc3d T boot_dload_check
0x0801fcc5 T boot_dload_clock_init
0x0801fd61 T boot_dload_dump_security_regions
0x0801fd89 T boot_dload_entry
0x0801fdad T boot_dload_is_dload_mode_set
0x0801fe25 T boot_dload_set_cookie
0x0801fe35 T boot_dload_transition_enter_sahara
0x0801fe79 T boot_dload_transition_pbl_forced_dload
0x0801fe99 T boot_do_procedures
0x0801fedd T boot_efs_handle_cookies
0x08020095 T boot_elf_load_init_hash_segment
0x080207bd T boot_elf_set_auth_and_ssa_enable
0x080207e5 T boot_elf_verify_image_header
0x08020951 T boot_elf_ziinit_structures
0x080209bd T boot_enable_led
0x080209cf T boot_err_fatal
0x080209d5 T boot_error_handler
0x08020b05 T boot_fiq_c_handler
0x08020b31 T boot_flash_dev_default_stub
0x08020b35 T boot_flash_dev_if_get_singleton
0x08020b71 T boot_flash_dev_if_lock_singleton
0x08020bad T boot_flash_dev_if_register_singleton
0x08020be9 T boot_flash_dev_sdcc_if_get_singleton
0x08020c2d T boot_flash_dev_sdcc_if_register_singleton
0x08020c71 T boot_flash_dev_sdcc_init_and_register
0x08020cdd T boot_flash_init
0x08020d2d T boot_flash_target_init
0x08020e55 T boot_flash_trans_sdcc_factory_init
0x08020fb9 T boot_get_config_data_block
0x08021075 T boot_get_ddr_info
0x080210b5 T boot_get_delta_time
0x080210d5 T boot_get_elf_eident_class
0x080210e1 T boot_get_elf_entry_address
0x08021105 T boot_get_hash_segment_buffer
0x0802110d T boot_get_hash_table_auth_result
0x08021119 T boot_get_sbl_auth_verified_info
0x08021121 T boot_get_time
0x08021165 T boot_gpio_init
0x08021195 T boot_hand_control_to_deviceprogrammer_ddr_main
0x0802119d T boot_hash
0x080211d1 T boot_hashFinal
0x08021261 T boot_hashInit
0x080212c1 T boot_hashUpdate
0x08021301 T boot_hotplug_close_device
0x08021305 T boot_hotplug_dev_get_size
0x08021309 T boot_hotplug_dev_read
0x0802130d T boot_hotplug_dev_write
0x08021311 T boot_hotplug_init
0x08021315 T boot_hotplug_open_device_by_gpt_partition_type
0x08021319 T boot_hotplug_open_device_by_partition_type
0x0802131d T boot_hotplug_poll_device
0x08021321 T boot_image_populate_uuid
0x08021325 T boot_image_version_initialize_version_table
0x08021329 T boot_image_version_populate_version
0x0802132d T boot_init_for_dload
0x08021331 T boot_init_stack_chk_canary
0x08021375 T boot_init_timer
0x080213e5 T boot_irq_c_handler
0x08021411 T boot_is_auth_enabled
0x0802142d T boot_is_ddr_initialized
0x08021439 T boot_l2_page_table_init
0x08021505 T boot_load_elf_image
0x08021525 T boot_log_apps_frequency
0x08021589 T boot_log_boot_config_register
0x080215e1 T boot_log_copy_ram
0x08021665 T boot_log_ddr_frequency
0x080216c5 T boot_log_deinit_uart
0x080216d1 T boot_log_delta_time
0x080216d7 T boot_log_delta_time_optional_data
0x080216ff T boot_log_dump
0x08021701 T boot_log_forever_loop_check
0x08021719 T boot_log_get_meta_info
0x08021725 T boot_log_get_time
0x08021729 T boot_log_image_version
0x080217a5 T boot_log_init
0x080217cd T boot_log_init_ram
0x08021831 T boot_log_init_uart
0x0802183d T boot_log_message
0x08021843 T boot_log_message_optional_data
0x0802186d T boot_log_message_ram
0x08021921 T boot_log_message_raw
0x08021949 T boot_log_message_uart
0x08021ad5 T boot_log_relocate
0x08021af9 T boot_log_set_meta_info
0x08021b05 T boot_log_set_ref_time
0x08021b15 T boot_log_start_timer
0x08021b19 T boot_log_stop_timer
0x08021b1f T boot_log_stop_timer_optional_data
0x08021bd1 T boot_mmu_copy_page_table
0x08021c65 T boot_mmu_page_table_map_mem_block_list
0x08021ce9 T boot_mmu_page_table_map_single_mem_block
0x08021d2d T boot_nested_exception_c_handler
0x08021d31 T boot_pbl_get_flash_shared_data
0x08021d69 T boot_pbl_get_flash_type
0x08021da1 T boot_pbl_interface_init
0x08021dbd T boot_pbl_is_auth_enabled
0x08021dd9 T boot_pbl_log_milestones
0x08021e35 T boot_pm_dev_get_power_on_reason
0x08021e3b T boot_pm_device_init
0x08021e3f T boot_pm_driver_init
0x08021e43 T boot_pm_enable_led
0x08021e6d T boot_pm_init_smem
0x08021e71 T boot_pm_pon_ps_hold_cfg
0x08021e75 T boot_pm_pon_warm_reset_status
0x08021e7b T boot_pm_pon_warm_reset_status_clear
0x08021e81 T boot_pm_rtc_get_time
0x08021e85 T boot_pm_sbl_chg_init
0x08021edd T boot_pm_smps_sw_mode
0x08021ee1 T boot_populate_cpr_settings
0x08021ee5 T boot_populate_ram_partition_table
0x08021f5d T boot_populate_sbl_info
0x08021fe7 T boot_pre_ddr_clock_init
0x08021feb T boot_pre_i2c_clock_init
0x08021ff1 T boot_prefetch_abort_c_handler
0x08022205 T boot_qsee_is_memory_dump_allowed
0x08022209 T boot_qsee_is_retail_unlocked
0x0802220d T boot_qsee_zero_peripheral_memory
0x08022211 T boot_query_bimc_clock
0x08022215 T boot_qusb_al_bulk_init
0x08022219 T boot_rail_id
0x0802221d T boot_railway_init
0x08022221 T boot_railway_setting_checksum
0x08022225 T boot_ram_dump_header_init
0x080222f9 T boot_ram_dump_to_raw_parition
0x08022379 T boot_ram_init
0x080223d5 T boot_rbcpr_cx_mx_settings_checksum
0x080223e1 T boot_reserved_c_handler
0x08022459 T boot_rollback_init_img_set_table
0x080224b5 T boot_rollback_update_img_version
0x080224e9 T boot_sahara_elf_segment_is_loadable
0x08022579 T boot_sahara_entry
0x080225cd T boot_sahara_get_elf_eident_class
0x080225d1 T boot_sahara_get_elf_entry_address
0x08023809 T boot_sahara_set_is_ssa_enabled
0x08023991 T boot_save_reset_register_log
0x08023993 T boot_sbl_qsee_interface_get_eident
0x080239bd T boot_sbl_qsee_interface_get_entry_point
0x080239e7 T boot_sbl_qsee_interface_get_image_entry
0x08023a05 T boot_sdcc_boot_set_device_info
0x08023a09 T boot_sec_img_auth_get_dpo_size
0x08023a0d T boot_sec_img_auth_hash_elf_segments
0x08023a29 T boot_sec_img_auth_is_dp_disable
0x08023a2d T boot_sec_img_auth_is_valid_segment
0x08023a31 T boot_sec_img_auth_validate_elf
0x08023a35 T boot_sec_img_auth_verify_metadata
0x08023a5d T boot_secboot_ftbl_init
0x08023a81 T boot_secboot_get_ftbl
0x08023a85 T boot_secboot_hw_get_ftbl
0x08023a89 T boot_secure_watchdog_init
0x08023bb1 T boot_set_ddr_info
0x08023c09 T boot_set_hash_algo
0x08023c31 T boot_set_hash_table_auth_result
0x08023c3d T boot_set_sdcc_boot_device_info
0x08023d35 T boot_share_extended_ddr_info
0x08023fd1 T boot_share_flash_data
0x08023fd5 T boot_shared_imem_init
0x08024001 T boot_smem_alloc
0x08024005 T boot_smem_boot_debug_init
0x08024009 T boot_smem_boot_init
0x0802400d T boot_smem_debug_init
0x08024011 T boot_smem_init
0x08024071 T boot_smem_init_get_status
0x0802407d T boot_smem_store_pon_status
0x080240a9 T boot_start_timer
0x080240c1 T boot_statistics_auth_read_start
0x080240d1 T boot_statistics_auth_read_stop
0x080240f5 T boot_statistics_flash_read_start
0x08024105 T boot_statistics_flash_read_stop
0x08024135 T boot_statistics_get_flash_byte_counter
0x08024155 T boot_statistics_log_flash
0x080241f1 T boot_statistics_reset_flash_byte_counter
0x080241fd T boot_stop_timer
0x08024241 T boot_store_tpm_hash_block
0x0802436d T boot_strlen
0x08024385 T boot_swi_c_handler
0x080243b1 T boot_toggle_led
0x080243e5 T boot_toggle_led_init
0x080243f5 T boot_uart_deinit
0x080243f9 T boot_uart_init
0x080243fd T boot_uart_tx
0x08024401 T boot_undefined_instruction_c_handler
0x0802442d T boot_update_config_data_table
0x0802468d T boot_update_section_header_table_by_index
0x08024771 T boot_usb_al_bulk_get_max_packet_size
0x08024775 T boot_usb_al_bulk_get_max_raw_data_size
0x08024779 T boot_usb_al_bulk_poll
0x0802477d T boot_usb_al_bulk_receive
0x08024781 T boot_usb_al_bulk_shutdown
0x08024785 T boot_usb_al_bulk_transmit
0x08024789 T boot_usb_al_check_for_pbl_dload
0x0802478d T boot_usb_al_hs_phy_nondrive_mode_set
0x08024791 T booting_from_storage_media
0x080247b1 T bsp_target_poweroff
0x080247c9 T bsp_target_reset
0x080247e1 T busywait
0x08024815 T busywait_init
0x080248a5 T calc_crc16_wrapper
0x080248ed T calc_crc32
0x08024a15 T check_fec_error
0x08024c19 T compare
0x08024c3f T compress_regions
0x08025341 T configure_remaps
0x08025471 T convert_ddr_regions
0x08025511 T copy_debug_policy
0x08025589 T count_leading_zeroes
0x0802559d T count_set_bits
0x080255fd T count_trailing_zeroes
0x0802562b T cpr_controller_init
0x08025669 T cpr_get_mode_idx_0
0x08025695 T cpr_get_rail
0x080256b5 T cpr_get_rail_idx
0x080256cb T cpr_get_supported_modes
0x080256f1 T cpr_get_versioned_voltage_plan
0x08025711 T cpr_get_voltage
0x08025731 T cpr_hal_ack_result
0x08025745 T cpr_hal_bypass_sensors
0x080257a5 T cpr_hal_clear_interrupts
0x080257bd T cpr_hal_configure_controller
0x08025811 T cpr_hal_disable_rail
0x08025865 T cpr_hal_enable_down_interrupt
0x0802587f T cpr_hal_enable_rail
0x08025911 T cpr_hal_enable_up_interrupt
0x0802592b T cpr_hal_get_results
0x080259ad T cpr_hal_init_rail_hw
0x08025a55 T cpr_hal_mask_sensors
0x08025ab5 T cpr_hal_set_targets
0x08025b21 T cpr_hal_start_poll
0x08025b31 T cpr_hal_stop_poll
0x08025b35 T cpr_hal_write_temp_margin_init_registers
0x08025c65 T cpr_image_close_remote_cfg
0x08025c67 T cpr_image_disable_measurements
0x08025cd1 T cpr_image_enable_clock
0x08025d2d T cpr_image_enable_measurements
0x08025d31 T cpr_image_get_chip_version
0x08025d85 T cpr_image_get_foundry
0x08025d89 T cpr_image_malloc
0x08025dc1 T cpr_image_memscpy
0x08025dcd T cpr_image_open_remote_cfg
0x08025e19 T cpr_image_rail_transition_voltage
0x08025e25 T cpr_image_set_rail_mode
0x08025ecd T cpr_image_set_rail_mode_voltage
0x08025f45 T cpr_image_wait
0x08025f49 T cpr_init
0x08025fc5 T cpr_measurements_settle
0x080260f5 T cpr_rail_init
0x08026315 T cpr_rail_process_results
0x080263f5 T cpr_rail_set_initial_voltages
0x080266c9 T cpr_rail_update_target_quotients
0x0802680d T cpr_smem_serialize_config
0x0802699d T cpr_utils_decode_fuse_value
0x08026a59 T cpr_utils_get_margins
0x08026aa1 T cpr_utils_get_mode_settings
0x08026b51 T cpr_utils_set_active_mode_setting
0x08026b85 T crc_16_step
0x08026bd5 T crc_32_calc
0x08026e9d T ddr_cc_set_config
0x08026ef5 T ddr_do_phy_training
0x080270b1 T ddr_enter_deep_power_down
0x080270bd T ddr_enter_self_refresh
0x080270c9 T ddr_exit_deep_power_down
0x080270d5 T ddr_exit_self_refresh
0x080270e1 T ddr_get_info
0x08027131 T ddr_get_partition
0x080271a5 T ddr_get_shared_header
0x080271b1 T ddr_get_size
0x08027205 T ddr_get_training_checksum
0x08027271 T ddr_init
0x080272b9 T ddr_initialize_device
0x08027391 T ddr_is_training_required
0x080274bd T ddr_mem_copy
0x080274d9 T ddr_param_interleaved
0x080274e5 T ddr_params_get_training_data
0x080274f9 T ddr_params_is_training_on_rpm_required
0x080274fd T ddr_params_is_training_required
0x08027501 T ddr_params_set_shared_memory
0x08027505 T ddr_params_set_training_data
0x08027531 T ddr_phy_ca0_set_config
0x080275a1 T ddr_phy_ca1_set_config
0x080275f9 T ddr_phy_dq_set_config
0x08027651 T ddr_post_clock_switch
0x08027665 T ddr_post_init
0x08027799 T ddr_pre_clock_switch
0x080277ad T ddr_pre_setup_forDSF
0x080277cd T ddr_preinit_rpm
0x0802788d T ddr_printf
0x080278b5 T ddr_remapper
0x08027a45 T ddr_set_params
0x08027b01 T ddr_set_training_checksum
0x08027b65 T ddr_target_init
0x08027c21 T ddr_test
0x08027ec9 T ddr_test_all
0x080283bd T ddr_test_exit
0x08028801 T ddr_update_info
0x080288d1 T ddr_update_size
0x080289f1 T ddrsns_enter_deep_power_down
0x08028a6d T ddrsns_enter_self_refresh
0x08028ae9 T ddrsns_exit_deep_power_down
0x08028b69 T ddrsns_exit_self_refresh
0x08028ea9 T debugMessage
0x08028ee9 T debug_policy_override_jtag
0x08028fa1 T delaySeconds
0x08029185 T dev_sdcc_read_bytes
0x08029329 T dev_sdcc_write_bytes
0x080294e9 T deviceprogrammer_entry
0x080294fd T deviceprogrammer_init_hw
0x0802963d T deviceprogrammer_zi_buffers
0x08029921 T dload_debug_add_region
0x08029999 T dload_mem_debug_filename
0x080299c1 T dload_mem_debug_init
0x08029b25 T dload_mem_debug_is_device_retail_unlocked
0x08029b35 T dload_mem_debug_is_restricted_addr
0x08029bbd T dload_mem_debug_len
0x08029c21 T dload_mem_debug_len_init
0x08029c2d T dload_mem_debug_mem_base
0x08029c55 T dload_mem_debug_mem_length
0x08029c7d T dload_mem_debug_num_ent
0x08029c89 T dload_mem_debug_supported
0x08029ced T dload_mem_debug_table_addr
0x08029cf5 T dload_mem_debug_target_init
0x08029e15 T dload_mem_debug_verify_addr
0x08029e9d T dload_mem_debug_zero_peripheral_memory
0x08029ed9 T efs_handle_cookies
0x08029ff5 T find_bn_MSB1
0x0802a0b5 T firehoseResetValidation
0x0802a1db T fputc
0x0802a1f5 T free
0x0802a1f9 T fs_cookie_get_handle_for_ram
0x0802a255 T fs_cookie_init
0x0802a2cd T fs_cookie_iter_close
0x0802a2e1 T fs_cookie_iter_get_next
0x0802a319 T fs_cookie_iter_open
0x0802a441 T fs_cookie_release_handle
0x0802a495 T fs_cookie_remove_all_cookies
0x0802a4e9 T fs_memscpy
0x0802a981 T fs_rmts_cookie_is_golden_copy_present
0x0802aae1 T getNextPacket
0x0802aafd T get_ca_exp_pattern_lpddr3
0x0802ab8d T get_dbg_policy
0x0802aba5 T get_device_configuration
0x0802ad05 T get_hotplug_dev_handle
0x0802ae59 T get_largest_valid_size
0x0802ae89 T get_minimum_segment_count
0x0802af35 T get_partition_category
0x0802b023 T get_simple_segment_count
0x0802b097 T get_system_memory_map
0x0802b3bf T get_time
0x0802b759 T handleBenchmark
0x0802bb4d T handleConfigure
0x0802c055 T handleErase
0x0802c1b9 T handleFirmwareProgram
0x0802c56d T handleGetDigest
0x0802ca91 T handleGetStorageInfo
0x0802cbbd T handleNop
0x0802cbc9 T handlePatch
0x0802d20d T handlePeek
0x0802d405 T handlePoke
0x0802d65d T handlePower
0x0802d799 T handleProgram
0x0802df19 T handleRead
0x0802e361 T handleSetBootableStorageDrive
0x0802e4cd T handleStorageExtras
0x0802f035 T hotplug_add_hdev_to_phy_hdev
0x0802f0e5 T hotplug_add_partition
0x0802f101 T hotplug_change_physical_dev_state
0x0802f235 T hotplug_close_device
0x0802f271 T hotplug_close_device_by_handle
0x0802f2e5 T hotplug_close_device_by_image_type
0x0802f379 T hotplug_counters_init
0x0802f38d T hotplug_counters_update
0x0802f3c1 T hotplug_dev_get_device_info
0x0802f42f T hotplug_dev_get_size
0x0802f459 T hotplug_dev_read
0x0802f49d T hotplug_dev_write
0x0802f4e1 T hotplug_discover_device
0x0802f581 T hotplug_fat_parse_check
0x0802f595 T hotplug_find_partition
0x0802f609 T hotplug_find_physical_device
0x0802f669 T hotplug_get_partition_size_by_image_id
0x0802f705 T hotplug_gpt_parse_close
0x0802f711 T hotplug_gpt_parse_open
0x0802f765 T hotplug_gpt_parse_read
0x0802f791 T hotplug_hdev_alloc
0x0802f7d5 T hotplug_hdev_free
0x0802f851 T hotplug_init_no_poll
0x0802f8a1 T hotplug_init_partitions
0x0802f975 T hotplug_is_gpt_data_partition
0x0802f999 T hotplug_is_it_a_fat_partition
0x0802f9bd T hotplug_is_mbr_fat_partition
0x0802f9eb T hotplug_is_valid_hdev
0x0802fa0d T hotplug_is_valid_hdev_for_read_write
0x0802fa53 T hotplug_is_valid_parti
0x0802fa69 T hotplug_is_valid_physical_hdev
0x0802fad9 T hotplug_iter_close
0x0802faf1 T hotplug_iter_get_next
0x0802fd7d T hotplug_iter_init
0x0802fd89 T hotplug_iter_open
0x0802fda7 T hotplug_mbr_check_extended
0x0802fe0d T hotplug_mbr_parse_close
0x0802fe19 T hotplug_mbr_parse_open
0x0802fe3d T hotplug_mbr_read_extended
0x0802fee1 T hotplug_mbr_read_primary
0x0802ff59 T hotplug_open_device
0x0803001b T hotplug_open_device_by_gpt_partition_type
0x08030071 T hotplug_open_device_by_partition_type
0x080300b9 T hotplug_partition_alloc
0x08030105 T hotplug_partition_ref
0x08030149 T hotplug_partition_unref
0x080301b9 T hotplug_poll_before_mounting_root_helper
0x08030259 T hotplug_poll_device
0x08030385 T hotplug_pparser_cache_init
0x08030401 T hotplug_remove_hdev_from_phy_hdev
0x0803042d T hotplug_set_general_partition_id
0x0803046d T hotplug_task_discover_device
0x08030579 T hotplug_validate_physical_hdev
0x080305a9 T image_uuid
0x080305c9 T image_version_initialize_version_table
0x080305e5 T image_version_populate_version
0x08030761 T initFirehoseProtocol
0x08030825 T initFirehoseStorage
0x08030831 T initFirehoseTransport
0x080308ab T init_storage_device_hw
0x0803090f T init_storage_device_struct
0x080309a5 T inverse32
0x080309cd T isAuthenticationEnabled
0x08030a0d T isValidationMode
0x08030a19 T is_dbg_policy_bound
0x08030aa9 T is_dbg_policy_rot_for_image
0x08030ad5 T is_dbg_policy_valid
0x08030b81 T is_debug_policy_disable_fuse_bit_set
0x08030b91 T is_debug_policy_flag_set
0x08030be7 T is_sec_dbg_skip_serial_number
0x08031079 T logDigest
0x0803112d T logMessage
0x080311e5 T main_firehose
0x08031221 T malloc
0x08031281 T map_segments
0x080318dd T memscpy
0x080318fb T memsmove
0x08031a1d T mod_exp
0x08031bef T montmul_one_ref
0x08031c75 T montmul_ref1
0x08031d49 T mult_R_mod_m
0x08031dad T mult_base_mod_m
0x08031fd5 T num_of_bits_set
0x0803203d T our_memset
0x08032071 T packet_handle_incoming_buf
0x080320fd T packet_handle_outgoing_buf
0x08032139 T parseExpression
0x08032491 T parseIntegerValue
0x08032589 T pbl_clk_julian_to_secs
0x080326b9 T pbl_secasn1_close_sequence
0x080326d7 T pbl_secasn1_decode_bit_string
0x0803272d T pbl_secasn1_decode_boolean
0x0803276b T pbl_secasn1_decode_length
0x08032809 T pbl_secasn1_decode_tag
0x0803285d T pbl_secasn1_decode_time
0x0803299b T pbl_secasn1_end
0x080329b9 T pbl_secasn1_next_field
0x08032ab1 T pbl_secasn1_start
0x08032b17 T pbl_secx509_check_cert_list
0x08032bb5 T pbl_secx509_check_issued
0x08032c4f T pbl_secx509_check_purpose
0x08032c73 T pbl_secx509_get_asn1_cert_size
0x08032ccb T pbl_secx509_name_cmp
0x08032ce9 T pbl_secx509_parse_auth_key_id
0x08032d6d T pbl_secx509_parse_basic_constraint
0x08032e25 T pbl_secx509_parse_cert_buffer
0x08032f5d T pbl_secx509_parse_certificate
0x080330e1 T pbl_secx509_parse_dn
0x08033441 T pbl_secx509_parse_ex_key_usage
0x08033585 T pbl_secx509_parse_extensions
0x080337cd T pbl_secx509_parse_gen_name_for_dir
0x08033817 T pbl_secx509_parse_key_usage
0x0803387d T pbl_secx509_parse_pub_key
0x08033a01 T pbl_secx509_parse_sig_algorithm
0x08033ad1 T pbl_secx509_parse_signature
0x08033b59 T pbl_secx509_parse_unique_id
0x08033b83 T pbl_secx509_parse_validity
0x08033c51 T pbl_secx509_parse_version
0x08033ca3 T pbl_secx509_skip_num_certs
0x08034235 T pm_clk_busy_wait
0x08034249 T pm_clk_driver_init
0x0803438d T pm_coincell_driver_init
0x08034429 T pm_comm_channel_init_internal
0x08034461 T pm_comm_get_comm_info
0x08034481 T pm_comm_info_init
0x080344d9 T pm_comm_read_byte
0x08034519 T pm_comm_read_byte_array
0x08034555 T pm_comm_read_byte_mask
0x08034571 T pm_comm_write_byte
0x080345a5 T pm_comm_write_byte_array
0x080345d5 T pm_comm_write_byte_mask
0x08034645 T pm_device_init
0x08034681 T pm_device_post_init
0x08034723 T pm_device_pre_init
0x08034753 T pm_driver_init
0x08034775 T pm_driver_post_init
0x08034779 T pm_driver_pre_init
0x0803477d T pm_fg_adc_usr_enable_bcl_monitoring
0x080347af T pm_fg_adc_usr_get_bcl_v_gain_batt
0x080347e7 T pm_fg_adc_usr_get_bcl_values
0x08034829 T pm_fg_adc_usr_get_calibrated_vbat
0x080348fd T pm_fg_adc_usr_get_vbat
0x080349ad T pm_fg_driver_init
0x08034a39 T pm_fg_get_data
0x08034a4d T pm_fg_memif_irq_status
0x08034acf T pm_fg_memif_read_data_reg
0x08034b8d T pm_fg_memif_set_mem_intf_cfg
0x08034bcf T pm_fg_memif_set_mem_intf_ctl
0x08034c11 T pm_fg_memif_write_addr
0x08034c5d T pm_fg_memif_write_data
0x08034ceb T pm_get_num_slaves_per_pmic
0x08034cf1 T pm_get_pbs_info
0x08034d71 T pm_get_pmic_info
0x08034da5 T pm_get_pmic_model
0x08034dcd T pm_get_slave_id
0x08034e15 T pm_gpio_driver_init
0x08034eb9 T pm_ibb_driver_init
0x08034f31 T pm_is_pmic_supported
0x08034f85 T pm_is_stub_enabled
0x08034f99 T pm_lab_driver_init
0x08035011 T pm_ldo_driver_init
0x080352d9 T pm_ldo_get_data
0x08035409 T pm_ldo_volt_level
0x08035429 T pm_led_config
0x0803558d T pm_led_enable
0x08035611 T pm_led_get_default_led
0x08035621 T pm_led_get_led_info
0x0803563d T pm_log_pon_reasons
0x080357c1 T pm_lpg_config_pwm_type
0x08035825 T pm_lpg_driver_init
0x080358c5 T pm_lpg_get_data
0x080358d9 T pm_lpg_pattern_config
0x08035939 T pm_lpg_pwm_clock_sel
0x08035977 T pm_lpg_pwm_enable
0x080359bb T pm_lpg_pwm_set_pre_divide
0x080359ff T pm_lpg_pwm_set_pwm_value
0x08035a77 T pm_lpg_set_pwm_bit_size
0x08035add T pm_malloc
0x08035be7 T pm_mpp_config_analog_input
0x08035c85 T pm_mpp_config_i_sink
0x08035d69 T pm_mpp_driver_init
0x08035e89 T pm_mpp_enable
0x08035ecd T pm_mpp_get_data
0x08035ee1 T pm_pbs_client_driver_init
0x08035f95 T pm_pbs_config_access
0x08035fe3 T pm_pbs_disable_access
0x08035fef T pm_pbs_enable_access
0x08035ffd T pm_pbs_info_init
0x080363e1 T pm_pbs_info_store_glb_ctxt
0x08036455 T pm_pbs_ram_image_load
0x080364e1 T pm_pbs_ram_image_verify
0x0803655d T pm_pon_channel_config
0x08036599 T pm_pon_get_all_pon_reasons
0x080365e1 T pm_pon_init
0x080366b9 T pm_pon_ps_hold_cfg
0x080367a1 T pm_pon_reset_source_cfg
0x08036989 T pm_pon_reset_source_ctl
0x080369fd T pm_pon_warm_reset_status
0x08036a51 T pm_pon_warm_reset_status_clear
0x08036a7d T pm_pwm_driver_init
0x08036af5 T pm_pwr_volt_level_alg
0x08036c01 T pm_resolve_chip_revision
0x08036dd1 T pm_resource_manager_init
0x08036e49 T pm_rgb_driver_init
0x08036ee5 T pm_rgb_enable
0x08036fad T pm_rgb_get_data
0x08036fc1 T pm_rgb_led_config
0x080370a5 T pm_rgb_set_voltage_source
0x080370f5 T pm_rtc_driver_init
0x08037125 T pm_rtc_get_data
0x08037139 T pm_rtc_get_time
0x08037195 T pm_sbl_chg_check_weak_battery_status
0x08037a41 T pm_sbl_chg_config_vbat_low_threshold
0x08037a65 T pm_sbl_chg_get_vbat
0x08037bc1 T pm_sbl_chg_init
0x08037c05 T pm_sbl_chg_no_battery_chgr_detection
0x08037d55 T pm_sbl_chg_post_init
0x08037d59 T pm_sbl_chg_pre_init
0x08037d5d T pm_sbl_config
0x08037e99 T pm_sbl_config_chg_parameters
0x08038169 T pm_sbl_config_fg_sram
0x08038295 T pm_sbl_validate_reg_config
0x0803831f T pm_smbchg_bat_if_chg_led
0x08038353 T pm_smbchg_bat_if_config_chg_cmd
0x08038391 T pm_smbchg_bat_if_get_bat_missing_cfg
0x080383f9 T pm_smbchg_bat_if_get_bat_pres_status
0x08038445 T pm_smbchg_bat_if_get_low_bat_volt_threshold
0x08038495 T pm_smbchg_bat_if_irq_status
0x08038517 T pm_smbchg_bat_if_set_bat_missing_cfg
0x080385a1 T pm_smbchg_bat_if_set_bat_missing_detection_src
0x08038609 T pm_smbchg_bat_if_set_low_batt_volt_threshold
0x0803864d T pm_smbchg_bat_if_set_min_sys_volt
0x080386bf T pm_smbchg_chager_active
0x080386ff T pm_smbchg_chgpth_set_input_priority
0x08038743 T pm_smbchg_chgr_enable_src
0x08038787 T pm_smbchg_chgr_get_chgr_sts
0x080387eb T pm_smbchg_chgr_set_chg_polarity_low
0x0803882f T pm_smbchg_chgr_set_fast_chg_i
0x0803888d T pm_smbchg_chgr_set_float_volt
0x08038909 T pm_smbchg_chgr_set_p2f_threshold
0x08038969 T pm_smbchg_chgr_set_pre_chg_i
0x080389e3 T pm_smbchg_chgr_vbat_sts
0x08038a21 T pm_smbchg_driver_init
0x08038ae9 T pm_smbchg_get_data
0x08038afd T pm_smbchg_get_index
0x08038b09 T pm_smbchg_misc_chgr_port_detected
0x08038b5f T pm_smbchg_misc_config_wdog
0x08038bc9 T pm_smbchg_misc_enable_wdog
0x08038bed T pm_smbchg_misc_get_wdog_config
0x08038c51 T pm_smbchg_misc_set_wdog_timeout
0x08038c93 T pm_smbchg_reset_apsd
0x08038cad T pm_smbchg_usb_chgpth_config_aicl
0x08038d05 T pm_smbchg_usb_chgpth_config_apsd
0x08038d7d T pm_smbchg_usb_chgpth_en_hvdcp
0x08038dcb T pm_smbchg_usb_chgpth_get_apsd_config
0x08038e31 T pm_smbchg_usb_chgpth_input_sts
0x08038ee1 T pm_smbchg_usb_chgpth_set_cmd_il
0x08038f23 T pm_smbchg_usb_chgpth_set_usbin_adptr_allowance
0x08038f67 T pm_smbchg_usb_chgpth_set_usbin_current_limit
0x08038fdd T pm_smem_init
0x08038fed T pm_smps_driver_init
0x0803930d T pm_smps_get_data
0x08039389 T pm_smps_sw_mode
0x08039451 T pm_smps_volt_level
0x08039471 T pm_target_information_get_common_info
0x08039495 T pm_target_information_get_periph_count_info
0x080394b9 T pm_target_information_get_specific_info
0x080394dd T pm_target_information_init
0x080396e1 T pm_target_information_read_peripheral_rev
0x08039769 T pm_target_information_spmi_dyn_chnl_cfg
0x0803978b T pm_target_ps_hold_cfg
0x080397e5 T pm_typec_driver_init
0x08039885 T pm_typec_get_data
0x08039899 T pm_typec_get_plug_orientation_status
0x080398f9 T pm_typec_get_pmic_index
0x08039951 T pm_version_detect
0x08039a75 T pm_vib_driver_init
0x08039b2d T pm_vs_driver_init
0x08039c51 T pm_wled_driver_init
0x08039ccd T pmapp_ps_hold_cfg
0x08039e8d T processNextXMLTag
0x0803a23d T qmemcpy
0x0803a32d T qmemscpy
0x0803a331 T qsee_is_memory_dump_allowed
0x0803a369 T qsee_is_retail_unlocked
0x0803a595 T qsee_zero_peripheral_memory
0x0803a6a1 T queueNextPacket
0x0803a6c1 T qusb_al_bulk_get_max_packet_size
0x0803a6e5 T qusb_al_bulk_get_max_raw_data_size
0x0803a6f1 T qusb_al_bulk_handle_rx_zlp_mode
0x0803a721 T qusb_al_bulk_init
0x0803a7e9 T qusb_al_bulk_poll
0x0803a855 T qusb_al_bulk_receive
0x0803a941 T qusb_al_bulk_receive_zlp
0x0803ab65 T qusb_al_bulk_set_zlp_mode
0x0803ab85 T qusb_al_bulk_shutdown
0x0803abc9 T qusb_al_bulk_snps_shutdown
0x0803abe9 T qusb_al_bulk_transmit
0x0803acad T qusb_al_check_for_pbl_dload
0x0803ad19 T qusb_al_hs_phy_nondrive_mode_set
0x0803ad1d T qusb_boot_dload_get_dload_info_ptr
0x0803ad21 T qusb_boot_dload_is_dload_info_pid_valid
0x0803ad49 T qusb_boot_dload_is_dload_info_serial_num_valid
0x0803ad71 T qusb_bus_log
0x0803adb9 T qusb_dcd_control_transfer
0x0803ae0d T qusb_dcd_init
0x0803ae91 T qusb_dcd_poll
0x0803ae9b T qusb_dcd_port_status_changed
0x0803aebd T qusb_dcd_set_config
0x0803af6d T qusb_dcd_shutdown
0x0803affd T qusb_dci_cancel_transfer
0x0803b081 T qusb_dci_check_for_pbl_dload
0x0803b1b5 T qusb_dci_config_endpoint
0x0803b279 T qusb_dci_configure_device_mode
0x0803b2d1 T qusb_dci_configure_usb30
0x0803b4ad T qusb_dci_deinit_hs_phy
0x0803b4c5 T qusb_dci_delay_ms
0x0803b4df T qusb_dci_delay_us
0x0803b4e3 T qusb_dci_disable_usb30_clocks
0x0803b4f1 T qusb_dci_enable_ref_clk
0x0803b525 T qusb_dci_enable_usb30_clocks
0x0803b529 T qusb_dci_enable_usb30_power_collapse
0x0803b52d T qusb_dci_enable_vbus_valid
0x0803b561 T qusb_dci_ep0_start_xfer
0x0803b5cd T qusb_dci_event_buffer_restore
0x0803b5f5 T qusb_dci_get_address
0x0803b639 T qusb_dci_get_phy_tuning_parameters
0x0803b64d T qusb_dci_get_speed
0x0803bbad T qusb_dci_handle_set_select
0x0803bbe1 T qusb_dci_handle_suspend_entry
0x0803bc79 T qusb_dci_handle_test_mode
0x0803bdc5 T qusb_dci_handle_u1_u2_enable
0x0803bf71 T qusb_dci_hs_phy_nondrive_mode_set
0x0803bfa1 T qusb_dci_init
0x0803c0a1 T qusb_dci_is_usb30_sw_collapsed
0x0803c0a5 T qusb_dci_is_vbus_valid
0x0803c111 T qusb_dci_poll_events
0x0803c2cd T qusb_dci_read_enum_cookie
0x0803c2d9 T qusb_dci_read_evt_buff_cur_pos_cookie
0x0803c2e5 T qusb_dci_read_serial_number
0x0803c351 T qusb_dci_select_utmi_clk
0x0803c3a5 T qusb_dci_set_address
0x0803c3d1 T qusb_dci_set_max_packet_size
0x0803c3f9 T qusb_dci_set_run_stop
0x0803c425 T qusb_dci_shutdown
0x0803c485 T qusb_dci_skip_enumeration
0x0803c4e1 T qusb_dci_ss_phy_present
0x0803c579 T qusb_dci_stall_endpoint
0x0803c74d T qusb_dci_transfer_request
0x0803c7f5 T qusb_dci_typec_lane_detect
0x0803c909 T qusb_dci_unconfig_endpoint
0x0803c929 T qusb_dci_unstall_endpoint
0x0803c98d T qusb_dci_usb30_gcc_reset
0x0803ca69 T qusb_dci_write_enum_cookie
0x0803cb2d T qusb_dci_write_evt_buff_cur_pos_cookie
0x0803cb39 T qusb_error_log
0x0803cb8d T qusb_fd_get_shutdown_mode
0x0803cb99 T qusb_fd_init
0x0803ccb9 T qusb_fd_rx_pkt
0x0803cd25 T qusb_fd_set_buffer_mode
0x0803cd3d T qusb_fd_set_core
0x0803cd69 T qusb_fd_shutdown
0x0803cd89 T qusb_fd_tx_pkt
0x0803d04d T qusb_get_shared_imem_address
0x0803d055 T qusb_hs_phy_init
0x0803d101 T qusb_hs_phy_refclk_enable
0x0803d269 T qusb_log
0x0803d429 T qusb_ss_phy_init
0x0803d671 T qusb_submit_urb
0x0803d6ad T qusb_timer_check_for_expiry
0x0803d6ed T qusb_timer_start
0x0803d775 T qusb_uart_log
0x0803d779 T rail_id
0x0803d7b5 T railway_aggregated_voltage_target_uv
0x0803d845 T railway_corner_vote
0x0803d8a9 T railway_create_voter
0x0803db11 T railway_get_corner_voltage
0x0803dba5 T railway_init
0x0803dc75 T railway_level_vote
0x0803dd81 T railway_setting_checksum
0x0803dd85 T railway_target_init
0x0803de35 T railway_transition_rails
0x0803de71 T railway_transitioner_init
0x0803e05d T rbcpr_cx_mx_settings_checksum
0x0803e061 T rbcpr_externalize_state
0x0803e09d T rbcpr_init
0x0803e0a1 T readAndProcessXML
0x0803e1b5 T readChannel
0x0803e385 T recvNextPacket
0x0803e959 T rpm_rail_corner_remap
0x0803e9c9 T rpm_rail_level_remap
0x0803ea69 T sbl1_boot_logger_deinit
0x0803eb01 T sbl1_ddr_init
0x0803ec95 T sbl1_ddr_set_params
0x0803ee81 T sbl1_dload_entry
0x0803eead T sbl1_efs_handle_cookies
0x0803ef09 T sbl1_hw_deinit
0x0803ef39 T sbl1_hw_dload_init
0x0803ef3d T sbl1_hw_get_pmictimer_status
0x0803ef49 T sbl1_hw_get_reset_status
0x0803ef55 T sbl1_hw_init
0x0803f001 T sbl1_hw_init_secondary
0x0803f0a1 T sbl1_hw_platform_pre_ddr
0x0803f129 T sbl1_hw_platform_smem
0x0803f16d T sbl1_init_sbl_qsee_interface
0x0803f1bd T sbl1_load_ddr_training_data
0x0803f219 T sbl1_load_ddr_training_data_from_partition
0x0803f2e9 T sbl1_load_dpo_partition
0x0803f385 T sbl1_load_sec_partition
0x0803f4c9 T sbl1_main_ctl
0x0803f689 T sbl1_populate_initial_mem_map
0x0803f6e9 T sbl1_post_ddr_init
0x0803f72d T sbl1_relocate_page_table_to_ddr
0x0803f8d1 T sbl1_save_ddr_training_data
0x0803f915 T sbl1_save_ddr_training_data_to_partition
0x0803f9a1 T sbl1_tlmm_init
0x0803fa95 T sbl_error_handler
0x0803fb1d T sbl_sahara_entry
0x0803fba5 T sbl_sahara_get_interface
0x0803fcbd T sbl_set_smem_init_done
0x0803fcd3 T sdcc_activity_timeout_event
0x0803fcd9 T sdcc_boot_set_device_info
0x0803fd05 T sdcc_bsp_cache_operation
0x0803fd11 T sdcc_bsp_config_clock
0x0803fdf5 T sdcc_bsp_get_cache_align_size
0x0803fdf9 T sdcc_bsp_get_max_supported_clk
0x0803fe0d T sdcc_bsp_get_slot_access_type
0x0803fe21 T sdcc_bsp_get_slot_type
0x0803fe35 T sdcc_bsp_gpio_control
0x0803fe81 T sdcc_bsp_hw_busy_wait_init
0x0803fe95 T sdcc_bsp_hw_clk_busy_wait
0x0803ff39 T sdcc_command
0x0803ff51 T sdcc_command_qc_mode
0x0803ffb5 T sdcc_command_sdhci_mode
0x0804011b T sdcc_complete_data_xfer
0x08040161 T sdcc_config_clk
0x080402a1 T sdcc_config_memory_device
0x08040359 T sdcc_config_mmc_bus_width
0x080403a5 T sdcc_config_mmc_modes_segment
0x08040631 T sdcc_config_rca
0x080406f9 T sdcc_decode_extCSD
0x0804089d T sdcc_decode_mmc_cid
0x08040915 T sdcc_decode_mmc_mfr_date
0x08040919 T sdcc_decode_scr
0x08040941 T sdcc_decode_sd_cid
0x080409a1 T sdcc_decode_sd_mfr_date
0x080409a5 T sdcc_decode_sd_status
0x08040a41 T sdcc_decode_switch_data
0x08040aed T sdcc_deinit
0x08040b35 T sdcc_deregister_client_handle
0x08040b57 T sdcc_display_mem_device_info
0x08040b91 T sdcc_do_transfer
0x08040ba3 T sdcc_do_transfer_qc_mode
0x08040d19 T sdcc_do_transfer_sdhci_mode
0x08040f2d T sdcc_find_mmc_device
0x08040fb1 T sdcc_find_sd_device
0x08041099 T sdcc_get_cid
0x080410ed T sdcc_get_config_info
0x08041105 T sdcc_get_ext_csd
0x08041157 T sdcc_get_memory_info
0x0804128d T sdcc_get_scr
0x080412dd T sdcc_get_sd_speed_class
0x08041305 T sdcc_get_sd_status
0x08041355 T sdcc_get_slot_handle
0x08041371 T sdcc_get_slot_type
0x080413e9 T sdcc_handle_close
0x08041405 T sdcc_handle_erase
0x080414d9 T sdcc_handle_find_card
0x080415ad T sdcc_handle_get_fw_version
0x080415cd T sdcc_handle_is_mem_present
0x08041609 T sdcc_handle_mem_get_device_info
0x08041731 T sdcc_handle_open
0x08041871 T sdcc_handle_optimized_open
0x08041911 T sdcc_handle_read
0x080419bd T sdcc_handle_set_active_bootable_partition
0x080419e3 T sdcc_handle_set_power_on_write_protection
0x080419e7 T sdcc_handle_write
0x08041a91 T sdcc_hc_config_buswidth
0x08041ae5 T sdcc_hc_enable_ddr50
0x08041afb T sdcc_hc_enable_hs200
0x08041cb9 T sdcc_hc_set_clock
0x08041e95 T sdcc_hs200_execute_tuning
0x0804219b T sdcc_init_memory_device
0x08042201 T sdcc_init_qc_mode
0x08042319 T sdcc_init_sdhci_mode
0x080424b9 T sdcc_is_device_still_in_use
0x080424ed T sdcc_is_partial_enumeration
0x0804255d T sdcc_mmc_get_fw_version
0x08042569 T sdcc_mmc_get_phy_partition_info
0x0804260f T sdcc_mmc_is_phy_partition_bootable
0x08042641 T sdcc_mmc_set_active_bootable_partition
0x080426a1 T sdcc_mmc_set_partition_access
0x080426e9 T sdcc_mmc_switch
0x08042815 T sdcc_poll_status
0x080428d1 T sdcc_read_fifo
0x0804297d T sdcc_register_client_handle
0x080429c1 T sdcc_reset_reinit
0x08042a35 T sdcc_sd_switch_to_hs
0x08042bc9 T sdcc_select_card
0x08042bfb T sdcc_send_app_command
0x08042c2d T sdcc_send_cmd
0x08042ccd T sdcc_send_status
0x08042d51 T sdcc_set_partition
0x08042d7f T sdcc_set_sd_bus_width
0x08042de9 T sdcc_setup_data_xfer
0x08042e51 T sdcc_slot_has_support
0x08042e7b T sdcc_wait_card_ready
0x08042ea5 T sdcc_wait_data_xfer_complete
0x08042ef1 T sdcc_wait_prog_done
0x08042f45 T sdcc_write_fifo
0x08043031 T sec_img_auth_authenticate_image_context
0x08043105 T sec_img_auth_check_address_32
0x08043121 T sec_img_auth_check_address_64
0x0804316d T sec_img_auth_elf_find_seg_32
0x08043191 T sec_img_auth_elf_find_seg_64
0x08043255 T sec_img_auth_get_code_segment
0x08043265 T sec_img_auth_get_elf_format
0x08043305 T sec_img_auth_get_sw_version
0x080433dd T sec_img_auth_hash_elf_segments
0x0804347d T sec_img_auth_hw_is_auth_enabled
0x080434bf T sec_img_auth_is_valid_area_32
0x08043513 T sec_img_auth_is_valid_area_64
0x08043577 T sec_img_auth_is_valid_segment
0x080435ab T sec_img_auth_populate_elf_info_32
0x080436ed T sec_img_auth_populate_elf_info_64
0x080438f9 T sec_img_auth_segments
0x08043aa9 T sec_img_auth_validate_elf
0x08043b33 T sec_img_auth_validate_elf_entry_32
0x08043bd1 T sec_img_auth_validate_elf_entry_64
0x08043caf T sec_img_auth_validate_hash_segment_entries_32
0x08043cf7 T sec_img_auth_validate_hash_segment_entries_64
0x08043d2b T sec_img_auth_validate_hash_segment_len_32
0x08043d79 T sec_img_auth_validate_hash_segment_len_64
0x08043dcf T sec_img_auth_validate_mi_boot
0x08043e31 T sec_img_auth_verify_metadata
0x08043fa1 T sec_img_auth_verify_sig
0x080440d5 T sec_img_auth_zero_segments_32
0x0804415d T sec_img_auth_zero_segments_64
0x08044235 T sec_is_dp_disable
0x08044275 T sec_pil_is_signed_image
0x0804428d T secboot_authenticate
0x080445a9 T secboot_cal_cert_num
0x080445f5 T secboot_deinit
0x08044609 T secboot_get_ftbl
0x08044635 T secboot_hash
0x08044901 T secboot_hw_get_ftbl
0x0804495b T secboot_hw_get_msm_hw_id
0x080449bd T secboot_hw_get_root_cert_info
0x08044a55 T secboot_hw_get_root_cert_sel
0x08044a71 T secboot_hw_get_root_of_trust
0x08044b2d T secboot_hw_get_serial_num
0x08044b43 T secboot_hw_get_use_serial_num
0x08044b61 T secboot_hw_is_auth_enabled
0x08044b95 T secboot_hw_update_and_read_root_cert_sel
0x08044bcd T secboot_init
0x08044c81 T secboot_init_fuses
0x08045715 T sechsharm_sha256_final
0x0804576d T sechsharm_sha256_init
0x080462d5 T sechsharm_sha256_update
0x080463b5 T secmath_BIGINT_modexp
0x08046429 T secmath_BIGINT_read_unsigned_bin
0x0804649d T sendResponse
0x080464a5 T sendResponseFields
0x08046619 T sendXMLBuffer
0x080466e5 T simpleStrReplace
0x08046771 T smem_alloc
0x08046955 T smem_boot_debug_init
0x08046975 T smem_boot_init
0x08046a8d T smem_ext_get_smem_base
0x08046a91 T smem_ext_get_smem_size
0x08046a95 T smem_get_addr
0x08046b75 T smem_get_base_addr
0x08046b85 T smem_get_offset
0x08046bd9 T smem_get_phys_base_addr
0x08046bf1 T smem_get_size
0x08046c09 T smem_get_static_size
0x08046cad T smem_init
0x08046d45 T smem_map_base_va
0x08046d49 T smem_map_memory_va
0x08046d55 T smem_map_smem_targ_info
0x08046d71 T smem_map_spinlock_region_va
0x08046d75 T smem_os_ext_get_smem_base
0x08046d99 T smem_os_ext_get_smem_size
0x08046dbd T smem_save_targ_smem_info
0x08046e2d T smem_set_base_addr
0x08046e51 T smem_set_ext_mem_region
0x08046ea5 T smem_set_spin_lock_api
0x08046ea9 T smem_set_spinlock_base_addr
0x0804708d T smem_spin_lock
0x0804708f T smem_spin_lock_init
0x08047091 T smem_spin_unlock
0x08047095 T smem_version_set
0x080470f9 T storageDeviceClosePartition
0x0804710f T storageDeviceErase
0x08047151 T storageDeviceExtrasCommit
0x08047179 T storageDeviceFWUpdate
0x0804732d T storageDeviceGetExtras
0x08047409 T storageDeviceGetPartitionSizeSectors
0x08047441 T storageDeviceGetStorageInfo
0x08047591 T storageDeviceRead
0x080475c7 T storageDeviceSetBootableStorageDrive
0x080475e9 T storageDeviceSetExtras
0x08047775 T storageDeviceWrite
0x080477af T storage_device_open_partition
0x080477ed T strcasecmp
0x080477f5 T stringToNumber
0x0804783d T strlcat
0x08047893 T strlcpy
0x080478d5 T strncasecmp
0x08047917 T sub
0x0804794d T uart_log
0x080479c9 T uie_clear_fec
0x080479d5 T uie_decrypt_ccm
0x08047a05 T uie_decrypt_ccm_priv
0x08047c1d T uie_decrypt_cts
0x08047d95 T uie_decrypt_segment
0x08047e75 T uie_deinit
0x08047e8f T uie_fec_error_occurred
0x08047ea9 T uie_get_fec
0x08047eb9 T uie_get_l1_fuse_key
0x08047f91 T uie_get_l1_key
0x08047f9b T uie_hash_sha256
0x0804802d T uie_init
0x0804808d T uie_is_image_encrypted
0x080480b9 T uie_is_image_encryption_fuse_enabled
0x080480c7 T uie_is_segment_encrypted
0x080481ed T validateXMLBuffer
0x08048361 T writeChannel
0x0804840d T xmlGetAttributeName
0x0804844f T xmlGetAttributeValue
0x08048491 T xmlGetTag
0x080484d3 T xmlGetToken
0x08048853 T xmlInitReader
0x08048869 T xmlInitWriter
0x08048893 T xmlIsAttribute
0x080488b9 T xmlIsTag
0x080488df T xmlWriterMarkRollbackPoint
0x08048901 T xmlWriterRawCloseTag
0x0804890d T xmlWriterRawCloseTagName
0x0804891d T xmlWriterRawStartTag
0x08048929 T xmlWriterRawStartTagNoAttributes
0x08048939 T xmlWriterRawWrite
0x0804894d T xmlWriterRawWriteArgList
0x080489b1 T xmlWriterRawWriteAttribute
0x080489c9 T xmlWriterRawWriteAttributeValueFromBuffer
0x08048a2d T xmlWriterRawWriteFromBuffer
0x08048a77 T xmlWriterReset
0x08048a8d T _get_lc_ctype
0x08048ab9 T _get_lc_numeric
0x08048ae5 T __fpl_dcheck_NaN1
0x08048af5 T __aeabi_d2uiz
0x08048af5 T _dfixu
0x08048b4f T __aeabi_ui2d
0x08048b4f T _dfltu
0x08048b75 T __aeabi_dmul
0x08048b75 T _dmul
0x08048cc9 T __fpl_dnaninf
0x08048d65 T __fpl_dretinf
0x08048d71 T _printf_fp_dec
0x08048d75 T __fpl_return_NaN
0x08048dd9 T __ARM_scalbn
0x08048e35 T __fpl_cmpreturn
0x08048e64 N __I$use$fp
0x08048e64 D sbl_initial_memory_map
0x08048f44 D sbl1_addtional_memory_map
0x080491c8 D QC_IMAGE_VERSION_STRING_AUTO_UPDATED
0x080491f2 D IMAGE_VARIANT_STRING_AUTO_UPDATED
0x08049211 D OEM_IMAGE_VERSION_STRING_AUTO_UPDATED
0x0804922e D OEM_IMAGE_UUID_STRING_AUTO_UPDATED
0x08049284 D mob_sw_rev
0x080492c0 D path_id
0x08049338 D DALSystem_DriverInfo
0x08049344 D smem_buf_data_tbl
0x0804949c D Clock_I2CRegs
0x080496e4 D Clock_SDCCRegs
0x08049798 D DALPROP_PropBin
0x0804a9a8 D driver_list
0x0804ab40 D DALPROP_PropsInfo
0x0804ab50 D bam_tgt_config
0x0804ab90 D cpr_enablement_cfg_hash_value
0x0804abbc D RAILWAY_CONFIG_DATA
0x0804ad74 D crc30_table
0x0804b174 D crc16_table
0x0804b374 D crc_16_l_table
0x0804b574 D crc32_table
0x0804b974 D fs_rmts_fs1_guid
0x0804b984 D fs_rmts_fs2_guid
0x0804b994 D fs_rmts_fsg_guid
0x0804b9a4 D fs_rmts_fsc_guid
0x0804b9b4 D fs_rmts_fs1_fusion_guid
0x0804b9c4 D fs_rmts_fs2_fusion_guid
0x0804b9d4 D fs_rmts_fsg_fusion_guid
0x0804b9e4 D fs_rmts_fsc_fusion_guid
0x0804c774 D DALI2C_DriverInfo
0x0804c934 D AdcBootBsp_8953_PM8953
0x0804c94c D AdcBootBsp_8953_PM8953_PMI8950
0x0804cc7c D VAdcBsp_8953_PM8953
0x0804cda0 D VAdcBsp_8953_PMI8950
0x0804ce04 D DALVAdc_DriverInfo
0x0804ce10 D BootTempCheckBsp
0x0804d044 D TsensBootBsp
0x0804d098 D smem_partition_toc_entries
0x0804d178 D cpr_voltage_plan_hash_value
0x0804d1b0 D pbl_secx509_ext_auth_key_id
0x0804d1b3 D pbl_secx509_ext_sub_key_id
0x0804d1b6 D pbl_secx509_ext_key_usage
0x0804d1b9 D pbl_secx509_ext_sub_alt_name
0x0804d1bc D pbl_secx509_ext_basic_constraint
0x0804d1bf D pbl_secx509_ext_name_constraint
0x0804d1c2 D pbl_secx509_ext_policy_constraint
0x0804d1c5 D pbl_secx509_ext_ex_key_usage
0x0804d1c8 D pbl_secx509_ext_cert_policies
0x0804d1cb D sha1_codehash_str
0x0804d1d0 D debug_string
0x0804d1d6 D sw_id_string
0x0804d1dc D hw_id_string
0x0804d1e2 D sha256_codehash_str
0x0804d1e9 D pbl_secx509_ex_key_sauth
0x0804d1f1 D pbl_secx509_ex_key_cauth
0x0804d1f9 D pbl_secx509_ex_key_code
0x0804d201 D pbl_secx509_ex_key_email
0x0804d209 D pbl_secx509_ex_key_time
0x0804d211 D pbl_secx509_asn1_rsa
0x0804d21a D pbl_secx509_md5WithRSAEncryption
0x0804d223 D pbl_secx509_md2WithRSAEncryption
0x0804d22c D pbl_secx509_sha1WithRSAEncryption
0x0804d235 D pbl_secx509_sha256WithRSAEncryption
0x0804d23e D pbl_secx509_ex_key_ms_sgc
0x0804d248 D pbl_secx509_ex_key_ns_sgc
0x0804d251 D crash_dump_string
0x0804d25c D SDCCSdhciEnable
0x0804d454 D DALChipInfo_DriverInfo
0x0804d460 D DALPlatformInfo_DriverInfo
0x0804d4a4 D default_led
0x0804d4a5 D pm_periph_bitmap
0x0804d590 D DALTLMM_DriverInfo
0x0804dca8 D __stdin_name
0x0804dcac D __stdout_name
0x0804dcb0 D __stderr_name
0x0804e3e1 D __ctype
0x0804e4f0 D __lcnull_start
0x0805c008 D L2_parity_error_in_sbl
0x0805c010 D page_table_is_in_ddr
0x0805c014 D sbl1_ddr_mem_block
0x0805c084 D boot_crash_dump_regs_ptr
0x0805c088 D sbl_dload_entry
0x0805c0c8 D load_qsee_pre_procs
0x0805c0f8 D load_qsee_post_procs
0x0805c12c D sbl1_pre_dload_procs
0x0805c13c D sbl1_config_table
0x0805c394 D config_data_table
0x0805c794 D config_data_table_size
0x0805c798 D boot_rollback_version_img_set_table
0x0805c8b0 D boot_rollback_version_img_set_num
0x0805c980 D ddr_init_done
0x0805c98c D ddr_bus_width
0x0805c9d8 D __stack_chk_guard
0x0805c9e0 D bl_err_if
0x0805ca1c D sahara_start_of_segment_load
0x0805ca24 D sahara_shared_data
0x0805ca3c D sahara_cmd_exec_data
0x0805ca78 D last_loaded_segment_end_offset
0x0805ca7c D remaining_elf_segments_data
0x0805ca88 D non_block_mode
0x0805ca8c D sbl_hash_algorithm
0x0805ca90 D sbl_hash_len
0x0805cabd D image_partition_id
0x0805cbd5 D appsbl_partition_id
0x0805cbe5 D qsee_partition_id
0x0805cbf5 D rpm_partition_id
0x0805cc05 D ddr_params_partition_id
0x0805cc15 D cdt_partition_id
0x0805cc25 D ram_dump_partition_id
0x0805cc35 D sec_partition_id
0x0805cc45 D dpo_partition_id
0x0805cc55 D apdp_partition_id
0x0805cc65 D devcfg_partition_id
0x0805cc84 D trans_if
0x0805cca8 D config_data_table_info
0x0805ccb0 D smem_init_done
0x0805ccb4 D boot_shared_imem_cookie_ptr
0x0805ccb8 D boot_ddr_info_set
0x0805cd04 D ddr_status_reg_addr
0x0805ce9c D dev_config_valid
0x0805cebc D gDALProcessDriverModList
0x0805cee0 D num_allocated_devices
0x0805cee8 D bams
0x0805ceec D bam_drv_sync
0x0805cefc D gbTsensInitialized
0x0805cf00 D smem_hw_mutex_base_ptr
0x0805cf08 D smem_init_info
0x0805cf2c D mx_rail_id
0x0805cf30 D railway
0x0805cfbc D pbl_shared_global
0x0805cfd0 D ddr_fuse_limit
0x0805cfe0 D clock_apps_speed_khz
0x0805d1e0 D pmicArbBaseAddrs
0x0805d1e4 D DALPROP_StructPtrs
0x0805d314 D gDALModDriverInfoList
0x0805d320 D bamcore_pipe_tzprotect
0x0805d324 D bam_tgt_config_ptr
0x0805d328 D bam_num_configs
0x0805d450 D cpr_rails
0x0805d458 D cpr_controllers
0x0805d45c D cpr_enablements
0x0805d464 D cpr_misc
0x0805d46c D cpr_info
0x0805d508 D hotplug_init_complete
0x0805d50c D hotplug_init_no_poll_complete
0x0805d510 D hotplug_crit_sect
0x0805d514 D hotplug_total_devices
0x0805d518 D hotplug_total_physical_devices
0x0805d51c D hotplug_total_partitions
0x0805d520 D sdcc_mini_boot_device_info
0x0805d538 D Clock_SBLConfigData
0x0805e2e0 D Clock_SBL_MuxMap
0x0805e30c D Clock_SBL_SourceMap
0x0805e338 D BIMCPLLConfig
0x0805e550 D low_vbat_tab
0x0805e5e6 D qusb_usb_bos_obex
0x0805e5fc D qusb_desc_dev_qual
0x0805e606 D qusb_usb_config_obex_fs
0x0805e626 D qusb_usb_config_obex_hs
0x0805e646 D qusb_usb_config_obex_ss
0x0805e93c D dci_core_info
0x0805e940 D ca_training_pattern_lpddr3
0x0805e970 D freq_range
0x0805e988 D global_bit_mask
0x0805e98c D fail_flag_per_byte
0x0805e990 D byte_remapping_table
0x0805e998 D global_beat_mask
0x0805e9b8 D write_in_pattern
0x0805edb8 D bimc_global0_config
0x0805ef10 D bimc_scmo_config
0x0805f070 D bimc_dpe_config
0x0805f3a8 D bimc_shke_config
0x0805f460 D bimc_global0_config_ch_diff
0x0805f468 D bimc_scmo_config_ch_diff
0x0805f470 D bimc_dpe_config_ch_diff
0x0805f478 D bimc_shke_config_ch_diff
0x0805f480 D bimc_global0_config_base
0x0805f484 D bimc_scmo_config_base
0x0805f488 D bimc_dpe_config_base
0x0805f48c D bimc_shke_config_base
0x0805f490 D bimc_global0_config_ch_delta
0x0805f494 D bimc_scmo_config_ch_delta
0x0805f498 D bimc_dpe_config_ch_delta
0x0805f49c D bimc_shke_config_ch_delta
0x0805f4a0 D bimc_global0_config_delta
0x0805f4a4 D bimc_scmo_config_delta
0x0805f4a8 D bimc_dpe_config_delta
0x0805f4ac D bimc_shke_config_delta
0x0805f4b0 D ddr_phy_dq_config
0x0805f8b0 D ddr_phy_ca0_config
0x0805fcb0 D ddr_phy_ca1_config
0x080600b0 D ddr_cc_config
0x080601e8 D ddr_phy_dq_config_base
0x080601ec D ddr_phy_ca0_config_base
0x080601f0 D ddr_phy_ca1_config_base
0x080601f4 D ddr_cc_config_base
0x080601f8 D ddr_phy_dq_config_delta
0x080601fc D ddr_phy_ca0_config_delta
0x08060200 D ddr_phy_ca1_config_delta
0x08060204 D ddr_cc_config_delta
0x08060208 D lpddr_geometry_table
0x08060244 D lpddr_size_table
0x08060280 D lpddr_timing_table
0x080602bc D interface_width
0x080602fc D icbcfg_boot_data
0x08060630 D icbcfg_boot_prop
0x08060638 D map_ddr_regions
0x08060648 D channel_map
0x0806064c D bimc_hal_info
0x08060670 D safe_reset_seg
0x08060690 D msm8953_all
0x080606c8 D configs
0x080606cc D icbcfg_info
0x080606d4 D uart_driver_props
0x080606d8 D static_uart_context
0x08060e4c D margins_0
0x08060e54 D quotients_5671414031
0x08060e60 D quotients_18314889212
0x08060e6c D fuses_4205407389
0x08060e80 D quotients_13976616038
0x08060e8c D quotients_13391412223
0x08060e98 D fuses_1642554776
0x08060eac D voltage_plan_11762603058
0x08060ec4 D margins_870
0x08060ecc D quotients_15543540899
0x08060ed8 D fuses_6235187012
0x08060eec D margins_899
0x08060ef4 D quotients_15344839890
0x08060f00 D fuses_7562370877
0x08060f14 D margins_733
0x08060f1c D quotients_11451110573
0x08060f28 D fuses_4350869267
0x08060f3c D margins_652
0x08060f44 D quotients_14213015954
0x08060f50 D fuses_6767873943
0x08060f64 D margins_656
0x08060f6c D quotients_18578366758
0x08060f78 D fuses_3329597576
0x08060f8c D margins_560
0x08060f94 D quotients_9854876841
0x08060fa0 D fuses_2417127291
0x08060fb4 D voltage_plan_16453213830
0x08060fcc D sw_settings
0x08061024 D CPR_INIT_OPEN_LOOP
0x08061034 D CPR_INIT_CLOSED_LOOP_SETTLE_ONLY
0x08061044 D blockdev_driver_list
0x08061054 D SpeedMode
0x08061074 D hwio_init_done
0x08061078 D sdcc_reg_base
0x08061080 D sdcc_reg_phys
0x08061088 D sdhc_reg_base
0x08061090 D sdhc_reg_phys
0x0806112c D settings_test_flag_reg
0x08061130 D fts_range
0x08061134 D fts_volt
0x0806114c D fts2p5_range
0x08061150 D fts2p5_volt
0x08061168 D hfs_range
0x0806116c D hfs_volt
0x08061184 D n1200_range
0x08061188 D n1200_volt
0x080611ac D n600_range
0x080611b0 D n600_volt
0x080611d4 D pmos_range
0x080611d8 D pmos_volt
0x08061214 D ln_range
0x08061218 D ln_volt
0x08061230 D nmos_range
0x08061234 D nmos_volt
0x08061258 D ult_buck_range_1
0x0806125c D ult_buck_volt_1
0x08061274 D ult_buck_range_2
0x08061278 D ult_buck_volt_2
0x08061284 D ult_pmos_range
0x08061288 D ult_pmos_volt
0x08061294 D ult_nmos_range
0x08061298 D ult_nmos_volt
0x080612a4 D clk_reg
0x080612ae D smps_reg
0x080612e6 D ldo_reg
0x0806131e D vs_reg
0x08061356 D pwm_reg
0x08061372 D wled_ctrl_reg
0x080613c6 D wled_sink_reg
0x08061418 D wled_reg
0x08061420 D ibb_reg
0x08061470 D lab_reg
0x080614ac D clk_sleep_reg
0x080614b0 D clk_xo_reg
0x080614b4 D clk_common
0x080614c2 D gpio_reg
0x080614ec D mpp_reg
0x08061518 D rgb_reg
0x08061522 D lpg_reg
0x0806154e D vib_reg
0x08061558 D fg_batt_reg
0x0806159e D fg_memif_reg
0x080615d6 D fg_adc_usr_reg
0x08061624 D fg_reg
0x08061630 D pbs_client_reg
0x0806164c D smbchg_chgr_reg
0x08061694 D smbchg_bat_if_reg
0x080616e0 D smbchg_usb_chgpth_reg
0x08061724 D smbchg_dc_chgpth_reg
0x0806175c D smbchg_misc_reg
0x080617a0 D smbchg_reg
0x080617b4 D coincell_reg
0x080617c0 D typec_reg
0x080617d0 D led_array
0x080617dc D rgb_configs
0x080617f4 D led_info
0x08061800 D smbchg_specific_data
0x08061848 D chg_range_data
0x08061940 D fg_sram_data
0x08061994 D mpp_specific
0x08061998 D vib_specific
0x0806199c D sbl_specific_data
0x0806199e D pm_pbs_info_data_a
0x080619b4 D pm_pbs_info_data_b
0x080619cc D pm_pbs_info_data
0x080619d4 D pm_sbl_seq
0x080635ac D pm_pbs_seq
0x08063dc8 D uart_log_struct
0x08063fd0 D gVAdcDrvCtxt
0x080641e4 D blockdev_devnull_driver
0x080641f4 D blockdev_sd_driver
0x08064328 D TLMM_DriverCtxt
0x080643c8 D g_bIsPM8950v1_0
0x08064474 D amPartMap
0x080645ac D chipIdMap
0x080646f4 D pgLowPowerConfigs
0x080646fc D gnTotalGPIO
0x08064700 D hNonDalProps
0x0806470c D pgtState
0x08064718 D __aeabi_stdin
0x0806471c D __aeabi_stdout
0x08064720 D __aeabi_stderr
0x08064724 D boot_err_log_ptr
0x08064788 D bl_shared_data
0x08064ac8 D sbl_verified_info
0x08064b20 D ddr_physical_size
0x08064b60 D ddr_system_size
0x08064b98 D ddr_status
0x08066748 D req_remaps
0x080667c8 D spmiBusInfo
0x08066af0 D gTsensDevCtxt
0x08066b08 D gTsensController
0x08066bf0 D smem_ext_heap_info
0x08066ff0 D s_img_handle
0x08067854 D spmiPmicArbInfo
0x08068060 D spmiLogBuf
0x080680e0 D version_internal_uuid
0x08068250 D hotplug_devices
0x080682d0 D hotplug_physical_devices
0x0806842c D hotplug_partitions
0x08069a28 D fh
0x0806d040 D image_info
0x0806d080 D verified_info
0x0806d3a0 D fail_flag_per_bit
0x0806d3c8 D training_address
0x0806d3e8 D hotplug_counter
0x0806d84c D smps_phase_lut_a
0x0806df48 D __stdin
0x0806df9c D __stdout
0x0806dff0 D __stderr
0x80000000 D main_channel_buffer_A
0x80100000 D main_channel_buffer_B
0x80200000 D transmit_buffer
0x86700a2c D fs_cookie_list_manager_objs
0x86700ac0 D CeMLIovecTypeArray
0x86700b60 D CeMLHashCipherAlgoCntxTypeBuff
0x8670d118 D boot_external_heap
0x86768000 D mmu_l1_pagetable
0x8676c000 D mmu_l2_pagetable
0x86772ee8 D sahara_packet_buffer
0x86773b20 D raw_dump_header
0x86773b58 D raw_dump_section_header_table
0x8677600c D qusb_dload_info
0x86776538 D qusb_log_buffer
