typedef enum
{
  DIAG_F3_TRACE_DISABLE = 0x0,
  DIAG_F3_TRACE_ENABLE = 0x1,
  DIAG_F3_TRACE_DIAG_MASK_DEBUG_MODE = 0x9,
  SIZEOF_DIAG_F3_TRACE_CONTROL_TYPE
} diag_f3_trace_control_type;
<driver name="NULL">
   <device id="diag_f3_trace">
    <!-- f3trace_control (equivalent to NV 1892 Diag Debug Control)
              DIAG_F3_TRACE_DISABLE (0x0) - logging off
              DIAG_F3_TRACE_ENABLE (0x1) - log filtered by f3trace_detail below
              DIAG_F3_TRACE_DIAG_MASK_DEBUG_MODE (0x9) - log based on diag-QXDM filters
    -->
    <props name="diag_f3_trace_control" type=DALPROP_ATTR_TYPE_UINT32>
      DIAG_F3_TRACE_ENABLE
    </props>
    <!-- f3trace_detail bitmask (equivalent to NV 1895 Diag Debug Detail)
              BIT Enables
               7 MSG_FATAL
               6 MSG_ERROR
               5 MSG_HIGH
               4 MSG_MED
               3 MSG_LOW
               2 <reserved>
               1 timestamp
               0 msg args
    -->
    <props name="diag_f3_trace_detail" type=DALPROP_ATTR_TYPE_UINT32>
      0xFF
    </props>
    <!-- DO NOT MODIFY -->
    <props name="f3trace_devcfg_version" type=DALPROP_ATTR_TYPE_UINT32>
      0x01
    </props>
  </device>
</driver>
