ADDRESS,PD TYPE,MEMORY TYPE
0x8a200000L,,
,GuestOS Size = 11.449 MB,Static
0x8ad72ee8,,
,QURTK Trace Buffer (256 KB),Dynamic
,1MB aligned hole (308.273 KB) Used to load Dynamic Modules,Dynamic
0x8ae00000L,,
,SensorsPD Size = 2.019 MB,Static
0x8b004f94,,
,256KB aligned hole (236.105 KB),Static
0x8b040000,,
,Sensors Heap Size = 768KB,Dynamic
0x8b100000,,
,Free Space (1.699 MB) Used to load Dynamic Modules,Dynamic
0x8b2b2ee8,,
,Free Space (0.301 MB) ,
0x8b300000,,
"
"
"
"
"Disclaimer: Dynamic sections captured above is just for illustration, actual placement in the image may vary",
