<driver name="NULL">
 <device id="/statichashes/fastrpc_shell_0_debug">
  <props name="num_segments" type=DALPROP_ATTR_TYPE_UINT32>4</props>
  <props name="hash" type=DALPROP_ATTR_TYPE_BYTE_SEQ>0x96, 0xbc, 0x31, 0xc0, 0x78, 0x97, 0x95, 0xcd, 0x6c, 0x94, 0x80, 0x9b, 0x94, 0x10, 0xaa, 0x7c, 0x7f, 0xd5, 0x69, 0xb6, 0x64, 0xfa, 0x9a, 0x3b, 0x5e, 0xb6, 0x5b, 0x49, 0x7, 0xc7, 0x74, 0x46, 0xac, 0x74, 0xe0, 0xdb, 0xe6, 0x22, 0xbc, 0xca, 0x88, 0xe1, 0x85, 0xdd, 0xf5, 0xb2, 0x2f, 0x15, 0x87, 0xda, 0xbd, 0x70, 0xac, 0x90, 0x43, 0x8a, 0x7, 0x26, 0x4e, 0xc2, 0xd3, 0x11, 0xce, 0xf6, 0x8a, 0x6d, 0xb5, 0x55, 0x56, 0xd0, 0xc, 0xb6, 0x7f, 0x69, 0x1d, 0xe4, 0xfc, 0xfe, 0xa2, 0xe4, 0xdb, 0x32, 0x8c, 0x2b, 0x9d, 0x66, 0xcf, 0x4, 0xa7, 0x8e, 0x8a, 0xf5, 0x2f, 0x44, 0x0, 0x8b, 0x97, 0x4a, 0x61, 0x40, 0x21, 0x5b, 0x53, 0x18, 0xcb, 0x92, 0xb8, 0xa5, 0x60, 0xed, 0x87, 0xb2, 0xf1, 0x54, 0xee, 0xc8, 0xe1, 0x83, 0xbb, 0x45, 0xc7, 0x1c, 0xa, 0xfa, 0x94, 0x2b, 0xa6, 0x30, end</props>
 </device>
</driver>
