<driver name="STMCfg">
  <device id=DALDEVICEID_STM_CONFIG>
    <props name="stm_claim_tag" type=DALPROP_ATTR_TYPE_UINT32>
      0x1
    </props>
 <props name="stm_phys_addr" type=DALPROP_ATTR_TYPE_UINT32>
      0x03002000
    </props>
  </device>
</driver>
