{
  "version" : "1.0",
  "environment" : [
    "HEXAGON_ROOT",
    "ARMTOOLS"
  ],
  "tools" : [
    {
      "name" : "python",
      "version" : "2.7.5"
    }
  ],
  "variant_info" : {
    "8940.gen.prod" : {
      "commands" : [
        {
          "build" : [
            {
              "path" : "modem_proc/build/ms"
            },
            {
              "command" : "build.sh 8940.gen.prod"
            }
          ]
        },
        {
          "clean" : [
            {
              "path" : "modem_proc/build/ms"
            },
            {
              "command" : "build.sh 8940.gen.prod -c"
            }
          ]
        }
      ]
    },
    "8940.genw3k.prod" : {
      "commands" : [
        {
          "build" : [
            {
              "path" : "modem_proc/build/ms"
            },
            {
              "command" : "build.sh 8940.genw3k.prod"
            }
          ]
        },
        {
          "clean" : [
            {
              "path" : "modem_proc/build/ms"
            },
            {
              "command" : "build.sh 8940.genw3k.prod -c"
            }
          ]
        }
      ]
    },
    "8952.gen.prod" : {
      "commands" : [
        {
          "build" : [
            {
              "path" : "modem_proc/build/ms"
            },
            {
              "command" : "build.sh 8952.gen.prod"
            }
          ]
        },
        {
          "clean" : [
            {
              "path" : "modem_proc/build/ms"
            },
            {
              "command" : "build.sh 8952.gen.prod -c"
            }
          ]
        }
      ]
    },
    "8952.gps.prod" : {
      "commands" : [
        {
          "build" : [
            {
              "path" : "modem_proc/build/ms"
            },
            {
              "command" : "build.sh 8952.gps.prod"
            }
          ]
        },
        {
          "clean" : [
            {
              "path" : "modem_proc/build/ms"
            },
            {
              "command" : "build.sh 8952.gps.prod -c"
            }
          ]
        }
      ]
    },
    "8953.gen.prod" : {
      "commands" : [
        {
          "build" : [
            {
              "path" : "modem_proc/build/ms"
            },
            {
              "command" : "build.sh 8953.gen.prod"
            }
          ]
        },
        {
          "clean" : [
            {
              "path" : "modem_proc/build/ms"
            },
            {
              "command" : "build.sh 8953.gen.prod -c"
            }
          ]
        }
      ]
    },
    "8953.genw3k.prod" : {
      "commands" : [
        {
          "build" : [
            {
              "path" : "modem_proc/build/ms"
            },
            {
              "command" : "build.sh 8953.genw3k.prod"
            }
          ]
        },
        {
          "clean" : [
            {
              "path" : "modem_proc/build/ms"
            },
            {
              "command" : "build.sh 8953.genw3k.prod -c"
            }
          ]
        }
      ]
    },
    "8953.gps.prod" : {
      "commands" : [
        {
          "build" : [
            {
              "path" : "modem_proc/build/ms"
            },
            {
              "command" : "build.sh 8953.gps.prod"
            }
          ]
        },
        {
          "clean" : [
            {
              "path" : "modem_proc/build/ms"
            },
            {
              "command" : "build.sh 8953.gps.prod -c"
            }
          ]
        }
      ]
    },
    "8976.gen.prod" : {
      "commands" : [
        {
          "build" : [
            {
              "path" : "modem_proc/build/ms"
            },
            {
              "command" : "build.sh 8976.gen.prod"
            }
          ]
        },
        {
          "clean" : [
            {
              "path" : "modem_proc/build/ms"
            },
            {
              "command" : "build.sh 8976.gen.prod -c"
            }
          ]
        }
      ]
    },
    "8976.gps.prod" : {
      "commands" : [
        {
          "build" : [
            {
              "path" : "modem_proc/build/ms"
            },
            {
              "command" : "build.sh 8976.gps.prod"
            }
          ]
        },
        {
          "clean" : [
            {
              "path" : "modem_proc/build/ms"
            },
            {
              "command" : "build.sh 8976.gps.prod -c"
            }
          ]
        }
      ]
    }
  }
}