<driver name="System">
   <global_def>
      <var_seq name="g_target_cfg" type=DALPROP_DATA_TYPE_UINT32_SEQ>
         8996, DAL_CONFIG_ARCH, end
      </var_seq>
   </global_def>
   <device id="0x0">
      <props name="NumSysWorkLoops" type=DALPROP_ATTR_TYPE_UINT32>
         0x0
      </props>
      <props name="DalEnv" type=DALPROP_ATTR_TYPE_UINT32>
         DALPROP_MOD_ENV_QCOM
      </props>
      <props name=DALPROP_TARGET_PROP_NAME type=DALPROP_ATTR_TYPE_UINT32_SEQ_PTR>
         g_target_cfg
      </props>
      <props name="GlbCtxtHWMutexNumber" type=DALPROP_ATTR_TYPE_UINT32>
         0x9
      </props>
   </device>
</driver>
<driver name="Timer">
   <device id=DALDEVICEID_TIMER>
      <props name="IsRemotable" type=DALPROP_ATTR_TYPE_UINT32>
         0x1
      </props>
   </device>
</driver>
<driver name="SystemCall">
   <device id=DALDEVICEID_SYSTEMCALL>
   </device>
</driver>
