<!--
  This XML file contains target specific information for IPC Router
  driver for targets using device config feature.
  Copyright (c) 2013 Qualcomm Technologies, Inc. All Rights Reserved.
  Qualcomm Technologies Proprietary and Confidential.
-->
<driver name="NULL">
  <device id="/dev/core/mproc/ipc_router">
    <props name="local_processor_id" type=DALPROP_ATTR_TYPE_UINT32>
      5
    </props>
  </device>
</driver>
