


ARM Macro Assembler    Page 1 


    1 00000000         ;*====*====*====*====*====*====*====*====*====*====*====
                       *====*====*====*====*
    2 00000000         ;
    3 00000000         ;             System Debug Image Initialization Routine
    4 00000000         ;
    5 00000000         ; GENERAL DESCRIPTION
    6 00000000         ; This file contains initialization code for the system_
                       debug image.
    7 00000000         ;       This performs a dump of the CPU core information
                        as well.
    8 00000000         ;
    9 00000000         ; Copyright 2014 by Qualcomm Technologies, Incorporated.
                       All Rights Reserved.
   10 00000000         ;*====*====*====*====*====*====*====*====*====*====*====
                       *====*====*====*====*
   11 00000000         ;*====*====*====*====*====*====*====*====*====*====*====
                       *====*====*====*====*
   12 00000000         ;
   13 00000000         ;                           EDIT HISTORY FOR FILE
   14 00000000         ;
   15 00000000         ; This section contains comments describing changes made
                        to the module.
   16 00000000         ; Notice that changes are listed in reverse chronologica
                       l order.
   17 00000000         ;
   18 00000000         ; when         who   what, where, why
   19 00000000         ; ----------   ---   -----------------------------------
                       ---------------------
   20 00000000         ; 07/22/2014   lm    Aligned with V1.1 cpu dump table st
                       ructure
   21 00000000         ; 06/13/2014   lm    Added get_cur_cluster_num API
   22 00000000         ; 03/13/2014   ck    Save r0 and r1 values that were sto
                       red by PBL 
   23 00000000         ; 03/03/2014   ck    Pull PS_HOLD high at start because 
                       PBL is not doing it
   24 00000000         ; 02/18/2014   ck    Removed duplicate 32 to 64 bit swit
                       ch logic
   25 00000000         ;                    Single copy is stored in SDI code s
                       pace and shared
   26 00000000         ; 02/06/2014   ck    Added A53 32 to 64 bit logic switch
                        logic 
   27 00000000         ; 01/02/2014   ck    Initial release for Bear family
   28 00000000         ;*====*====*====*====*====*====*====*====*====*====*====
                       *====*====*====*====*
   29 00000000         ;=======================================================
                       =====================
   30 00000000         ;
   31 00000000         ;                            MODULE INCLUDES
   32 00000000         ;
   33 00000000         ;=======================================================
                       =====================
   34 00000000         ;=======================================================
                       =====================
   35 00000000         ;
   36 00000000         ;                             MODULE DEFINES
   37 00000000         ;
   38 00000000         ;=======================================================
                       =====================
   39 00000000         ;



ARM Macro Assembler    Page 2 


   40 00000000 00000010 
                       Mode_USR
                               EQU              0x10
   41 00000000 00000011 
                       Mode_FIQ
                               EQU              0x11
   42 00000000 00000012 
                       Mode_IRQ
                               EQU              0x12
   43 00000000 00000013 
                       Mode_SVC
                               EQU              0x13
   44 00000000 00000016 
                       Mode_MON
                               EQU              0x16
   45 00000000 00000017 
                       Mode_ABT
                               EQU              0x17
   46 00000000 0000001A 
                       Mode_HYP
                               EQU              0x1A
   47 00000000 0000001B 
                       Mode_UND
                               EQU              0x1B
   48 00000000 0000001F 
                       Mode_SYS
                               EQU              0x1F
   49 00000000 00000080 
                       I_Bit   EQU              0x80
   50 00000000 00000040 
                       F_Bit   EQU              0x40
   51 00000000         ; Secure Configuration Register Bits
   52 00000000 00000001 
                       SCR_NS_BIT
                               EQU              0x01        ; Non-Secure (NS) b
                                                            it
   53 00000000 00000002 
                       SCR_IRQ_BIT
                               EQU              0x02        ; IRQ bit
   54 00000000 00000004 
                       SCR_FIQ_BIT
                               EQU              0x04        ; FIQ bit
   55 00000000 00000010 
                       SCR_FW_BIT
                               EQU              0x10        ; F Bit writable (F
                                                            W)
   56 00000000 00000020 
                       SCR_AW_BIT
                               EQU              0x20        ; A Bit writable (A
                                                            W)
   57 00000000         ;=======================================================
                       =====================
   58 00000000         ;
   59 00000000         ;                             MODULE IMPORTS
   60 00000000         ;
   61 00000000         ;=======================================================
                       =====================
   62 00000000         ; Import the external symbols that are referenced in thi
                       s module.



ARM Macro Assembler    Page 3 


   63 00000000                 IMPORT           sys_debug_undefined_c_handler
   64 00000000                 IMPORT           sys_debug_swi_c_handler
   65 00000000                 IMPORT           sys_debug_prefetch_abort_c_hand
ler
   66 00000000                 IMPORT           sys_debug_data_abort_c_handler
   67 00000000                 IMPORT           sys_debug_reserved_c_handler
   68 00000000                 IMPORT           sys_debug_irq_c_handler
   69 00000000                 IMPORT           sys_debug_fiq_c_handler
   70 00000000         ; Main Entry point of C code
   71 00000000                 IMPORT           sys_debug_main_ctl
   72 00000000         ;=======================================================
                       =====================
   73 00000000         ;                             MODULE EXPORTS
   74 00000000         ;=======================================================
                       =====================
   75 00000000                 EXPORT           get_cur_cluster_num
   76 00000000         ;=======================================================
                       =====================
   77 00000000         ;
   78 00000000         ;                             MODULE DATA AREA
   79 00000000         ;
   80 00000000         ;=======================================================
                       =====================
   81 00000000                 PRESERVE8
   82 00000000                 AREA             SYSTEM_DEBUG_VECTOR_TABLE, CODE
, READWRITE
   83 00000000                 CODE32
   84 00000000         unused_reset_vector
   85 00000000 00000000        DCD              0x00000000
   86 00000004         undefined_instruction_vector
   87 00000004 00000000        DCD              sys_debug_undefined_c_handler
   88 00000008         swi_vector
   89 00000008 00000000        DCD              sys_debug_swi_c_handler
   90 0000000C         prefetch_abort_vector
   91 0000000C 00000000        DCD              sys_debug_prefetch_abort_c_hand
ler
   92 00000010         data_abort_vector
   93 00000010 00000000        DCD              sys_debug_data_abort_c_handler
   94 00000014         reserved_vector
   95 00000014 00000000        DCD              sys_debug_reserved_c_handler
   96 00000018         irq_vector
   97 00000018 00000000        DCD              sys_debug_irq_c_handler
   98 0000001C         fiq_vector
   99 0000001C 00000000        DCD              sys_debug_fiq_c_handler
  100 00000020         ;=======================================================
                       ===================
  101 00000020         ;
  102 00000020         ;  get_cur_cluster_num
  103 00000020         ;
  104 00000020         ;=======================================================
                       ===================
  105 00000020         get_cur_cluster_num
  106 00000020 EE100FB0        mrc              p15, 0, r0, c0, c0, 5
  107 00000024 E2000CFF        and              r0, r0, #0xFF00 ; AFFL1 is the 
                                                            cluster number. 
  108 00000028 E1A00440        asr              r0, r0, #8
  109 0000002C E12FFF1E        bx               lr
  110 00000030         ;=======================================================
                       =====================



ARM Macro Assembler    Page 4 


  111 00000030         ; Qualcomm System Debug Image ENTRY POINT
  112 00000030         ;=======================================================
                       =====================
  113 00000030                 AREA             SYSTEM_DEBUG_ENTRY, CODE, READO
NLY, ALIGN=4
  114 00000000                 CODE32
  115 00000000         ; This function is written specifically to match the sys
                       _debug_cpu_ctxt_regs
  116 00000000         ; structure.  If the structure changes this function mus
                       t change.
  117 00000000         ; The structure has 64 bit values so each value must be 
                       stored individually.
  118 00000000         ; 
  119 00000000         sys_debug_entry
  120 00000000         ; We have two registers to play with  
  121 00000000         ; r0, r1 have been saved by the PBL
  122 00000000         ; Always start in monitor mode.
  123 00000000 E321F0D6        msr              CPSR_c, #Mode_MON:OR:I_Bit:OR:F
_Bit
  124 00000004         ; PS_HOLD needs to be pulled high to fix hardware issue
  125 00000004 E59F0160        ldr              r0, =((0x004a0000 + 0x0000b000)
 + 0x00000000)
  126 00000008 E3A01001        ldr              r1, =0x1
  127 0000000C E5801000        str              r1, [r0]
  128 00000010         ; Keep r0 as the base address of the structure and use r
                       1 as current address
  129 00000010 E59F0158        ldr              r0, =sys_debug_cpu_ctxt_base
  130 00000014 E1A01000        mov              r1, r0
  131 00000018         ; Store r2 - r12 taking into account the 64 bit structur
                       e
  132 00000018         ; r0 and r1 will be saved later.  These were stored by P
                       BL. 
  133 00000018 E2811008        add              r1, r1, #8
  134 0000001C E2811008        add              r1, r1, #8
  135 00000020 E5812000        str              r2, [r1]
  136 00000024 E2811008        add              r1, r1, #8
  137 00000028 E5813000        str              r3, [r1]
  138 0000002C E2811008        add              r1, r1, #8
  139 00000030 E5814000        str              r4, [r1]
  140 00000034 E2811008        add              r1, r1, #8
  141 00000038 E5815000        str              r5, [r1]
  142 0000003C E2811008        add              r1, r1, #8
  143 00000040 E5816000        str              r6, [r1]
  144 00000044 E2811008        add              r1, r1, #8
  145 00000048 E5817000        str              r7, [r1]
  146 0000004C E2811008        add              r1, r1, #8
  147 00000050 E5818000        str              r8, [r1]
  148 00000054 E2811008        add              r1, r1, #8
  149 00000058 E5819000        str              r9, [r1]
  150 0000005C E2811008        add              r1, r1, #8
  151 00000060 E581A000        str              r10, [r1]
  152 00000064 E2811008        add              r1, r1, #8
  153 00000068 E581B000        str              r11, [r1]
  154 0000006C E2811008        add              r1, r1, #8
  155 00000070 E581C000        str              r12, [r1]
  156 00000074 E2811008        add              r1, r1, #8
  157 00000078         ; Switch to SYS mode so we can get r13 and r14 from USR 
                       mode.
  158 00000078         ; SYS mode uses the same registers as USR but maintains 



ARM Macro Assembler    Page 5 


                       privliges.
  159 00000078 F102001F        cps              #Mode_SYS
  160 0000007C E581D000        str              r13, [r1]
  161 00000080 E2811008        add              r1, r1, #8
  162 00000084 E581E000        str              r14, [r1]
  163 00000088 E2811008        add              r1, r1, #8
  164 0000008C         ; HYP mode only exists in NS world.
  165 0000008C         ; Skipping collection of r13 HYP for now.
  166 0000008C E2811008        add              r1, r1, #8
  167 00000090         ; Store r14 and r13 for IRQ Mode
  168 00000090 F1020012        cps              #Mode_IRQ
  169 00000094 E581E000        str              r14, [r1]
  170 00000098 E2811008        add              r1, r1, #8
  171 0000009C E581D000        str              r13, [r1]
  172 000000A0 E2811008        add              r1, r1, #8
  173 000000A4         ; Store r14 and r13 for SVC Mode
  174 000000A4 F1020013        cps              #Mode_SVC
  175 000000A8 E581E000        str              r14, [r1]
  176 000000AC E2811008        add              r1, r1, #8
  177 000000B0 E581D000        str              r13, [r1]
  178 000000B4 E2811008        add              r1, r1, #8
  179 000000B8         ; Store r14 and r13 for ABT Mode
  180 000000B8 F1020017        cps              #Mode_ABT
  181 000000BC E581E000        str              r14, [r1]
  182 000000C0 E2811008        add              r1, r1, #8
  183 000000C4 E581D000        str              r13, [r1]
  184 000000C8 E2811008        add              r1, r1, #8
  185 000000CC         ; Store r14 and r13 for UND Mode
  186 000000CC F102001B        cps              #Mode_UND
  187 000000D0 E581E000        str              r14, [r1]
  188 000000D4 E2811008        add              r1, r1, #8
  189 000000D8 E581D000        str              r13, [r1]
  190 000000DC E2811008        add              r1, r1, #8
  191 000000E0         ; Store r8 - r14 for FIQ Mode
  192 000000E0 F1020011        cps              #Mode_FIQ
  193 000000E4 E5818000        str              r8, [r1]
  194 000000E8 E2811008        add              r1, r1, #8
  195 000000EC E5819000        str              r9, [r1]
  196 000000F0 E2811008        add              r1, r1, #8
  197 000000F4 E581A000        str              r10, [r1]
  198 000000F8 E2811008        add              r1, r1, #8
  199 000000FC E581B000        str              r11, [r1]
  200 00000100 E2811008        add              r1, r1, #8
  201 00000104 E581C000        str              r12, [r1]
  202 00000108 E2811008        add              r1, r1, #8
  203 0000010C E581D000        str              r13, [r1]
  204 00000110 E2811008        add              r1, r1, #8
  205 00000114 E581E000        str              r14, [r1]
  206 00000118 E2811008        add              r1, r1, #8
  207 0000011C         ; Skip the next entry in the struct.  This is PC and wil
                       l be filled in later
  208 0000011C E2811008        add              r1, r1, #8
  209 00000120         ; As CPSR doesn't get retained after a secure wdog bite 
                       /abnormal reset
  210 00000120         ; we dont need to update this cpsr field. cpsr field com
                       es into significance
  211 00000120         ; in case of non secure wdog bitewhere TZ updates this f
                       ield
  212 00000120 E2811008        add              r1, r1, #8



ARM Macro Assembler    Page 6 


  213 00000124         ; Store r13 and r14 for MON Mode
  214 00000124 F1020016        cps              #Mode_MON
  215 00000128 E581D000        str              r13, [r1]
  216 0000012C E2811008        add              r1, r1, #8
  217 00000130 E581E000        str              r14, [r1]
  218 00000134 E2811008        add              r1, r1, #8
  219 00000138         ; HYP mode only exists in NS world.
  220 00000138         ; Skipping collection of r14 HYP for now.
  221 00000138 E2811008        add              r1, r1, #8
  222 0000013C         ; Switch back to SVC Mode before continuing
  223 0000013C F1020013        cps              #Mode_SVC
  224 00000140         ; Save r0 and r1 that was stored by PBL
  225 00000140         ; r0 was stored to the Process id register
  226 00000140 EE1D2F50        MRC              p15, 0, r2, c13, c0, 2
  227 00000144         ; r1 was stored to TPIDRPRW
  228 00000144 EE1D3F90        MRC              p15, 0, r3, c13, c0, 4
  229 00000148         ; Reset structure pointer back to beginning 
  230 00000148 E1A01000        mov              r1, r0
  231 0000014C E5812000        str              r2, [r1]
  232 00000150 E2811008        add              r1, r1, #8
  233 00000154 E5813000        str              r3, [r1]
  234 00000158         ; Set the stack pointer
  235 00000158 E59FD014        ldr              r13, =sys_debug_cpu_stack_top
  236 0000015C         ; We have saved all the registers for this CPU.
  237 0000015C         ; Now we can branch to the main loop passing the ctxt st
                       ructure address
  238 0000015C         ; We will not return
  239 0000015C E59F5014        ldr              r5,  =sys_debug_main_ctl
  240 00000160 E12FFF35        blx              r5
  241 00000164         ; For safety 
  242 00000164 EBFFFFFF        bl               loophere    ; never returns, ke
                                                            ep lr in r14 for de
                                                            bug 
  243 00000168         loophere
  244 00000168 E12FFF1E        bx               r14
  245 0000016C         ;=======================================================
                       ================
  246 0000016C         ;
  247 0000016C         ;  Data for the module 
  248 0000016C         ;
  249 0000016C         ;=======================================================
                       ================
  250 0000016C 004AB000 
              00000000 
              00000000 
              00000000         AREA             SYSTEM_DEBUG_DATA , DATA, READW
RITE
  251 00000000         ; Allocate memory for sys_debug_cpu_ctxt_type
  252 00000000         ; Round up big so if structure changes it does not overf
                       low
  253 00000000 00 00 00 
              00 00 00 
              00 00 00 
              00 00 00 
              00 00 00 
              00 00 00 
              00 00 00 
              00 00 00 
              00 00 00 



ARM Macro Assembler    Page 7 


              00 00 00 
              00 00 00 
              00 00 00 
              00 00 00 
              00 00 00 
              00 00 00 
              00 00 00 
              00 00 00 
              00 00 00 
              00 00 00 
              00 00 00 
              00 00 00 
              00 00 00 
              00 00 00 
              00 00 00 
              00 00 00 
              00 00 00 
              00 00 00 
              00 00 00 
              00 00 00 
              00 00 00 
              00 00 00 
              00 00 00 
              00 00 00 
              00 00 00 
              00 00 00 
              00 00 00 
              00 00 00 
              00 00 00 
              00 00 00 
              00 00 00 
              00 00 00 
              00 00 00 
              00 00 00 
              00 00 00 
              00 00 00 
              00 00 00 
              00 00 00 
              00 00 00 
              00 00 00 
              00 00 00 
              00 00 00 
              00 00 00 
              00 00 00 
              00 00 00 
              00 00 00 
              00 00 00 
              00 00 00 
              00 00 00 
              00 00 00 
              00 00 00 
              00 00 00 
              00 00 00 
              00 00 00 
              00 00 00 
              00 00 00 
              00 00 00 
              00 00 00 
              00 00 00 



ARM Macro Assembler    Page 8 


              00 00 00 
              00 00 00 
              00 00 00 
              00 00 00 
              00 00 00 
              00 00 00 
              00 00 00 
              00 00 00 
              00 00 00 
              00 00 00 
              00 00 00 
              00 00 00 
              00 00 00 
              00 00 00 
              00 00 00 
              00 00 00 
              00 00 00 
              00 00 00 
              00 00 00 
              00 00 00 
              00 00 00 
              00 00 00 
              00 00 00 
              00 00 00 
              00 00 00 
              00 00 00 
              00 00 00 
              00 00 00 
              00 00 00 
              00 00 00 
              00 00 00 
              00 00 00 
              00 00 00 
              00 00 00 
              00 00 00 
              00 00 00 
              00 00 00 
              00 00 00 
              00 00 00 
              00 00 00 
              00 00 00 
              00 00 00 
              00 00 00 
              00 00 00 
              00 00 00 
              00 00 00 
              00 00 00 
              00 00 00 
              00 00 00 
              00 00 00 
              00 00 00 
              00 00 00 
              00 00 00 
              00 00 00 
              00 00 00 
              00 00 00 
              00 00 00 
              00 00 00 
              00 00 00 



ARM Macro Assembler    Page 9 


              00 00 00 
              00 00 00 
              00 00 00 
              00 00 00 
              00 00 00 
              00 00 00 
              00 00 00 
              00 00 00 
              00 00 00 
              00 00 00 
              00 00 00 
              00 00 00 
              00 00 00 
              00 00 00 
              00 00 00 
              00 00 00 
              00 00 00 
              00 00 00 
              00 00 00 
              00 00 00 
              00 00 00 
              00 00 00 
              00 00 00 
              00 00 00 
              00 00 00 
              00 00 00 
              00 00 00 
              00 00 00 
              00 00 00 
              00 00 00 
              00 00 00 
              00 00 00 
              00 00 00 
              00 00 00 
              00 00 00 
              00 00 00 
              00 00 00 
              00 00 00 
              00 00 00 
              00 00 00 
              00 00 00 
              00 00 00 
              00 00 00 
              00 00    sys_debug_cpu_ctxt_base
                               SPACE            0x200
  254 00000200         ; Alocate memory in RW data area for the stack 
  255 00000200 00 00 00 
              00 00 00 
              00 00 00 
              00 00 00 
              00 00 00 
              00 00 00 
              00 00 00 
              00 00 00 
              00 00 00 
              00 00 00 
              00 00 00 
              00 00 00 
              00 00 00 



ARM Macro Assembler    Page 10 


              00 00 00 
              00 00 00 
              00 00 00 
              00 00 00 
              00 00 00 
              00 00 00 
              00 00 00 
              00 00 00 
              00 00 00 
              00 00 00 
              00 00 00 
              00 00 00 
              00 00 00 
              00 00 00 
              00 00 00 
              00 00 00 
              00 00 00 
              00 00 00 
              00 00 00 
              00 00 00 
              00 00 00 
              00 00 00 
              00 00 00 
              00 00 00 
              00 00 00 
              00 00 00 
              00 00 00 
              00 00 00 
              00 00 00 
              00 00 00 
              00 00 00 
              00 00 00 
              00 00 00 
              00 00 00 
              00 00 00 
              00 00 00 
              00 00 00 
              00 00 00 
              00 00 00 
              00 00 00 
              00 00 00 
              00 00 00 
              00 00 00 
              00 00 00 
              00 00 00 
              00 00 00 
              00 00 00 
              00 00 00 
              00 00 00 
              00 00 00 
              00 00 00 
              00 00 00 
              00 00 00 
              00 00 00 
              00 00 00 
              00 00 00 
              00 00 00 
              00 00 00 
              00 00 00 



ARM Macro Assembler    Page 11 


              00 00 00 
              00 00 00 
              00 00 00 
              00 00 00 
              00 00 00 
              00 00 00 
              00 00 00 
              00 00 00 
              00 00 00 
              00 00 00 
              00 00 00 
              00 00 00 
              00 00 00 
              00 00 00 
              00 00 00 
              00 00 00 
              00 00 00 
              00 00 00 
              00 00    sys_debug_cpu_stack_bottom
                               SPACE            0x110
  256 00000310 00 00 00 
              00       sys_debug_cpu_stack_top
                               SPACE            0x4
  257 00000314                 END
Command Line: --cpu=7-A.security --apcs=/noswst/interwork --no_unaligned_access
 -o/local/mnt/workspace/CRMBuilds/BOOT.BF.3.3-00177-M8917LAAAANAZB-1_20160818_0
22933/b/boot_images/core/boot/secboot3/hw/build/ddr_debug_8917/a53/LAADANAZ/msm
8952/sys_debug.o -I/local/mnt/workspace/CRMBuilds/BOOT.BF.3.3-00177-M8917LAAAAN
AZB-1_20160818_022933/b/boot_images/core/boot/secboot3/hw/build -I/local/mnt/wo
rkspace/CRMBuilds/BOOT.BF.3.3-00177-M8917LAAAANAZB-1_20160818_022933/b/boot_ima
ges/build/cust -I. -I/local/mnt/workspace/CRMBuilds/BOOT.BF.3.3-00177-M8917LAAA
ANAZB-1_20160818_022933/b/boot_images/core/api/boot -I/local/mnt/workspace/CRMB
uilds/BOOT.BF.3.3-00177-M8917LAAAANAZB-1_20160818_022933/b/boot_images/core/api
/boot/qfprom -I/local/mnt/workspace/CRMBuilds/BOOT.BF.3.3-00177-M8917LAAAANAZB-
1_20160818_022933/b/boot_images/core/buses/api/spmi -I/local/mnt/workspace/CRMB
uilds/BOOT.BF.3.3-00177-M8917LAAAANAZB-1_20160818_022933/b/boot_images/core/bus
es/api/icb -I/local/mnt/workspace/CRMBuilds/BOOT.BF.3.3-00177-M8917LAAAANAZB-1_
20160818_022933/b/boot_images/core/buses/api/uart -I/local/mnt/workspace/CRMBui
lds/BOOT.BF.3.3-00177-M8917LAAAANAZB-1_20160818_022933/b/boot_images/core/buses
/api/i2c -I/local/mnt/workspace/CRMBuilds/BOOT.BF.3.3-00177-M8917LAAAANAZB-1_20
160818_022933/b/boot_images/core/api/dal -I/local/mnt/workspace/CRMBuilds/BOOT.
BF.3.3-00177-M8917LAAAANAZB-1_20160818_022933/b/boot_images/core/api/services -
I/local/mnt/workspace/CRMBuilds/BOOT.BF.3.3-00177-M8917LAAAANAZB-1_20160818_022
933/b/boot_images/core/api/storage -I/local/mnt/workspace/CRMBuilds/BOOT.BF.3.3
-00177-M8917LAAAANAZB-1_20160818_022933/b/boot_images/core/api/systemdrivers -I
/local/mnt/workspace/CRMBuilds/BOOT.BF.3.3-00177-M8917LAAAANAZB-1_20160818_0229
33/b/boot_images/core/api/systemdrivers/pmic -I/local/mnt/workspace/CRMBuilds/B
OOT.BF.3.3-00177-M8917LAAAANAZB-1_20160818_022933/b/boot_images/core/api/system
drivers/hwio/msm8917 -I/local/mnt/workspace/CRMBuilds/BOOT.BF.3.3-00177-M8917LA
AAANAZB-1_20160818_022933/b/boot_images/core/api/wiredconnectivity -I/local/mnt
/workspace/CRMBuilds/BOOT.BF.3.3-00177-M8917LAAAANAZB-1_20160818_022933/b/boot_
images/core/api/securemsm -I/local/mnt/workspace/CRMBuilds/BOOT.BF.3.3-00177-M8
917LAAAANAZB-1_20160818_022933/b/boot_images/core/securemsm/secboot/api -I/loca
l/mnt/workspace/CRMBuilds/BOOT.BF.3.3-00177-M8917LAAAANAZB-1_20160818_022933/b/
boot_images/core/api/kernel/libstd/stringl -I/local/mnt/workspace/CRMBuilds/BOO
T.BF.3.3-00177-M8917LAAAANAZB-1_20160818_022933/b/boot_images/core/api/securems
m/secimgauth -I/local/mnt/workspace/CRMBuilds/BOOT.BF.3.3-00177-M8917LAAAANAZB-
1_20160818_022933/b/boot_images/core/api/hwengines -I/local/mnt/workspace/CRMBu
ilds/BOOT.BF.3.3-00177-M8917LAAAANAZB-1_20160818_022933/b/boot_images/core/api/



ARM Macro Assembler    Page 12 


power -I/local/mnt/workspace/CRMBuilds/BOOT.BF.3.3-00177-M8917LAAAANAZB-1_20160
818_022933/b/boot_images/core/power/utils/inc -I/local/mnt/workspace/CRMBuilds/
BOOT.BF.3.3-00177-M8917LAAAANAZB-1_20160818_022933/b/boot_images/core/api/power
/cpr/rpm -I/local/mnt/workspace/CRMBuilds/BOOT.BF.3.3-00177-M8917LAAAANAZB-1_20
160818_022933/b/boot_images/core/boot/secboot3/src -I/local/mnt/workspace/CRMBu
ilds/BOOT.BF.3.3-00177-M8917LAAAANAZB-1_20160818_022933/b/boot_images/core/boot
/ddr/common -I/local/mnt/workspace/CRMBuilds/BOOT.BF.3.3-00177-M8917LAAAANAZB-1
_20160818_022933/b/boot_images/core/boot/ddr/hw/msm8917 -I/local/mnt/workspace/
CRMBuilds/BOOT.BF.3.3-00177-M8917LAAAANAZB-1_20160818_022933/b/boot_images/core
/boot/ddr/hw/phy -I/local/mnt/workspace/CRMBuilds/BOOT.BF.3.3-00177-M8917LAAAAN
AZB-1_20160818_022933/b/boot_images/core/boot/ddr/hw/controller -I/local/mnt/wo
rkspace/CRMBuilds/BOOT.BF.3.3-00177-M8917LAAAANAZB-1_20160818_022933/b/boot_ima
ges/core/boot/secboot3/hw/msm8917 -I/local/mnt/workspace/CRMBuilds/BOOT.BF.3.3-
00177-M8917LAAAANAZB-1_20160818_022933/b/boot_images/core/dal/src -I/local/mnt/
workspace/CRMBuilds/BOOT.BF.3.3-00177-M8917LAAAANAZB-1_20160818_022933/b/boot_i
mages/core/dal/config -I/local/mnt/workspace/CRMBuilds/BOOT.BF.3.3-00177-M8917L
AAAANAZB-1_20160818_022933/b/boot_images/core/services/utils/src -I/local/mnt/w
orkspace/CRMBuilds/BOOT.BF.3.3-00177-M8917LAAAANAZB-1_20160818_022933/b/boot_im
ages/core/storage/flash/src/dal -I/local/mnt/workspace/CRMBuilds/BOOT.BF.3.3-00
177-M8917LAAAANAZB-1_20160818_022933/b/boot_images/core/storage/flash/src/hal -
I/local/mnt/workspace/CRMBuilds/BOOT.BF.3.3-00177-M8917LAAAANAZB-1_20160818_022
933/b/boot_images/core/storage/flash/tools/inc -I/local/mnt/workspace/CRMBuilds
/BOOT.BF.3.3-00177-M8917LAAAANAZB-1_20160818_022933/b/boot_images/core/storage/
flash/inc -I/local/mnt/workspace/CRMBuilds/BOOT.BF.3.3-00177-M8917LAAAANAZB-1_2
0160818_022933/b/boot_images/core/storage/sdcc/src -I/local/mnt/workspace/CRMBu
ilds/BOOT.BF.3.3-00177-M8917LAAAANAZB-1_20160818_022933/b/boot_images/core/stor
age/sdcc/src/hal -I/local/mnt/workspace/CRMBuilds/BOOT.BF.3.3-00177-M8917LAAAAN
AZB-1_20160818_022933/b/boot_images/core/storage/sdcc/src/bsp -I/local/mnt/work
space/CRMBuilds/BOOT.BF.3.3-00177-M8917LAAAANAZB-1_20160818_022933/b/boot_image
s/core/storage/efs/inc -I/local/mnt/workspace/CRMBuilds/BOOT.BF.3.3-00177-M8917
LAAAANAZB-1_20160818_022933/b/boot_images/core/storage/hfat/inc -I/local/mnt/wo
rkspace/CRMBuilds/BOOT.BF.3.3-00177-M8917LAAAANAZB-1_20160818_022933/b/boot_ima
ges/core/storage/hotplug/inc -I/local/mnt/workspace/CRMBuilds/BOOT.BF.3.3-00177
-M8917LAAAANAZB-1_20160818_022933/b/boot_images/core/storage/tools/deviceprogra
mmer_ddr/src/firehose -I/local/mnt/workspace/CRMBuilds/BOOT.BF.3.3-00177-M8917L
AAAANAZB-1_20160818_022933/b/boot_images/core/systemdrivers/tlmm/inc -I/local/m
nt/workspace/CRMBuilds/BOOT.BF.3.3-00177-M8917LAAAANAZB-1_20160818_022933/b/boo
t_images/core/systemdrivers/tlmm/src -I/local/mnt/workspace/CRMBuilds/BOOT.BF.3
.3-00177-M8917LAAAANAZB-1_20160818_022933/b/boot_images/core/wiredconnectivity/
qhsusb/inc -I/local/mnt/workspace/CRMBuilds/BOOT.BF.3.3-00177-M8917LAAAANAZB-1_
20160818_022933/b/boot_images/core/wiredconnectivity/qusb/inc -I/local/mnt/work
space/CRMBuilds/BOOT.BF.3.3-00177-M8917LAAAANAZB-1_20160818_022933/b/boot_image
s/core/securemsm/cryptodrivers/ce/shared/inc -I/local/mnt/workspace/CRMBuilds/B
OOT.BF.3.3-00177-M8917LAAAANAZB-1_20160818_022933/b/boot_images/core/securemsm/
cryptodrivers/ce/test/inc -I/local/mnt/workspace/CRMBuilds/BOOT.BF.3.3-00177-M8
917LAAAANAZB-1_20160818_022933/b/boot_images/core/securemsm/cryptodrivers/prng/
shared/inc -I/local/mnt/workspace/CRMBuilds/BOOT.BF.3.3-00177-M8917LAAAANAZB-1_
20160818_022933/b/boot_images/core/securemsm/cryptodrivers/prng/test/inc -I/loc
al/mnt/workspace/CRMBuilds/BOOT.BF.3.3-00177-M8917LAAAANAZB-1_20160818_022933/b
/boot_images/core/securemsm/secdbgplcy/api -I/local/mnt/workspace/CRMBuilds/BOO
T.BF.3.3-00177-M8917LAAAANAZB-1_20160818_022933/b/boot_images/core/securemsm/cr
yptodrivers/prng/shared/src -I/local/mnt/workspace/CRMBuilds/BOOT.BF.3.3-00177-
M8917LAAAANAZB-1_20160818_022933/b/boot_images/core/api/securemsm/secboot -I/lo
cal/mnt/workspace/CRMBuilds/BOOT.BF.3.3-00177-M8917LAAAANAZB-1_20160818_022933/
b/boot_images/core/api/securemsm/seccfg -I/local/mnt/workspace/CRMBuilds/BOOT.B
F.3.3-00177-M8917LAAAANAZB-1_20160818_022933/b/boot_images/core/securemsm/secma
th/shared/inc -I/local/mnt/workspace/CRMBuilds/BOOT.BF.3.3-00177-M8917LAAAANAZB
-1_20160818_022933/b/boot_images/core/securemsm/fuseprov/chipset/msm8917/inc -I
/local/mnt/workspace/CRMBuilds/BOOT.BF.3.3-00177-M8917LAAAANAZB-1_20160818_0229



ARM Macro Assembler    Page 13 


33/b/boot_images/core/hwengines/mhi -I/local/mnt/workspace/CRMBuilds/BOOT.BF.3.
3-00177-M8917LAAAANAZB-1_20160818_022933/b/boot_images/core/hwengines/pcie -I/l
ocal/mnt/workspace/CRMBuilds/BOOT.BF.3.3-00177-M8917LAAAANAZB-1_20160818_022933
/b/boot_images/core/boot/secboot3/hw/msm8917/sbl1 --list=/local/mnt/workspace/C
RMBuilds/BOOT.BF.3.3-00177-M8917LAAAANAZB-1_20160818_022933/b/boot_images/core/
boot/secboot3/hw/build/ddr_debug_8917/a53/LAADANAZ/msm8952/sys_debug.o.lst --si
telicense /local/mnt/workspace/CRMBuilds/BOOT.BF.3.3-00177-M8917LAAAANAZB-1_201
60818_022933/b/boot_images/core/boot/secboot3/hw/build/ddr_debug_8917/a53/LAADA
NAZ/msm8952/sys_debug.o.i
