<driver name="NULL">
 <device id="/statichashes/AlacDecoderModule.so.1">
  <props name="num_segments" type=DALPROP_ATTR_TYPE_UINT32>3</props>
  <props name="hash" type=DALPROP_ATTR_TYPE_BYTE_SEQ>0xbe, 0x8d, 0x71, 0x16, 0x65, 0x41, 0xca, 0x40, 0xbc, 0x32, 0x0, 0x85, 0x63, 0x2f, 0xc6, 0xca, 0x52, 0x76, 0xc1, 0x73, 0x88, 0xfb, 0x21, 0x5d, 0x51, 0x84, 0x26, 0x4e, 0xc2, 0xe4, 0xeb, 0xf6, 0xcd, 0x23, 0x56, 0x7, 0x91, 0xd6, 0xe6, 0x7e, 0x48, 0xb6, 0xf1, 0x5a, 0x9e, 0x65, 0x71, 0xc9, 0xcf, 0xe5, 0x4c, 0xec, 0x5, 0xa0, 0xea, 0xd5, 0xf2, 0x8d, 0xfd, 0x44, 0xcb, 0x3a, 0x8a, 0x56, 0x9, 0x8c, 0x62, 0x85, 0xa5, 0xd3, 0x48, 0x2f, 0x6b, 0xa8, 0x67, 0x75, 0x10, 0x23, 0xb5, 0xbe, 0xe, 0xa, 0x85, 0xa4, 0xae, 0xb9, 0x54, 0x1a, 0xeb, 0xa1, 0xbd, 0x35, 0xc7, 0xba, 0x8b, 0x34, end</props>
 </device>
</driver>
