<driver name="NULL">
 <device id="/statichashes/ApeDecoderModule.so.1">
  <props name="num_segments" type=DALPROP_ATTR_TYPE_UINT32>3</props>
  <props name="hash" type=DALPROP_ATTR_TYPE_BYTE_SEQ>0xae, 0x15, 0xc4, 0x1a, 0x4a, 0xbf, 0x85, 0x36, 0xb9, 0xd1, 0xaf, 0xb, 0x41, 0x16, 0x3c, 0xec, 0x2d, 0x4c, 0x3, 0x69, 0x26, 0x7c, 0x43, 0xea, 0x15, 0x5c, 0x32, 0xbc, 0xb0, 0x20, 0x9, 0xdb, 0xf8, 0x64, 0x45, 0x36, 0xd4, 0x2e, 0x47, 0xec, 0x35, 0x25, 0xe7, 0x1, 0xfd, 0x3f, 0x2d, 0x15, 0x6c, 0x92, 0x49, 0xae, 0x7a, 0x99, 0xee, 0xd2, 0x41, 0x91, 0xdc, 0x47, 0x65, 0x22, 0x80, 0x8f, 0xf5, 0x97, 0x2c, 0xdf, 0x6a, 0x18, 0xc1, 0x2b, 0x8e, 0x18, 0x89, 0xad, 0x85, 0xe8, 0x78, 0xf7, 0x9e, 0x71, 0x39, 0x6d, 0x4, 0xf7, 0x2a, 0x40, 0x22, 0x99, 0x93, 0xe5, 0xe1, 0x2c, 0x53, 0x50, end</props>
 </device>
</driver>
