<driver name="NULL">
 <device id="/statichashes/DolbyMobileModule.so.1">
  <props name="num_segments" type=DALPROP_ATTR_TYPE_UINT32>3</props>
  <props name="hash" type=DALPROP_ATTR_TYPE_BYTE_SEQ>0x7e, 0x5a, 0x81, 0x22, 0x10, 0x41, 0x17, 0x61, 0x4c, 0x31, 0x31, 0x9c, 0xbd, 0x14, 0x30, 0xa9, 0x8c, 0xbc, 0x18, 0x75, 0xd2, 0x8, 0x95, 0x20, 0x61, 0xa7, 0xe5, 0x3c, 0x38, 0xd8, 0x86, 0x89, 0x3f, 0x65, 0x61, 0x92, 0xe0, 0x3d, 0xb8, 0x24, 0x99, 0x92, 0x23, 0xcc, 0x2d, 0x30, 0x0, 0x2e, 0x9d, 0x83, 0xe3, 0x3d, 0x6a, 0x95, 0x1d, 0x80, 0xa4, 0xa, 0xb2, 0xd7, 0x4f, 0xb8, 0xae, 0xf0, 0x39, 0xd4, 0x2f, 0xdc, 0xdb, 0xcf, 0x9b, 0xef, 0x98, 0x2, 0x50, 0xff, 0xfe, 0xce, 0x12, 0xc3, 0x51, 0xe9, 0x31, 0x4, 0x7e, 0x57, 0x52, 0xe0, 0x51, 0xc9, 0x5c, 0xf9, 0xbd, 0x31, 0xf8, 0xaa, end</props>
 </device>
</driver>
