<driver name="NULL">
 <device id="/statichashes/DTS_HPX_MODULE.so.1">
  <props name="num_segments" type=DALPROP_ATTR_TYPE_UINT32>3</props>
  <props name="hash" type=DALPROP_ATTR_TYPE_BYTE_SEQ>0x6a, 0x1d, 0x75, 0xc9, 0x43, 0xb2, 0x88, 0xb0, 0x2d, 0xfc, 0xe4, 0x1c, 0x72, 0x7f, 0xcb, 0xc2, 0xec, 0x54, 0xe7, 0xee, 0xa3, 0x5c, 0x1e, 0x1b, 0xb1, 0x61, 0xc5, 0xb4, 0x35, 0x25, 0x9d, 0x1b, 0xd3, 0xd0, 0x22, 0x89, 0x4b, 0xbd, 0x95, 0x84, 0xcd, 0xfb, 0x67, 0x83, 0xb8, 0xd6, 0x5c, 0x56, 0x2e, 0x79, 0x5f, 0xcb, 0xef, 0x69, 0xd1, 0x4f, 0xed, 0xd0, 0xae, 0x7b, 0xbb, 0x98, 0x7b, 0xc6, 0xad, 0x3, 0x41, 0x4f, 0x52, 0x57, 0xc, 0x1d, 0xeb, 0xc, 0x70, 0xae, 0xcd, 0x2f, 0x27, 0x11, 0xd9, 0xde, 0x45, 0xe2, 0x6, 0x92, 0xbb, 0x9c, 0x92, 0x1, 0x47, 0x4, 0x98, 0xd6, 0xf7, 0x46, end</props>
 </device>
</driver>
