<driver name="NULL">
 <device id="/statichashes/fluence_voiceplus_module.so.1">
  <props name="num_segments" type=DALPROP_ATTR_TYPE_UINT32>6</props>
  <props name="hash" type=DALPROP_ATTR_TYPE_BYTE_SEQ>0xd1, 0xe9, 0x3e, 0x70, 0xde, 0x71, 0x77, 0x9f, 0xb2, 0x3e, 0xe0, 0xc7, 0x71, 0x28, 0xa3, 0xe6, 0x48, 0xb9, 0x50, 0x63, 0x62, 0xcc, 0xd6, 0x51, 0x57, 0x23, 0xe4, 0x91, 0x15, 0xf8, 0x3c, 0x47, 0xbb, 0xcd, 0xbd, 0xe5, 0x44, 0xcb, 0x36, 0xdf, 0x59, 0x7, 0x13, 0x91, 0x47, 0x2, 0xf1, 0xd7, 0xa9, 0xb4, 0xf0, 0x8d, 0x94, 0x26, 0x53, 0x42, 0x8a, 0xcc, 0x9f, 0x3b, 0xd7, 0xef, 0x6a, 0x5, 0x6d, 0xa6, 0xce, 0x33, 0x4a, 0xe4, 0xea, 0x71, 0xb1, 0xf9, 0x7c, 0x54, 0xfc, 0xa3, 0xdb, 0xe, 0x90, 0x83, 0xda, 0x1, 0x9b, 0x27, 0x75, 0xb8, 0xd7, 0xa0, 0xcf, 0xff, 0x4b, 0xfa, 0x61, 0x73, 0xb0, 0x81, 0x3, 0x9c, 0x8a, 0x75, 0x4e, 0xc7, 0xef, 0x2f, 0x5e, 0x51, 0x39, 0x7e, 0x38, 0x3c, 0x67, 0x87, 0x10, 0x70, 0x7, 0xf5, 0xcc, 0xb5, 0x43, 0x3e, 0xb9, 0x38, 0xc4, 0x63, 0x8f, 0xc6, 0xe3, 0xae, 0x53, 0xb4, 0x24, 0xeb, 0xa0, 0xc1, 0x4, 0x64, 0xe3, 0x48, 0x0, 0x45, 0xb, 0xc, 0x44, 0xe3, 0x4d, 0xec, 0xf4, 0xfa, 0xdb, 0x89, 0x92, 0x30, 0x1c, 0xdb, 0xe8, 0x52, 0x23, 0xf7, 0xe3, 0xb0, 0xc4, 0x42, 0x98, 0xfc, 0x1c, 0x14, 0x9a, 0xfb, 0xf4, 0xc8, 0x99, 0x6f, 0xb9, 0x24, 0x27, 0xae, 0x41, 0xe4, 0x64, 0x9b, 0x93, 0x4c, 0xa4, 0x95, 0x99, 0x1b, 0x78, 0x52, 0xb8, 0x55, end</props>
 </device>
</driver>
