<driver name="NULL">
 <device id="/statichashes/libFastRPC_UTF_Forward_skel.so">
  <props name="num_segments" type=DALPROP_ATTR_TYPE_UINT32>6</props>
  <props name="hash" type=DALPROP_ATTR_TYPE_BYTE_SEQ>0xbd, 0x3a, 0x35, 0x28, 0xc7, 0x46, 0xb9, 0x51, 0x2d, 0x86, 0x5d, 0x2a, 0xba, 0xe0, 0xf0, 0x71, 0xfa, 0xad, 0x55, 0x4f, 0x6c, 0xed, 0x8c, 0x4d, 0x54, 0xb2, 0x7a, 0x78, 0x67, 0xfa, 0x3c, 0xe3, 0xff, 0xa0, 0xee, 0x2, 0xda, 0x13, 0xba, 0x82, 0xd1, 0xa8, 0x93, 0x80, 0x6b, 0x1, 0xeb, 0xb1, 0x47, 0x52, 0x2c, 0xd, 0x78, 0xd4, 0x35, 0x18, 0x4d, 0x23, 0xf3, 0xc4, 0xa9, 0x8b, 0x92, 0x4f, 0xda, 0x65, 0xd3, 0x9d, 0xe7, 0xe1, 0xe4, 0x71, 0xa7, 0x6e, 0x58, 0xec, 0x4a, 0x48, 0x9b, 0xf6, 0xea, 0x75, 0xc2, 0x83, 0x76, 0xb9, 0xdc, 0x6a, 0x12, 0x9d, 0x93, 0x5f, 0x99, 0xe4, 0xf0, 0x12, 0x3f, 0xf4, 0xd8, 0x7e, 0x7f, 0x77, 0x6c, 0x95, 0x2c, 0xbc, 0x2e, 0x5e, 0x18, 0x95, 0xb8, 0xf5, 0x99, 0x5d, 0x63, 0x28, 0x86, 0x62, 0xfc, 0x32, 0x5e, 0xda, 0xc7, 0x9f, 0x8a, 0x22, 0x30, 0xc, 0xd7, 0x7, 0x0, 0x74, 0xb, 0x89, 0xa, 0x66, 0x7c, 0xca, 0xb1, 0x5d, 0x36, 0xea, 0xa2, 0x7, 0x3b, 0x87, 0x5e, 0xd2, 0x7c, 0xd0, 0xda, 0xd5, 0x13, 0x24, 0x6e, 0x61, 0x4f, 0x5d, 0x2d, 0xac, 0xe3, 0xb0, 0xc4, 0x42, 0x98, 0xfc, 0x1c, 0x14, 0x9a, 0xfb, 0xf4, 0xc8, 0x99, 0x6f, 0xb9, 0x24, 0x27, 0xae, 0x41, 0xe4, 0x64, 0x9b, 0x93, 0x4c, 0xa4, 0x95, 0x99, 0x1b, 0x78, 0x52, 0xb8, 0x55, end</props>
 </device>
</driver>
