<driver name="NULL">
 <device id="/statichashes/SrsTruMediaModule.so.1">
  <props name="num_segments" type=DALPROP_ATTR_TYPE_UINT32>3</props>
  <props name="hash" type=DALPROP_ATTR_TYPE_BYTE_SEQ>0x7c, 0xf9, 0xf7, 0x38, 0xdd, 0xcc, 0xb4, 0x59, 0xc8, 0xb4, 0xaa, 0x6f, 0x7a, 0xd1, 0xea, 0x3d, 0xa2, 0xbb, 0x70, 0x2f, 0xf7, 0x75, 0x74, 0x24, 0xd6, 0xc3, 0xf8, 0xda, 0xa0, 0x13, 0x32, 0x6c, 0x50, 0x3d, 0xe7, 0x3e, 0x40, 0xe1, 0x3e, 0xbb, 0x1f, 0xbc, 0x6c, 0x11, 0x40, 0x5d, 0x94, 0xa2, 0xe5, 0xc1, 0x7a, 0x10, 0xdb, 0xa1, 0xbd, 0xb0, 0xa, 0x1b, 0xa3, 0x4b, 0xd3, 0x7c, 0x72, 0x2c, 0x25, 0xe2, 0xee, 0xbd, 0x1a, 0xa0, 0xc3, 0x1c, 0x97, 0x81, 0xad, 0x71, 0xdf, 0x3f, 0x2, 0x13, 0xb7, 0x10, 0x59, 0xf5, 0x77, 0xe1, 0x80, 0x79, 0x17, 0x4e, 0xf, 0x9e, 0xfb, 0x3b, 0x7b, 0x1b, end</props>
 </device>
</driver>
