<driver name="HWIO">
  <device id=DALDEVICEID_HWIO>
    <props name="BaseMap" type=DALPROP_ATTR_TYPE_STRUCT_PTR>
      HWIOBaseMap
    </props>
     <props name="IsRemotable" type=DALPROP_ATTR_TYPE_UINT32>
       0x1
     </props>
  </device>
</driver>
