<driver name="NULL">
  <global_def>
  </global_def>
  <device id="/core/hwengines/bam">
    <props name="bam_tgt_config" type=DALPROP_ATTR_TYPE_STRUCT_PTR>
         bam_tgt_config
    </props>
  </device>
 </driver>
