<driver name="STMTrace">
  <device id=DALDEVICEID_STM_TRACE>
 <props name="stm_sp_base_addr" type=DALPROP_ATTR_TYPE_UINT32>
     0x08000000
    </props>
 <props name="stm_base_port" type=DALPROP_ATTR_TYPE_UINT32>
      3968
    </props>
 <props name="stm_num_ports" type=DALPROP_ATTR_TYPE_UINT32>
      128
    </props>
  </device>
</driver>
