<driver name="NULL">
 <device id="/statichashes/AudioSphereModule.so.1">
  <props name="num_segments" type=DALPROP_ATTR_TYPE_UINT32>3</props>
  <props name="hash" type=DALPROP_ATTR_TYPE_BYTE_SEQ>0x47, 0x7b, 0x4f, 0x30, 0xda, 0x8d, 0x9a, 0xe1, 0x33, 0x93, 0xd7, 0x6, 0x55, 0xd3, 0xde, 0x7, 0x2e, 0xaa, 0xb4, 0x32, 0x61, 0xff, 0x6, 0xaf, 0xe8, 0x43, 0xa8, 0x3, 0x9c, 0x9, 0xbc, 0x12, 0x56, 0x82, 0xf, 0xe4, 0xb5, 0x8, 0x7d, 0xd4, 0xb7, 0x2e, 0x54, 0xd5, 0x78, 0x13, 0x9b, 0x2c, 0xd6, 0x0, 0xba, 0xa3, 0x4e, 0xb0, 0xd1, 0x67, 0x2c, 0xe4, 0xa, 0x73, 0xe, 0x14, 0xb2, 0x56, 0x5f, 0x6e, 0xd2, 0x8f, 0xe5, 0x9f, 0x6e, 0x63, 0x83, 0x57, 0xcf, 0x1e, 0xc7, 0xa0, 0xc8, 0xd7, 0x1b, 0x1a, 0xa7, 0x9a, 0x9f, 0x13, 0x73, 0x39, 0x11, 0x95, 0x53, 0x81, 0x48, 0xb9, 0xd8, 0x6d, end</props>
 </device>
</driver>
