<driver name="NULL">
 <device id="/statichashes/DolbyMobileModule.so.1">
  <props name="num_segments" type=DALPROP_ATTR_TYPE_UINT32>3</props>
  <props name="hash" type=DALPROP_ATTR_TYPE_BYTE_SEQ>0xcd, 0x4a, 0x6e, 0x8d, 0x76, 0xfe, 0xc5, 0xd8, 0xfa, 0xfd, 0xdd, 0x20, 0xed, 0x7f, 0xc9, 0x84, 0x7, 0x9b, 0x97, 0xfa, 0x9, 0xc5, 0x8d, 0xcb, 0x63, 0xdb, 0xa6, 0x48, 0x16, 0x86, 0x85, 0x9, 0x3f, 0x65, 0x61, 0x92, 0xe0, 0x3d, 0xb8, 0x24, 0x99, 0x92, 0x23, 0xcc, 0x2d, 0x30, 0x0, 0x2e, 0x9d, 0x83, 0xe3, 0x3d, 0x6a, 0x95, 0x1d, 0x80, 0xa4, 0xa, 0xb2, 0xd7, 0x4f, 0xb8, 0xae, 0xf0, 0x39, 0xd4, 0x2f, 0xdc, 0xdb, 0xcf, 0x9b, 0xef, 0x98, 0x2, 0x50, 0xff, 0xfe, 0xce, 0x12, 0xc3, 0x51, 0xe9, 0x31, 0x4, 0x7e, 0x57, 0x52, 0xe0, 0x51, 0xc9, 0x5c, 0xf9, 0xbd, 0x31, 0xf8, 0xaa, end</props>
 </device>
</driver>
