<driver name="NULL">
 <device id="/statichashes/fastrpc_shell_0_debug">
  <props name="num_segments" type=DALPROP_ATTR_TYPE_UINT32>8</props>
  <props name="hash" type=DALPROP_ATTR_TYPE_BYTE_SEQ>0x7a, 0x67, 0x9e, 0xfd, 0x6d, 0xc8, 0x9d, 0xb7, 0xe, 0x23, 0x1d, 0x3e, 0xcf, 0x2, 0x5b, 0x23, 0x5, 0xce, 0x2b, 0x2b, 0x7, 0x45, 0x69, 0x25, 0x28, 0xda, 0xeb, 0x87, 0x5c, 0x81, 0x55, 0x5b, 0xea, 0x7c, 0x8b, 0xab, 0xe7, 0xcc, 0x92, 0x94, 0x3d, 0x48, 0xd7, 0xe1, 0x62, 0xc1, 0x2d, 0x90, 0xdf, 0x94, 0x40, 0x4f, 0x9c, 0x60, 0xf2, 0x71, 0xf8, 0xed, 0x1b, 0xda, 0x95, 0x47, 0xd8, 0x50, 0x8f, 0x94, 0x44, 0x44, 0x5c, 0x92, 0xe7, 0xa7, 0x22, 0xd5, 0x82, 0x14, 0xc2, 0xdc, 0x9d, 0xa0, 0xc3, 0x1e, 0x9b, 0x6d, 0x29, 0xda, 0x0, 0x31, 0xcb, 0x89, 0x3f, 0x3d, 0x39, 0x19, 0xf4, 0xbf, 0x3d, 0xda, 0x87, 0x87, 0x17, 0x51, 0x59, 0x35, 0xc, 0xf3, 0xd1, 0xd1, 0x88, 0x77, 0xf0, 0x34, 0x8d, 0x69, 0x55, 0x43, 0x80, 0x34, 0x98, 0x84, 0x81, 0x42, 0xb4, 0x58, 0x48, 0xb5, 0x76, 0x5b, 0xfe, 0xd3, 0xc4, 0x9e, 0x51, 0x2b, 0xe, 0xce, 0xad, 0x7e, 0x5d, 0x2e, 0xac, 0x97, 0xc4, 0x4d, 0x99, 0x1a, 0xbd, 0x32, 0xf7, 0xb8, 0x2d, 0x2f, 0xc0, 0x28, 0x35, 0x61, 0x97, 0xc9, 0x2c, 0x90, 0x86, 0xc8, 0x5b, 0xe4, 0x19, 0xec, 0x8b, 0x19, 0xae, 0x37, 0xc2, 0xd6, 0x8b, 0xe6, 0xc4, 0x5b, 0xab, 0xc7, 0x30, 0x40, 0x54, 0xdf, 0x47, 0xe4, 0xaa, 0xb6, 0x68, 0x9, 0x49, 0xbc, 0x4f, 0x1a, 0x6b, 0xfc, 0x94, 0x2f, 0x1f, 0xda, 0xdc, 0x33, 0x66, 0x50, 0x8c, 0x6d, 0x7e, 0x76, 0xdd, 0xb9, 0x93, 0x8d, 0xc6, 0xa4, 0x33, 0x32, 0x21, 0x5, 0x70, 0xce, 0x1f, 0xbb, 0x34, 0xbc, 0xaf, 0xc8, 0xe3, 0xb0, 0xc4, 0x42, 0x98, 0xfc, 0x1c, 0x14, 0x9a, 0xfb, 0xf4, 0xc8, 0x99, 0x6f, 0xb9, 0x24, 0x27, 0xae, 0x41, 0xe4, 0x64, 0x9b, 0x93, 0x4c, 0xa4, 0x95, 0x99, 0x1b, 0x78, 0x52, 0xb8, 0x55, end</props>
 </device>
</driver>
