<driver name="NULL">
 <device id="/statichashes/SAPlusCmnModule.so.1">
  <props name="num_segments" type=DALPROP_ATTR_TYPE_UINT32>3</props>
  <props name="hash" type=DALPROP_ATTR_TYPE_BYTE_SEQ>0x87, 0xc3, 0x85, 0xd0, 0xd6, 0x5f, 0x1, 0x79, 0xea, 0xc8, 0xe9, 0x5b, 0xdb, 0xcc, 0x20, 0x33, 0x11, 0x1d, 0x9f, 0xb5, 0x63, 0xc8, 0xd1, 0x60, 0x51, 0xef, 0x92, 0xf, 0x45, 0x0, 0x2d, 0x38, 0x97, 0x39, 0xf5, 0xe2, 0xba, 0x79, 0x87, 0xdb, 0x36, 0x97, 0x66, 0xc9, 0xd5, 0xf2, 0xba, 0x60, 0x6f, 0xb8, 0xb7, 0x45, 0x78, 0xdf, 0x3b, 0xa7, 0x30, 0x16, 0xb1, 0x45, 0x9, 0x62, 0xbd, 0x22, 0xe1, 0xfe, 0xe6, 0x4a, 0xad, 0x24, 0x2b, 0xfe, 0x57, 0xeb, 0x34, 0xe4, 0xb3, 0xe3, 0x48, 0x87, 0x99, 0xd9, 0x20, 0xed, 0x5b, 0xec, 0xf5, 0x2f, 0x34, 0xdf, 0xb2, 0x37, 0x79, 0x7c, 0x95, 0x85, end</props>
 </device>
</driver>
