<driver name="NULL">
 <device id="/statichashes/VorbisDecoderModule.so.1">
  <props name="num_segments" type=DALPROP_ATTR_TYPE_UINT32>3</props>
  <props name="hash" type=DALPROP_ATTR_TYPE_BYTE_SEQ>0x8a, 0xb9, 0xd2, 0xc4, 0x30, 0x5e, 0xed, 0xe3, 0x52, 0xa3, 0x2f, 0x5, 0xb8, 0x45, 0x51, 0x6d, 0xb5, 0x1b, 0xe, 0x5, 0x1a, 0xe8, 0x5e, 0xce, 0xc4, 0x53, 0x2b, 0x37, 0xc3, 0x97, 0x77, 0x96, 0xe4, 0x3c, 0xc9, 0x25, 0xbd, 0x8a, 0xdb, 0xea, 0x16, 0x3, 0x5f, 0xb8, 0x7c, 0xef, 0xac, 0x14, 0x74, 0xf, 0xa2, 0xc1, 0x60, 0xa2, 0xc6, 0xb2, 0xab, 0x36, 0x30, 0x55, 0x91, 0x89, 0xda, 0x90, 0xf8, 0x2b, 0xf1, 0x5d, 0x55, 0xc2, 0x14, 0xb5, 0x76, 0xb0, 0xf7, 0x24, 0xb5, 0x7f, 0x79, 0x11, 0x83, 0x80, 0x9f, 0x3b, 0x64, 0xf2, 0xa0, 0x90, 0x43, 0xb4, 0xb5, 0x9e, 0x81, 0xd1, 0x92, 0x72, end</props>
 </device>
</driver>
