<driver name="NULL">
 <device id="/statichashes/WmaProDecoderModule.so.1">
  <props name="num_segments" type=DALPROP_ATTR_TYPE_UINT32>3</props>
  <props name="hash" type=DALPROP_ATTR_TYPE_BYTE_SEQ>0x96, 0x94, 0x15, 0x61, 0x30, 0xec, 0xe0, 0x1b, 0xbd, 0x65, 0x36, 0x9d, 0x85, 0x9f, 0xac, 0xe5, 0xcd, 0xab, 0xae, 0xe4, 0xd7, 0xaf, 0xdb, 0xf8, 0x38, 0x36, 0xd3, 0xd1, 0x9b, 0xa0, 0xaf, 0xd5, 0xed, 0xad, 0x68, 0xc5, 0x74, 0x66, 0x23, 0xee, 0x8b, 0xc9, 0xad, 0x37, 0x55, 0xae, 0xfd, 0x63, 0xbb, 0xe0, 0x88, 0xcf, 0x93, 0xd1, 0x79, 0xa1, 0xbd, 0x91, 0x96, 0xdd, 0xda, 0x55, 0xf8, 0x7f, 0xc, 0xc9, 0x84, 0xed, 0xc7, 0xd1, 0xd, 0xd5, 0x83, 0x50, 0x89, 0xda, 0xe0, 0x87, 0x78, 0xf1, 0xe0, 0x7c, 0xda, 0xbe, 0xc3, 0xd5, 0x55, 0x92, 0x3e, 0xec, 0xe, 0xf8, 0xe2, 0x38, 0x37, 0x3, end</props>
 </device>
</driver>
