<driver name="TLMM">
<global_def>
  <var_seq name="tlmm_port_cfg" type=DALPROP_DATA_TYPE_UINT32_SEQ>
   20,  0x0010b000, 0x10000, 0x10000, 0x0000,
   21, 0x0010b000, 0x20000, 0x20000, 0x0000,
   0xFFFFFFFF, 0, 0, 0, 0,
   end
  </var_seq>
  <var_seq name="DALTLMMBSP_LowPowerCfg" type=DALPROP_DATA_TYPE_UINT32_SEQ>
      0  | 0   | 0x400000 | 0x0,
      0  | 0   | 0x400000 | 0x0,
      0  | 0   | 0x400000 | 0x0,
      0  | 0   | 0x400000 | 0x0,
      0  | 0   | 0x400000 | 0x0,
      0  | 0x8000 | 0x400000 | 0x0,
      0  | 0x8000 | 0x400000 | 0x0,
      0  | 0x8000 | 0x400000 | 0x0,
      0  | 0x8000 | 0x400000 | 0x0,             
      0  | 0   | 0x400000 | 0x0,             
      0  | 0   | 0x400000 | 0x0,
      0  | 0   | 0x400000 | 0x0,
      0  | 0   | 0x400000 | 0x0,
      0  | 0   | 0x600000 | 0x0,
      0  | 0x8000 | 0x400000 | 0x0,
      0  | 0x8000 | 0x400000 | 0x0,
      0  | 0   | 0x400000 | 0x0,
      0  | 0x18000   | 0x400000 | 0x0,
      0  | 0   | 0x400000 | 0x0,
      0  | 0   | 0x400000 | 0x0,
      0  | 0x8000 | 0x400000 | 0x0,
      0  | 0x18000   | 0x400000 | 0x0,
      0  | 0x8000 | 0x400000 | 0x0,
      0  | 0x8000 | 0x400000 | 0x0,
      0  | 0x8000 | 0x400000 | 0x0,
      0x4000 | 0   | 0x600000 | 0x0,
      0  | 0x8000 | 0x400000 | 0x0,
      0  | 0x8000 | 0x400000 | 0x0,
      0  | 0x8000 | 0x400000 | 0x0,
      0  | 0   | 0x400000 | 0x0,
      0  | 0   | 0x400000 | 0x0,
      0  | 0x8000 | 0x400000 | 0x0,
      0  | 0x8000 | 0x400000 | 0x0,
      0  | 0x8000 | 0x400000 | 0x0,
      0  | 0x8000 | 0x400000 | 0x0,
      0x4000 | 0   | 0x400000 | 0x0,
      0x4000 | 0   | 0x400000 | 0x0,
      0x4000 | 0   | 0x400000 | 0x0,
      0  | 0x18000   | 0x400000 | 0x0,
      0  | 0x8000 | 0x400000 | 0x0,
      0  | 0x8000 | 0x400000 | 0x0,
      0  | 0x8000 | 0x400000 | 0x0,
      0  | 0x8000 | 0x400000 | 0x0,
      0  | 0x8000 | 0x400000 | 0x0,
      0  | 0x8000 | 0x400000 | 0x0,
      0  | 0x8000 | 0x400000 | 0x0,
      0  | 0x8000 | 0x400000 | 0x0,
      0  | 0x8000 | 0x400000 | 0x0,
      0  | 0x8000 | 0x400000 | 0x0,
      0  | 0x8000 | 0x400000 | 0x0,
      0  | 0x8000 | 0x400000 | 0x0,
      0  | 0x8000 | 0x400000 | 0x0,
      0  | 0   | 0x400000 | 0x0,
      0x4000 | 0   | 0x400000 | 0x0,
      0x4000 | 0   | 0x400000 | 0x0,
      0x4000 | 0   | 0x400000 | 0x0,
      0  | 0   | 0x400000 | 0x0,
      0x4000 | 0   | 0x400000 | 0x0,
      0x4000 | 0   | 0x400000 | 0x0,
      0x4000 | 0   | 0x400000 | 0x0,
      0  | 0   | 0x400000 | 0x0,
      0  | 0x8000 | 0x400000 | 0x0,
      0  | 0x8000 | 0x400000 | 0x0,
      0  | 0x8000 | 0x400000 | 0x0,
      0  | 0x8000 | 0x400000 | 0x0,
      0  | 0x8000 | 0x400000 | 0x0,
      0  | 0x8000 | 0x400000 | 0x0,
      0x4000 | 0   | 0x400000 | 0x0,
      0  | 0x8000 | 0x400000 | 0x0,
      0  | 0x8000 | 0x400000 | 0x0,
      0  | 0x8000 | 0x400000 | 0x0,
      0  | 0x8000 | 0x400000 | 0x0,
      0  | 0x8000   | 0x400000 | 0x0,
      0  | 0x8000 | 0x400000 | 0x0,
      0  | 0x8000 | 0x400000 | 0x0,
      0  | 0x8000 | 0x400000 | 0x0,
      0  | 0x8000 | 0x400000 | 0x0,
      0  | 0x8000 | 0x400000 | 0x0,
      0  | 0x8000 | 0x400000 | 0x0,
      0  | 0x8000 | 0x400000 | 0x0,
      0  | 0x8000 | 0x400000 | 0x0,
      0  | 0x8000 | 0x400000 | 0x0,
      0  | 0x8000 | 0x400000 | 0x0,
      0  | 0x8000 | 0x400000 | 0x0,
      0  | 0x8000 | 0x400000 | 0x0,
      0  | 0x8000 | 0x400000 | 0x0,
      0  | 0x8000 | 0x400000 | 0x0,
      0  | 0x8000 | 0x400000 | 0x0,
      0  | 0x8000 | 0x400000 | 0x0,
      0  | 0x8000 | 0x400000 | 0x0,
      0  | 0x8000 | 0x400000 | 0x0,
      0  | 0x8000 | 0x400000 | 0x0,
      0  | 0x8000 | 0x400000 | 0x0,
      0  | 0x8000 | 0x400000 | 0x0,
      0  | 0x8000 | 0x400000 | 0x0,
      0  | 0x8000 | 0x400000 | 0x0,
      0  | 0x8000 | 0x400000 | 0x0,
      0  | 0x8000 | 0x400000 | 0x0,
      0  | 0x8000 | 0x400000 | 0x0,
      0  | 0 | 0x400000 | 0x0,
      0  | 0 | 0x400000 | 0x0,
      0  | 0 | 0x400000 | 0x0,
      0  | 0 | 0x400000 | 0x0,
      0  | 0x8000 | 0x400000 | 0x0,
      0  | 0x8000 | 0x400000 | 0x0,
      0x4000 | 0   | 0x400000 | 0x0,
      0  | 0x18000   | 0x400000 | 0x0,
      0  | 0x18000   | 0x400000 | 0x0,
      0  | 0x8000 | 0x400000 | 0x0,
      0  | 0x8000 | 0x400000 | 0x0,
      0  | 0x8000 | 0x400000 | 0x0,
      0  | 0x8000 | 0x400000 | 0x0,
      0  | 0x8000 | 0x400000 | 0x0,
      0  | 0x8000 | 0x400000 | 0x0,
      0x4000 | 0   | 0x400000 | 0x0,
      0  | 0x8000 | 0x400000 | 0x0,
      0  | 0x8000 | 0x400000 | 0x0,
      0  | 0x8000 | 0x400000 | 0x0,
      0  | 0x8000 | 0x400000 | 0x0,
      0  | 0x8000 | 0x400000 | 0x0,
      0  | 0x8000 | 0x400000 | 0x0,
      0  | 0x8000 | 0x400000 | 0x0,
	  0  | 0x8000 | 0x400000 | 0x0,
      0  | 0x8000 | 0x400000 | 0x0,
      0  | 0x8000 | 0x400000 | 0x0,
      0  | 0x8000 | 0x400000 | 0x0,
      0  | 0x8000 | 0x400000 | 0x0,
      0  | 0x8000 | 0x400000 | 0x0,
      0  | 0x8000 | 0x400000 | 0x0,
      0  | 0x8000 | 0x400000 | 0x0,
      0  | 0x8000 | 0x400000 | 0x0,
      0  | 0x8000 | 0x400000 | 0x0,
      0  | 0x8000 | 0x400000 | 0x0,
      0  | 0x8000 | 0x400000 | 0x0,
      0  | 0x8000 | 0x400000 | 0x0,
      0  | 0x8000 | 0x400000 | 0x0,
      0  | 0x8000 | 0x400000 | 0x0,
      0  | 0x8000 | 0x400000 | 0x0,
      0  | 0x8000 | 0x400000 | 0x0,
      0  | 0x8000 | 0x400000 | 0x0,
      0  | 0x8000 | 0x400000 | 0x0,
      0  | 0x8000 | 0x400000 | 0x0,
    end
  </var_seq>
</global_def>
<device id=DALDEVICEID_TLMM>
  <props name="tlmm_base" type=DALPROP_ATTR_TYPE_UINT32>
   0x01000000
  </props>
  <props name="tlmm_offset" type=DALPROP_ATTR_TYPE_UINT32>
   0x0
  </props>
  <props name="tlmm_total_gpio" type=DALPROP_ATTR_TYPE_UINT32>
   142
  </props>
  <props name="tlmm_sleep" type=DALPROP_ATTR_TYPE_UINT32_SEQ_PTR>
    DALTLMMBSP_LowPowerCfg
  </props>
  <props name="tlmm_ports" type=DALPROP_ATTR_TYPE_UINT32_SEQ_PTR>
   tlmm_port_cfg
  </props>
</device>
</driver>
