<!--
  This XML file contains the vMPM device ID
  Copyright (c) 2014 QUALCOMM Technologies Inc. (QTI)
  All Rights Reserved.
  Qualcomm Confidential and Proprietary
-->
<driver name="mpm">
  <device id="/dev/mpm">
    <props name="IsRemotable" type=DALPROP_ATTR_TYPE_UINT32> 0x1 </props>
  </device>
</driver>
