typedef unsigned long uintptr_t;
typedef long intptr_t;
typedef signed char int8_t;
typedef short int16_t;
typedef int int32_t;
typedef long int64_t;
typedef long intmax_t;
typedef unsigned char uint8_t;
typedef unsigned short uint16_t;
typedef unsigned int uint32_t;
typedef unsigned long uint64_t;
typedef unsigned long uintmax_t;
typedef int8_t int_fast8_t;
typedef int64_t int_fast64_t;
typedef int8_t int_least8_t;
typedef int16_t int_least16_t;
typedef int32_t int_least32_t;
typedef int64_t int_least64_t;
typedef uint8_t uint_fast8_t;
typedef uint64_t uint_fast64_t;
typedef uint8_t uint_least8_t;
typedef uint16_t uint_least16_t;
typedef uint32_t uint_least32_t;
typedef uint64_t uint_least64_t;
typedef int32_t int_fast16_t;
typedef int32_t int_fast32_t;
typedef uint32_t uint_fast16_t;
typedef uint32_t uint_fast32_t;
typedef unsigned char boolean;
typedef uint32_t bool32;
typedef uint32_t uint32;
typedef uint16_t uint16;
typedef uint8_t uint8;
typedef int32_t int32;
typedef int16_t int16;
typedef int8_t int8;
typedef unsigned long uintnt;
typedef uint8_t byte;
typedef unsigned short word;
typedef unsigned int dword;
typedef unsigned char uint1;
typedef unsigned short uint2;
typedef unsigned int uint4;
typedef signed char int1;
typedef signed short int2;
typedef long int int4;
typedef signed int sint31;
typedef signed short sint15;
typedef signed char sint7;
typedef uint16 UWord16 ;
typedef uint32 UWord32 ;
typedef int32 Word32 ;
typedef int16 Word16 ;
typedef uint8 UWord8 ;
typedef int8 Word8 ;
typedef int32 Vect32 ;
      typedef long long int64;
      typedef unsigned long long uint64;
        typedef struct __attribute__((packed))
        { uint16 x; }
        unaligned_uint16;
        typedef struct __attribute__((packed))
        { uint32 x; }
        unaligned_uint32;
        typedef struct __attribute__((packed))
        { uint64 x; }
        unaligned_uint64;
        typedef struct __attribute__((packed))
        { int16 x; }
        unaligned_int16;
        typedef struct __attribute__((packed))
        { int32 x; }
        unaligned_int32;
        typedef struct __attribute__((packed))
        { int64 x; }
        unaligned_int64;
  extern dword rex_int_lock(void);
  extern dword rex_int_free(void);
    extern dword rex_fiq_lock(void);
    extern void rex_fiq_free(void);
   extern void rex_task_lock( void);
   extern void rex_task_free( void);
typedef unsigned long UINTN;
typedef uint32 DALBOOL;
typedef uint32 DALDEVICEID;
typedef uint32 DalPowerCmd;
typedef uint32 DalPowerDomain;
typedef uint32 DalSysReq;
typedef UINTN DALHandle;
typedef int DALResult;
typedef void * DALEnvHandle;
typedef void * DALSYSEventHandle;
typedef uint32 DALMemAddr;
typedef UINTN DALSYSMemAddr;
typedef uint32 DALInterfaceVersion;
typedef unsigned char * DALDDIParamPtr;
typedef struct DALEventObject DALEventObject;
struct DALEventObject
{
    uint32 obj[8];
};
typedef DALEventObject * DALEventHandle;
typedef struct _DALMemObject
{
   uint32 memAttributes;
   uint32 sysObjInfo[2];
   uint32 dwLen;
   uint32 ownerVirtAddr;
   uint32 virtAddr;
   uint32 physAddr;
}
DALMemObject;
typedef struct _DALDDIMemBufDesc
{
   uint32 dwOffset;
   uint32 dwLen;
   uint32 dwUser;
}
DALDDIMemBufDesc;
typedef struct _DALDDIMemDescList
{
   uint32 dwFlags;
   uint32 dwNumBufs;
   DALDDIMemBufDesc bufList[1];
}
DALDDIMemDescList;
typedef struct DALSysMemDescBuf DALSysMemDescBuf;
struct DALSysMemDescBuf
{
   DALSYSMemAddr VirtualAddr;
   DALSYSMemAddr PhysicalAddr;
   uint32 size;
   uint32 user;
};
typedef struct DALSysMemDescList DALSysMemDescList;
struct DALSysMemDescList
{
   uint32 dwObjInfo; uint32 hOwnerProc; DALSYSMemAddr thisVirtualAddr;
   DALSYSMemAddr PhysicalAddr;
   DALSYSMemAddr VirtualAddr;
   uint32 dwCurBufIdx;
   uint32 dwNumDescBufs;
   DALSysMemDescBuf BufInfo[1];
};
typedef struct DalDeviceInfo DalDeviceInfo;
struct DalDeviceInfo
{
   uint32 sizeOfActual;
   uint32 Version;
   char Name[32];
};
typedef struct DalDeviceStatus DalDeviceStatus;
struct DalDeviceStatus
{
   uint32 sizeOfActual;
   uint32 Status;
};
typedef struct DalDeviceHandle DalDeviceHandle;
typedef struct DalDevice DalDevice;
struct DalDevice
{
   DALResult (*Attach)(const char*,DALDEVICEID,DalDeviceHandle **);
   uint32 (*Detach)(DalDeviceHandle *);
   DALResult (*Init)(DalDeviceHandle *);
   DALResult (*DeInit)(DalDeviceHandle *);
   DALResult (*Open)(DalDeviceHandle *, uint32);
   DALResult (*Close)(DalDeviceHandle *);
   DALResult (*Info)(DalDeviceHandle *, DalDeviceInfo *, uint32);
   DALResult (*PowerEvent)(DalDeviceHandle *, DalPowerCmd, DalPowerDomain);
   DALResult (*SysRequest)(DalDeviceHandle *, DalSysReq, const void *, uint32,
                           void *,uint32, uint32*);
};
typedef struct DalInterface DalInterface;
struct DalInterface
{
   struct DalDevice DalDevice;
};
struct DalDeviceHandle
{
   uint32 dwDalHandleId;
   const DalInterface *pVtbl;
   void *pClientCtxt;
};
typedef struct DalDeviceHandle * DALDEVICEHANDLE;
typedef struct DalRemoteHandle DalRemoteHandle;
typedef struct DalRemote DalRemote;
struct DalRemote
{
   struct DalDevice DalDevice;
   DALResult (* FCN_0) ( uint32 ddi_idx, DalDeviceHandle *h, uint32 u1 );
   DALResult (* FCN_1) ( uint32 ddi_idx, DalDeviceHandle *h, uint32 u1, uint32 u2 );
   DALResult (* FCN_2) ( uint32 ddi_idx, DalDeviceHandle *h, uint32 u1, uint32* p_u2 );
   DALResult (* FCN_3) ( uint32 ddi_idx, DalDeviceHandle *h, uint32 u1, uint32 u2, uint32 u3 );
   DALResult (* FCN_4) ( uint32 ddi_idx, DalDeviceHandle *h, uint32 u1, uint32 u2, uint32* p_u3 );
   DALResult (* FCN_5) ( uint32 ddi_idx, DalDeviceHandle *h, void * ibuf, uint32 ilen);
   DALResult (* FCN_6) ( uint32 ddi_idx, DalDeviceHandle *h, uint32 u1, void * ibuf, uint32 ilen);
   DALResult (* FCN_7) ( uint32 ddi_idx, DalDeviceHandle *h, void * ibuf, uint32 ilen, void * obuf, uint32 olen, uint32 *oalen);
   DALResult (* FCN_8) ( uint32 ddi_idx, DalDeviceHandle *h, void * ibuf, uint32 ilen, void * obuf, uint32 olen);
   DALResult (* FCN_9) ( uint32 ddi_idx, DalDeviceHandle *h, void * obuf, uint32 olen );
   DALResult (* FCN_10)( uint32 ddi_idx, DalDeviceHandle *h, uint32 u1, void * ibuf, uint32 ilen, void * obuf, uint32 olen, uint32 * oalen);
   DALResult (* FCN_11) ( uint32 ddi_idx, DalDeviceHandle *h, uint32 u1, void * obuf, uint32 olen);
   DALResult (* FCN_12) ( uint32 ddi_idx, DalDeviceHandle *h, uint32 u1, void * obuf, uint32 olen, uint32 *oalen);
   DALResult (* FCN_13) ( uint32 ddi_idx, DalDeviceHandle *h, void * ibuf, uint32 ilen, void * ibuf2, uint32 ilen2, void * obuf, uint32 olen);
   DALResult (* FCN_14) ( uint32 ddi_idx, DalDeviceHandle *h, void * ibuf, uint32 ilen, void * obuf1, uint32 olen, void * obuf2, uint32 olen2, uint32 * oalen);
   DALResult (* FCN_15) ( uint32 ddi_idx, DalDeviceHandle *h, void * ibuf, uint32 ilen, void * ibuf2, uint32 ilen2, void * obuf2, uint32 olen2, uint32 *oalen, void * obuf, uint32 olen );
};
struct DalRemoteHandle
{
   uint32 dwDalHandleId;
   const DalRemote *pVtbl;
   void *pClientCtxt;
};
static __inline uint32
DalDevice_Detach(DalDeviceHandle *_h)
{
   (_h = (DalDeviceHandle *)(((DALHandle)_h) & ~0x00000001));
   return _h->pVtbl->DalDevice.Detach(_h);
}
static __inline DALResult
DalDevice_Init(DalDeviceHandle *_h)
{
   (_h = (DalDeviceHandle *)(((DALHandle)_h) & ~0x00000001));
   return _h->pVtbl->DalDevice.Init(_h);
}
static __inline DALResult
DalDevice_DeInit(DalDeviceHandle *_h)
{
   (_h = (DalDeviceHandle *)(((DALHandle)_h) & ~0x00000001));
   return _h->pVtbl->DalDevice.DeInit(_h);
}
static __inline DALResult
DalDevice_PowerEvent(DalDeviceHandle *_h, DalPowerCmd PowerCmd,
                     DalPowerDomain PowerDomain)
{
   (_h = (DalDeviceHandle *)(((DALHandle)_h) & ~0x00000001));
   return _h->pVtbl->DalDevice.PowerEvent(_h,PowerCmd,PowerDomain);
}
static __inline DALResult
DalDevice_Open(DalDeviceHandle *_h, uint32 mode)
{
   (_h = (DalDeviceHandle *)(((DALHandle)_h) & ~0x00000001));
   return _h->pVtbl->DalDevice.Open(_h,mode);
}
static __inline DALResult
DalDevice_Close(DalDeviceHandle *_h)
{
   (_h = (DalDeviceHandle *)(((DALHandle)_h) & ~0x00000001));
   return _h->pVtbl->DalDevice.Close(_h);
}
static __inline DALResult
DalDevice_Info(DalDeviceHandle *_h, DalDeviceInfo* info, uint32 infoSize)
{
   (_h = (DalDeviceHandle *)(((DALHandle)_h) & ~0x00000001));
   return _h->pVtbl->DalDevice.Info(_h,info,infoSize);
}
static __inline DALResult
DalDevice_SysRequest(DalDeviceHandle *_h, DalSysReq ReqIdx,
                     const unsigned char* SrcBuf, int SrcBufLen,
                     unsigned char* DestBuf, uint32 DestBufLen, uint32* DestBufLenReq)
{
   (_h = (DalDeviceHandle *)(((DALHandle)_h) & ~0x00000001));
   return _h->pVtbl->DalDevice.SysRequest(_h,ReqIdx,SrcBuf,SrcBufLen,
                                          DestBuf,DestBufLen,DestBufLenReq);
}
DALResult
DAL_DeviceAttach(DALDEVICEID DeviceId,
                 DalDeviceHandle **phDevice);
DALResult
DAL_DeviceAttachLocal(const char *pszArg,DALDEVICEID DeviceId,
                      DalDeviceHandle **phDevice);
DALResult
DAL_DeviceAttachEx(const char *pszArg, DALDEVICEID DeviceId,
               DALInterfaceVersion ClientVersion,DalDeviceHandle **phDevice);
DALResult
DAL_DeviceAttachRemote(const char *pszArg,
                   DALDEVICEID DevId,
                   DALInterfaceVersion ClientVersion,
                   DalDeviceHandle **phDALDevice);
DALResult
DAL_DeviceDetach(DalDeviceHandle *hDevice);
DALResult
DAL_StringDeviceAttachLocal(const char *pszArg, const char *pszDevName,
                           DalDeviceHandle **phDalDevice);
DALResult
DAL_StringDeviceAttach(const char *pszDevName, DalDeviceHandle **phDalDevice);
DALResult
DAL_StringDeviceAttachEx(const char *pszArg,
      const char *pszDevName,
      DALInterfaceVersion ClientVersion,
      DalDeviceHandle **phDALDevice);
typedef struct DALREG_DriverInfo DALREG_DriverInfo;
struct DALREG_DriverInfo
{
 DALResult (*pfnDALNewFunc)(const char * , DALDEVICEID, DalDeviceHandle**);
 uint32 dwNumDevices;
 DALDEVICEID *pDeviceId;
};
typedef struct DALREG_DriverInfoList DALREG_DriverInfoList;
struct DALREG_DriverInfoList
{
 uint32 dwLen;
 DALREG_DriverInfo ** pDriverInfo;
};
typedef void * DALSYSObjHandle;
typedef void * DALSYSSyncHandle;
typedef void * DALSYSMemHandle;
typedef void * DALSYSWorkLoopHandle;
typedef DALSYSMemAddr *DALSYSPropertyHandle;
typedef struct DALSYSPropertyVar DALSYSPropertyVar;
struct DALSYSPropertyVar
{
    uint32 dwType;
    uint32 dwLen;
    union
    {
        byte *pbVal;
        char *pszVal;
        uint32 dwVal;
        uint32 *pdwVal;
        const void *pStruct;
    }Val;
};
typedef struct DALSYSPropStructTblType DALSYSPropStructTblType ;
struct DALSYSPropStructTblType{
   uint32 dwSize;
   const void *pStruct;
};
typedef struct StringDevice StringDevice;
 struct StringDevice{
   char *pszName;
   uint32 dwHash;
   uint32 dwOffset;
   DALREG_DriverInfo *pFunctionName;
   uint32 dwNumCollision;
   const uint32 *pdwCollisions;
};
typedef struct DALProps DALProps;
struct DALProps
{
   const byte * pDALPROP_PropBin;
   const DALSYSPropStructTblType * pDALPROP_StructPtrs;
   const uint32 dwDeviceSize;
   const StringDevice *pDevices;
};
typedef struct DALSYSBaseObj DALSYSBaseObj;
struct DALSYSBaseObj
{
   uint32 dwObjInfo;
   uint32 hOwnerProc;
   DALSYSMemAddr thisVirtualAddr;
};
typedef struct DALSYSMemObjBase DALSYSMemObjBase;
struct DALSYSMemObjBase
{
   uint32 dwObjInfo; uint32 hOwnerProc; DALSYSMemAddr thisVirtualAddr;
   uint32 dwLen;
   DALSYSMemAddr OwnerVirtualAddr;
   DALSYSMemAddr VirtualAddr;
   DALSYSMemAddr PhysicalAddr;
};
typedef enum
{
   DEVCFG_PROP_INFO_INTERNAL,
   DEVCFG_PROP_INFO_SOC,
   DEVCFG_PROP_INFO_PLATFORM,
   DEVCFG_PROP_INFO_OEM
}DEVCFG_PROP_INFO_TYPE;
typedef struct DALSYSEventObj DALSYSEventObj;
struct DALSYSEventObj
{
   unsigned long long _bSpace[64/sizeof(unsigned long long)];
};
typedef struct DALSYSSyncObj DALSYSSyncObj;
struct DALSYSSyncObj
{
   unsigned long long _bSpace[40/sizeof(unsigned long long)];
};
typedef struct DALSYSMemObj DALSYSMemObj;
struct DALSYSMemObj
{
   unsigned long long _bSpace[64/sizeof(unsigned long long)];
};
typedef struct DALSYSWorkLoopEventObj DALSYSWorkLoopEventObj;
struct DALSYSWorkLoopEventObj
{
   unsigned long long _bSpace[32/sizeof(unsigned long long)];
};
typedef struct DALSYSWorkLoopObj DALSYSWorkLoopObj;
struct DALSYSWorkLoopObj
{
   unsigned long long _bSpace[40/sizeof(unsigned long long)];
};
typedef void * DALSYSCallbackFuncCtx;
typedef void * (*DALSYSCallbackFunc)(void*,uint32,void*,uint32);
typedef struct DALSYSMemInfo DALSYSMemInfo;
struct DALSYSMemInfo
{
    DALSYSMemAddr VirtualAddr;
    DALSYSMemAddr PhysicalAddr;
    uint32 dwLen;
    uint32 dwMappedLen;
    uint32 dwProps;
};
typedef DALResult
(*DALSYSWorkLoopExecute)
(
    DALSYSEventHandle,
    void *
);
typedef void
(*DALSYS_InitSystemHandleFncPtr)
(
    DalDeviceHandle * hDalDevice
);
typedef DALResult
(*DALSYS_DestroyObjectFncPtr)
(
    DALSYSObjHandle
);
typedef DALResult
(*DALSYS_CopyObjectFncPtr)
(
    DALSYSObjHandle,
    DALSYSObjHandle *
);
typedef DALResult
(*DALSYS_RegisterWorkLoopFncPtr)
(
    uint32,
    uint32,
    DALSYSWorkLoopHandle *,
    DALSYSWorkLoopObj *
);
typedef DALResult
(*DALSYS_AddEventToWorkLoopFncPtr)
(
    DALSYSWorkLoopHandle,
    DALSYSWorkLoopExecute,
    void *,
    DALSYSEventHandle,
    DALSYSSyncHandle
);
typedef DALResult
(*DALSYS_DeleteEventFromWorkLoopFncPtr)
(
    DALSYSWorkLoopHandle,
    DALSYSEventHandle
);
typedef DALResult
(*DALSYS_EventCreateFncPtr)
(
    uint32 ,
    DALSYSEventHandle *,
    DALSYSEventObj *
);
typedef DALResult
(*DALSYS_EventCtrlFncPtr)
(
    DALSYSEventHandle,
    uint32,
   uint32,
   void *,
   uint32
);
typedef DALResult
(*DALSYS_EventWaitFncPtr)
(
    DALSYSEventHandle
);
typedef DALResult
(*DALSYS_EventMultipleWaitFncPtr)
(
    DALSYSEventHandle*,
    int,
    uint32,
    uint32 *
);
typedef DALResult
(*DALSYS_SetupCallbackEventFncPtr)
(
    DALSYSEventHandle,
    DALSYSCallbackFunc,
    DALSYSCallbackFuncCtx
);
typedef DALResult
(*DALSYS_SyncCreateFncPtr)
(
    uint32,
    DALSYSSyncHandle *,
    DALSYSSyncObj *
);
typedef void
(*DALSYS_SyncEnterFncPtr)
(
    DALSYSSyncHandle
);
typedef void
(*DALSYS_SyncLeaveFncPtr)
(
    DALSYSSyncHandle
);
typedef DALResult
(*DALSYS_MemRegionAllocFncPtr)
(
    uint32,
    DALSYSMemAddr,
    DALSYSMemAddr,
    uint32,
    DALSYSMemHandle *,
    DALSYSMemObj *
);
typedef DALResult
(*DALSYS_MemRegionMapPhysFncPtr)
(
    DALSYSMemHandle,
    uint32,
    DALSYSMemAddr,
    uint32
);
typedef DALResult
(*DALSYS_MemInfoFncPtr)
(
    DALSYSMemHandle,
    DALSYSMemInfo *
);
typedef DALResult
(*DALSYS_CacheCommandFncPtr)
(
    uint32 ,
    DALSYSMemAddr,
    uint32
);
typedef DALResult
(*DALSYS_MallocFncPtr)
(
    uint32 ,
    void **
);
typedef DALResult
(*DALSYS_FreeFncPtr)
(
    void *
);
typedef void
(*DALSYS_BusyWaitFncPtr)
(
   uint32
);
typedef DALResult
(*DALSYS_MemDescAddBufFncPtr)
(
    DALSysMemDescList *,
    uint32,
    uint32,
    uint32
);
typedef DALResult
(*DALSYS_MemDescPrepareFncPtr)
(
    DALSysMemDescList *,
    uint32
);
typedef DALResult
(*DALSYS_MemDescValidateFncPtr)
(
    DALSysMemDescList *,
    uint32
);
typedef DALResult
(*DALSYS_GetDALPropertyHandleFncPtr)
(
    DALDEVICEID,
    DALSYSPropertyHandle
);
typedef DALResult
(*DAL_DeviceAttachFncPtr)
(
    const char *pszArg,
    DALDEVICEID,
    DalDeviceHandle **
);
typedef DALResult
(*DAL_DeviceDetachFncPtr)
(
    DalDeviceHandle *
);
typedef DALResult
(*DAL_DeviceAttachExFncPtr)
(
 const char *pszArg,
    DALDEVICEID DevId,
    DALInterfaceVersion ClientVersion,
    DalDeviceHandle **phDalDevice
);
typedef DALResult
(*DALSYS_GetPropertyValueFncPtr)
(
    DALSYSPropertyHandle,
    const char *,
    uint32,
    DALSYSPropertyVar *
);
typedef void
(*DALSYS_LogEventFncPtr)
(
    DALDEVICEID,
    uint32,
    const char *
);
typedef struct DALSYSFncPtrTbl DALSYSFncPtrTbl;
struct DALSYSFncPtrTbl
{
    DALSYS_InitSystemHandleFncPtr DALSYS_InitSystemHandleFnc;
    DALSYS_DestroyObjectFncPtr DALSYS_DestroyObjectFnc;
    DALSYS_CopyObjectFncPtr DALSYS_CopyObjectFnc;
    DALSYS_RegisterWorkLoopFncPtr DALSYS_RegisterWorkLoopFnc;
    DALSYS_AddEventToWorkLoopFncPtr DALSYS_AddEventToWorkLoopFnc;
    DALSYS_DeleteEventFromWorkLoopFncPtr DALSYS_DeleteEventFromWorkLoopFnc;
    DALSYS_EventCreateFncPtr DALSYS_EventCreateFnc;
    DALSYS_EventCtrlFncPtr DALSYS_EventCtrlFnc;
    DALSYS_EventWaitFncPtr DALSYS_EventWaitFnc;
    DALSYS_EventMultipleWaitFncPtr DALSYS_EventMultipleWaitFnc;
    DALSYS_SetupCallbackEventFncPtr DALSYS_SetupCallbackEventFnc;
    DALSYS_SyncCreateFncPtr DALSYS_SyncCreateFnc;
    DALSYS_SyncEnterFncPtr DALSYS_SyncEnterFnc;
    DALSYS_SyncLeaveFncPtr DALSYS_SyncLeaveFnc;
    DALSYS_MemRegionAllocFncPtr DALSYS_MemRegionAllocFnc;
    DALSYS_MemRegionMapPhysFncPtr DALSYS_MemRegionMapPhysFnc;
    DALSYS_MemInfoFncPtr DALSYS_MemInfoFnc;
    DALSYS_CacheCommandFncPtr DALSYS_CacheCommandFnc;
    DALSYS_MallocFncPtr DALSYS_MallocFnc;
    DALSYS_FreeFncPtr DALSYS_FreeFnc;
    DALSYS_BusyWaitFncPtr DALSYS_BusyWaitFnc;
    DALSYS_MemDescAddBufFncPtr DALSYS_MemDescAddBufFnc;
    DALSYS_MemDescPrepareFncPtr DALSYS_MemDescPrepareFnc;
    DALSYS_MemDescValidateFncPtr DALSYS_MemDescValidateFnc;
    DALSYS_GetDALPropertyHandleFncPtr DALSYS_GetDALPropertyHandleFnc;
    DAL_DeviceAttachFncPtr DALSYS_DeviceAttachFnc;
  DAL_DeviceAttachExFncPtr DALSYS_DeviceAttachExFnc;
  DAL_DeviceAttachExFncPtr DALSYS_DeviceAttachRemoteFnc;
    DAL_DeviceDetachFncPtr DALSYS_DeviceDetachFnc;
    DALSYS_GetPropertyValueFncPtr DALSYS_GetPropertyValueFnc;
    DALSYS_LogEventFncPtr DALSYS_LogEventFnc;
};
typedef DALResult
(*DALRemote_NewFncPtr)(const char *, DALDEVICEID, DalDeviceHandle **);
typedef int
(*DALRemote_CommonInitFncPtr)(void);
typedef void
(*DALRemote_IPCInitFcnPtr)(uint32);
typedef void
(*DALRemote_InitFncPtr)(void);
typedef DALSYSEventHandle
(*DALRemote_CreateEventFncPtr)(void *pClientCtxt, DALSYSEventHandle hRemote);
typedef uint32
(*DALRemoteInterProcessCallFncPtr)(void *in_buf, void *out_buf);
typedef void
(*DALRemote_DeinitFncPtr)(void);
typedef struct DALRemoteVtbl DALRemoteVtbl;
struct DALRemoteVtbl
{
   DALRemote_NewFncPtr DALRemote_NewFnc;
   DALRemote_CommonInitFncPtr DALRemote_CommonInitFnc;
   DALRemote_InitFncPtr DALRemote_InitFnc;
   DALRemote_DeinitFncPtr DALRemote_DeinitFnc;
   DALRemote_CreateEventFncPtr DALRemote_CreateEventFnc;
   DALRemote_CreateEventFncPtr DALRemote_CreatePayloadEventFnc;
   DALRemoteInterProcessCallFncPtr DALRemoteInterProcessCallFnc;
   DALRemote_IPCInitFcnPtr DALRemote_IPCInitFcn;
};
typedef struct DALSYSConfig DALSYSConfig;
struct DALSYSConfig
{
    void *pNativeEnv;
    uint32 dwConfig;
   DALRemoteVtbl *pRemoteVtbl;
};
typedef enum
{
  CHIPINFO_FAMILY_UNKNOWN = 0,
  CHIPINFO_FAMILY_MSM8974 = 32,
  CHIPINFO_FAMILY_MDM9x25 = 35,
  CHIPINFO_FAMILY_MSM8x10 = 38,
  CHIPINFO_FAMILY_MPQ8092 = 39,
  CHIPINFO_FAMILY_MSM8x26 = 40,
  CHIPINFO_FAMILY_APQ8084 = 43,
  CHIPINFO_FAMILY_APQ8x94 = CHIPINFO_FAMILY_APQ8084,
  CHIPINFO_FAMILY_MSM8x32 = 44,
  CHIPINFO_FAMILY_MDM9x35 = 45,
  CHIPINFO_FAMILY_MSM8974_PRO = 46,
  CHIPINFO_FAMILY_FSM9900 = 47,
  CHIPINFO_FAMILY_MSM8x62 = 48,
  CHIPINFO_FAMILY_MSM8926 = 49,
  CHIPINFO_FAMILY_MSM8994 = 50,
  CHIPINFO_FAMILY_IPQ8064 = 51,
  CHIPINFO_FAMILY_MSM8916 = 52,
  CHIPINFO_FAMILY_MSM8936 = 53,
  CHIPINFO_FAMILY_MDM9x45 = 54,
  CHIPINFO_FAMILY_MSM8996 = 56,
  CHIPINFO_FAMILY_APQ8096 = CHIPINFO_FAMILY_MSM8996,
  CHIPINFO_FAMILY_MSM8992 = 57,
  CHIPINFO_FAMILY_MSM8909 = 58,
  CHIPINFO_FAMILY_FSM90xx = 59,
  CHIPINFO_FAMILY_MSM8952 = 60,
  CHIPINFO_FAMILY_QDF2432 = 61,
  CHIPINFO_FAMILY_MSM8929 = 62,
  CHIPINFO_FAMILY_MSM8956 = 63,
  CHIPINFO_FAMILY_IPQ401x = 64,
  CHIPINFO_FAMILY_MDM9x55 = 65,
  CHIPINFO_FAMILY_MDM9x07 = 66,
  CHIPINFO_FAMILY_MSM8998 = 67,
  CHIPINFO_FAMILY_MSM8953 = 68,
  CHIPINFO_FAMILY_MSM8993 = 69,
  CHIPINFO_FAMILY_MSM8937 = 70,
  CHIPINFO_FAMILY_MSM8917 = 71,
  CHIPINFO_FAMILY_MSM8996SG = 72,
  CHIPINFO_FAMILY_MSM8997 = 73,
  CHIPINFO_FAMILY_MSM8940 = 74,
  CHIPINFO_FAMILY_MDM9x65 = 75,
  CHIPINFO_FAMILY_SDM660 = 76,
  CHIPINFO_FAMILY_SDM630 = 77,
  CHIPINFO_FAMILY_MSM8920 = 78,
  CHIPINFO_NUM_FAMILIES = 79,
  CHIPINFO_FAMILY_32BITS = 0x7FFFFFF,
} ChipInfoFamilyType;
typedef uint32 ChipInfoVersionType;
typedef enum
{
  CHIPINFO_ID_UNKNOWN = 0,
  CHIPINFO_ID_MDM1000 = 1,
  CHIPINFO_ID_ESM6235 = 2,
  CHIPINFO_ID_QSC6240 = 3,
  CHIPINFO_ID_MSM6245 = 4,
  CHIPINFO_ID_MSM6255 = 5,
  CHIPINFO_ID_MSM6255A = 6,
  CHIPINFO_ID_MSM6260 = 7,
  CHIPINFO_ID_MSM6246 = 8,
  CHIPINFO_ID_QSC6270 = 9,
  CHIPINFO_ID_MSM6280 = 10,
  CHIPINFO_ID_MSM6290 = 11,
  CHIPINFO_ID_MSM7200 = 12,
  CHIPINFO_ID_MSM7201 = 13,
  CHIPINFO_ID_ESM7205 = 14,
  CHIPINFO_ID_ESM7206 = 15,
  CHIPINFO_ID_MSM7200A = 16,
  CHIPINFO_ID_MSM7201A = 17,
  CHIPINFO_ID_ESM7205A = 18,
  CHIPINFO_ID_ESM7206A = 19,
  CHIPINFO_ID_ESM7225 = 20,
  CHIPINFO_ID_MSM7225 = 21,
  CHIPINFO_ID_MSM7500 = 22,
  CHIPINFO_ID_MSM7500A = 23,
  CHIPINFO_ID_MSM7525 = 24,
  CHIPINFO_ID_MSM7600 = 25,
  CHIPINFO_ID_MSM7601 = 26,
  CHIPINFO_ID_MSM7625 = 27,
  CHIPINFO_ID_MSM7800 = 28,
  CHIPINFO_ID_MDM8200 = 29,
  CHIPINFO_ID_QSD8650 = 30,
  CHIPINFO_ID_MDM8900 = 31,
  CHIPINFO_ID_QST1000 = 32,
  CHIPINFO_ID_QST1005 = 33,
  CHIPINFO_ID_QST1100 = 34,
  CHIPINFO_ID_QST1105 = 35,
  CHIPINFO_ID_QST1500 = 40,
  CHIPINFO_ID_QST1600 = 41,
  CHIPINFO_ID_QST1700 = 42,
  CHIPINFO_ID_QSD8250 = 36,
  CHIPINFO_ID_QSD8550 = 37,
  CHIPINFO_ID_QSD8850 = 38,
  CHIPINFO_ID_MDM2000 = 39,
  CHIPINFO_ID_MSM7227 = 43,
  CHIPINFO_ID_MSM7627 = 44,
  CHIPINFO_ID_QSC6165 = 45,
  CHIPINFO_ID_QSC6175 = 46,
  CHIPINFO_ID_QSC6185 = 47,
  CHIPINFO_ID_QSC6195 = 48,
  CHIPINFO_ID_QSC6285 = 49,
  CHIPINFO_ID_QSC6295 = 50,
  CHIPINFO_ID_QSC6695 = 51,
  CHIPINFO_ID_ESM6246 = 52,
  CHIPINFO_ID_ESM6290 = 53,
  CHIPINFO_ID_ESC6270 = 54,
  CHIPINFO_ID_ESC6240 = 55,
  CHIPINFO_ID_MDM8220 = 56,
  CHIPINFO_ID_MDM9200 = 57,
  CHIPINFO_ID_MDM9600 = 58,
  CHIPINFO_ID_MSM7630 = 59,
  CHIPINFO_ID_MSM7230 = 60,
  CHIPINFO_ID_ESM7227 = 61,
  CHIPINFO_ID_MSM7625D1 = 62,
  CHIPINFO_ID_MSM7225D1 = 63,
  CHIPINFO_ID_QSD8250A = 64,
  CHIPINFO_ID_QSD8650A = 65,
  CHIPINFO_ID_MSM7625D2 = 66,
  CHIPINFO_ID_MSM7227D1 = 67,
  CHIPINFO_ID_MSM7627D1 = 68,
  CHIPINFO_ID_MSM7627D2 = 69,
  CHIPINFO_ID_MSM8260 = 70,
  CHIPINFO_ID_MSM8660 = 71,
  CHIPINFO_ID_MDM8200A = 72,
  CHIPINFO_ID_QSC6155 = 73,
  CHIPINFO_ID_MSM8255 = 74,
  CHIPINFO_ID_MSM8655 = 75,
  CHIPINFO_ID_ESC6295 = 76,
  CHIPINFO_ID_MDM3000 = 77,
  CHIPINFO_ID_MDM6200 = 78,
  CHIPINFO_ID_MDM6600 = 79,
  CHIPINFO_ID_MDM6210 = 80,
  CHIPINFO_ID_MDM6610 = 81,
  CHIPINFO_ID_QSD8672 = 82,
  CHIPINFO_ID_MDM6215 = 83,
  CHIPINFO_ID_MDM6615 = 84,
  CHIPINFO_ID_APQ8055 = 85,
  CHIPINFO_ID_APQ8060 = 86,
  CHIPINFO_ID_MSM8960 = 87,
  CHIPINFO_ID_MSM7225A = 88,
  CHIPINFO_ID_MSM7625A = 89,
  CHIPINFO_ID_MSM7227A = 90,
  CHIPINFO_ID_MSM7627A = 91,
  CHIPINFO_ID_ESM7227A = 92,
  CHIPINFO_ID_QSC6195D2 = 93,
  CHIPINFO_ID_FSM9200 = 94,
  CHIPINFO_ID_FSM9800 = 95,
  CHIPINFO_ID_MSM7225AD1 = 96,
  CHIPINFO_ID_MSM7227AD1 = 97,
  CHIPINFO_ID_MSM7225AA = 98,
  CHIPINFO_ID_MSM7225AAD1 = 99,
  CHIPINFO_ID_MSM7625AA = 100,
  CHIPINFO_ID_MSM7227AA = 101,
  CHIPINFO_ID_MSM7227AAD1 = 102,
  CHIPINFO_ID_MSM7627AA = 103,
  CHIPINFO_ID_MDM9615 = 104,
  CHIPINFO_ID_MDM9615M = CHIPINFO_ID_MDM9615,
  CHIPINFO_ID_MDM8215 = 106,
  CHIPINFO_ID_MDM9215 = 107,
  CHIPINFO_ID_MDM9215M = CHIPINFO_ID_MDM9215,
  CHIPINFO_ID_APQ8064 = 109,
  CHIPINFO_ID_QSC6270D1 = 110,
  CHIPINFO_ID_QSC6240D1 = 111,
  CHIPINFO_ID_ESC6270D1 = 112,
  CHIPINFO_ID_ESC6240D1 = 113,
  CHIPINFO_ID_MDM6270 = 114,
  CHIPINFO_ID_MDM6270D1 = 115,
  CHIPINFO_ID_MSM8930 = 116,
  CHIPINFO_ID_MSM8630 = 117,
  CHIPINFO_ID_MSM8230 = 118,
  CHIPINFO_ID_APQ8030 = 119,
  CHIPINFO_ID_MSM8627 = 120,
  CHIPINFO_ID_MSM8227 = 121,
  CHIPINFO_ID_MSM8660A = 122,
  CHIPINFO_ID_MSM8260A = 123,
  CHIPINFO_ID_APQ8060A = 124,
  CHIPINFO_ID_MPQ8062 = 125,
  CHIPINFO_ID_MSM8974 = 126,
  CHIPINFO_ID_MSM8225 = 127,
  CHIPINFO_ID_MSM8225D1 = 128,
  CHIPINFO_ID_MSM8625 = 129,
  CHIPINFO_ID_MPQ8064 = 130,
  CHIPINFO_ID_MSM7225AB = 131,
  CHIPINFO_ID_MSM7225ABD1 = 132,
  CHIPINFO_ID_MSM7625AB = 133,
  CHIPINFO_ID_MDM9625 = 134,
  CHIPINFO_ID_MSM7125A = 135,
  CHIPINFO_ID_MSM7127A = 136,
  CHIPINFO_ID_MSM8125AB = 137,
  CHIPINFO_ID_MSM8960AB = 138,
  CHIPINFO_ID_APQ8060AB = 139,
  CHIPINFO_ID_MSM8260AB = 140,
  CHIPINFO_ID_MSM8660AB = 141,
  CHIPINFO_ID_MSM8930AA = 142,
  CHIPINFO_ID_MSM8630AA = 143,
  CHIPINFO_ID_MSM8230AA = 144,
  CHIPINFO_ID_MSM8626 = 145,
  CHIPINFO_ID_MPQ8092 = 146,
  CHIPINFO_ID_MSM8610 = 147,
  CHIPINFO_ID_MDM8225 = 148,
  CHIPINFO_ID_MDM9225 = 149,
  CHIPINFO_ID_MDM9225M = 150,
  CHIPINFO_ID_MDM8225M = 151,
  CHIPINFO_ID_MDM9625M = 152,
  CHIPINFO_ID_APQ8064_V2PRIME = 153,
  CHIPINFO_ID_MSM8930AB = 154,
  CHIPINFO_ID_MSM8630AB = 155,
  CHIPINFO_ID_MSM8230AB = 156,
  CHIPINFO_ID_APQ8030AB = 157,
  CHIPINFO_ID_MSM8226 = 158,
  CHIPINFO_ID_MSM8526 = 159,
  CHIPINFO_ID_APQ8030AA = 160,
  CHIPINFO_ID_MSM8110 = 161,
  CHIPINFO_ID_MSM8210 = 162,
  CHIPINFO_ID_MSM8810 = 163,
  CHIPINFO_ID_MSM8212 = 164,
  CHIPINFO_ID_MSM8612 = 165,
  CHIPINFO_ID_MSM8112 = 166,
  CHIPINFO_ID_MSM8125 = 167,
  CHIPINFO_ID_MSM8225Q = 168,
  CHIPINFO_ID_MSM8625Q = 169,
  CHIPINFO_ID_MSM8125Q = 170,
  CHIPINFO_ID_MDM9310 = 171,
  CHIPINFO_ID_APQ8064_SLOW_PRIME = 172,
  CHIPINFO_ID_MDM8110M = 173,
  CHIPINFO_ID_MDM8615M = 174,
  CHIPINFO_ID_MDM9320 = 175,
  CHIPINFO_ID_MDM9225_1 = 176,
  CHIPINFO_ID_MDM9225M_1 = 177,
  CHIPINFO_ID_APQ8084 = 178,
  CHIPINFO_ID_MSM8130 = 179,
  CHIPINFO_ID_MSM8130AA = 180,
  CHIPINFO_ID_MSM8130AB = 181,
  CHIPINFO_ID_MSM8627AA = 182,
  CHIPINFO_ID_MSM8227AA = 183,
  CHIPINFO_ID_APQ8074 = 184,
  CHIPINFO_ID_MSM8274 = 185,
  CHIPINFO_ID_MSM8674 = 186,
  CHIPINFO_ID_MDM9635 = 187,
  CHIPINFO_ID_FSM9900 = 188,
  CHIPINFO_ID_FSM9965 = 189,
  CHIPINFO_ID_FSM9955 = 190,
  CHIPINFO_ID_FSM9950 = 191,
  CHIPINFO_ID_FSM9915 = 192,
  CHIPINFO_ID_FSM9910 = 193,
  CHIPINFO_ID_MSM8974_PRO = 194,
  CHIPINFO_ID_MSM8962 = 195,
  CHIPINFO_ID_MSM8262 = 196,
  CHIPINFO_ID_APQ8062 = 197,
  CHIPINFO_ID_MSM8126 = 198,
  CHIPINFO_ID_APQ8026 = 199,
  CHIPINFO_ID_MSM8926 = 200,
  CHIPINFO_ID_MSM8326 = 205,
  CHIPINFO_ID_MSM8916 = 206,
  CHIPINFO_ID_MSM8994 = 207,
  CHIPINFO_ID_APQ8074_AA = 208,
  CHIPINFO_ID_APQ8074_AB = 209,
  CHIPINFO_ID_APQ8074_PRO = 210,
  CHIPINFO_ID_MSM8274_AA = 211,
  CHIPINFO_ID_MSM8274_AB = 212,
  CHIPINFO_ID_MSM8274_PRO = 213,
  CHIPINFO_ID_MSM8674_AA = 214,
  CHIPINFO_ID_MSM8674_AB = 215,
  CHIPINFO_ID_MSM8674_PRO = 216,
  CHIPINFO_ID_MSM8974_AA = 217,
  CHIPINFO_ID_MSM8974_AB = 218,
  CHIPINFO_ID_APQ8028 = 219,
  CHIPINFO_ID_MSM8128 = 220,
  CHIPINFO_ID_MSM8228 = 221,
  CHIPINFO_ID_MSM8528 = 222,
  CHIPINFO_ID_MSM8628 = 223,
  CHIPINFO_ID_MSM8928 = 224,
  CHIPINFO_ID_MSM8510 = 225,
  CHIPINFO_ID_MSM8512 = 226,
  CHIPINFO_ID_MDM9630 = 227,
  CHIPINFO_ID_MDM9635M = CHIPINFO_ID_MDM9635,
  CHIPINFO_ID_MDM9230 = 228,
  CHIPINFO_ID_MDM9235M = 229,
  CHIPINFO_ID_MDM8630 = 230,
  CHIPINFO_ID_MDM9330 = 231,
  CHIPINFO_ID_MPQ8091 = 232,
  CHIPINFO_ID_MSM8936 = 233,
  CHIPINFO_ID_MDM9240 = 234,
  CHIPINFO_ID_MDM9340 = 235,
  CHIPINFO_ID_MDM9640 = 236,
  CHIPINFO_ID_MDM9245 = 237,
  CHIPINFO_ID_MDM9645 = 238,
  CHIPINFO_ID_MSM8939 = 239,
  CHIPINFO_ID_APQ8036 = 240,
  CHIPINFO_ID_APQ8039 = 241,
  CHIPINFO_ID_MSM8236 = 242,
  CHIPINFO_ID_MSM8636 = 243,
  CHIPINFO_ID_APQ8064_AU = 244,
  CHIPINFO_ID_MSM8909 = 245,
  CHIPINFO_ID_MSM8996 = 246,
  CHIPINFO_ID_APQ8016 = 247,
  CHIPINFO_ID_MSM8216 = 248,
  CHIPINFO_ID_MSM8116 = 249,
  CHIPINFO_ID_MSM8616 = 250,
  CHIPINFO_ID_MSM8992 = 251,
  CHIPINFO_ID_APQ8092 = 252,
  CHIPINFO_ID_APQ8094 = 253,
  CHIPINFO_ID_FSM9008 = 254,
  CHIPINFO_ID_FSM9010 = 255,
  CHIPINFO_ID_FSM9016 = 256,
  CHIPINFO_ID_FSM9055 = 257,
  CHIPINFO_ID_MSM8209 = 258,
  CHIPINFO_ID_MSM8208 = 259,
  CHIPINFO_ID_MDM9209 = 260,
  CHIPINFO_ID_MDM9309 = 261,
  CHIPINFO_ID_MDM9609 = 262,
  CHIPINFO_ID_MSM8239 = 263,
  CHIPINFO_ID_MSM8952 = 264,
  CHIPINFO_ID_APQ8009 = 265,
  CHIPINFO_ID_MSM8956 = 266,
  CHIPINFO_ID_QDF2432 = 267,
  CHIPINFO_ID_MSM8929 = 268,
  CHIPINFO_ID_MSM8629 = 269,
  CHIPINFO_ID_MSM8229 = 270,
  CHIPINFO_ID_APQ8029 = 271,
  CHIPINFO_ID_QCA9618 = 272,
  CHIPINFO_ID_QCA9619 = 273,
  CHIPINFO_ID_APQ8056 = 274,
  CHIPINFO_ID_MSM8609 = 275,
  CHIPINFO_ID_FSM9916 = 276,
  CHIPINFO_ID_APQ8076 = 277,
  CHIPINFO_ID_MSM8976 = 278,
  CHIPINFO_ID_MDM9650 = 279,
  CHIPINFO_ID_IPQ8065 = 280,
  CHIPINFO_ID_IPQ8069 = 281,
  CHIPINFO_ID_MSM8939_BC = 282,
  CHIPINFO_ID_MDM9250 = 283,
  CHIPINFO_ID_MDM9255 = 284,
  CHIPINFO_ID_MDM9350 = 285,
  CHIPINFO_ID_MDM9655 = 286,
  CHIPINFO_ID_IPQ4028 = 287,
  CHIPINFO_ID_IPQ4029 = 288,
  CHIPINFO_ID_APQ8052 = 289,
  CHIPINFO_ID_MDM9607 = 290,
  CHIPINFO_ID_APQ8096 = 291,
  CHIPINFO_ID_MSM8998 = 292,
  CHIPINFO_ID_MSM8953 = 293,
  CHIPINFO_ID_MSM8937 = 294,
  CHIPINFO_ID_APQ8037 = 295,
  CHIPINFO_ID_MDM8207 = 296,
  CHIPINFO_ID_MDM9207 = 297,
  CHIPINFO_ID_MDM9307 = 298,
  CHIPINFO_ID_MDM9628 = 299,
  CHIPINFO_ID_MSM8909W = 300,
  CHIPINFO_ID_APQ8009W = 301,
  CHIPINFO_ID_MSM8996L = 302,
  CHIPINFO_ID_MSM8917 = 303,
  CHIPINFO_ID_APQ8053 = 304,
  CHIPINFO_ID_MSM8996_PRO = 305,
  CHIPINFO_ID_MSM8997 = 306,
  CHIPINFO_ID_APQ8017 = 307,
  CHIPINFO_ID_MSM8217 = 308,
  CHIPINFO_ID_MSM8617 = 309,
  CHIPINFO_ID_MSM8996AU = 310,
  CHIPINFO_ID_APQ8096AU = 311,
  CHIPINFO_ID_APQ8096SG = 312,
  CHIPINFO_ID_MSM8940 = 313,
  CHIPINFO_ID_MDM9665 = 314,
  CHIPINFO_ID_MSM8996SGAU = 315,
  CHIPINFO_ID_APQ8096SGAU = 316,
  CHIPINFO_ID_SDM660 = 317,
  CHIPINFO_ID_SDM630 = 318,
  CHIPINFO_ID_APQ8098 = 319,
  CHIPINFO_ID_MSM8920 = 320,
  CHIPINFO_NUM_IDS = 321,
  CHIPINFO_ID_32BITS = 0x7FFFFFF
} ChipInfoIdType;
ChipInfoFamilyType Chipinfo_GetFamily (void);
ChipInfoVersionType Chipinfo_GetVersion (void);
DALResult Chipinfo_Init(void);
ChipInfoIdType Chipinfo_GetId (void);
typedef struct
{
    char* name;
    uint32 base_addr;
    uint16 intr_status;
    uint16 intr_clear;
    uint16 intr_enable;
}BIMC_BRIC_info_type;
typedef struct
{
    char* name;
    uint32 base_addr;
    uint16 intr_status;
    uint16 intr_clear;
    uint16 intr_enable;
    uint16 intr_status0;
    uint16 intr_status1;
    uint16 intr_status2;
}BIMC_DEFAULT_info_type;
typedef struct
{
    char* name;
    uint32 base_addr;
    uint16 intr_status;
    uint16 intr_clear;
    uint16 intr_enable;
    uint16 intr_addr;
    uint16 intr_addr1;
    uint16 intr_packet0;
    uint16 intr_packet1;
    uint16 intr_packet2;
}BIMC_DDR_SCMO_info_type;
typedef struct
{
    uint64 vector;
    uint8 BRIC_len;
    const BIMC_BRIC_info_type* BRIC_info;
    uint8 DEFAULT_len;
    const BIMC_DEFAULT_info_type* DEFAULT_info;
    uint8 DDR_SCMO_len;
    const BIMC_DDR_SCMO_info_type* DDR_SCMO_info;
    const ChipInfoVersionType chipversion;
}BIMC_propdata_type;
typedef struct
{
    char* name;
    uint8 turn_on_intr;
    uint8 err_fatal;
}BIMC_BRIC_info_type_oem;
typedef struct
{
    char* name;
    uint8 turn_on_intr;
    uint8 err_fatal;
}BIMC_DEFAULT_info_type_oem;
typedef struct
{
    char* name;
    uint8 turn_on_intr;
    uint8 err_fatal;
}BIMC_DDR_SCMO_info_type_oem;
typedef struct
{
    uint8 BRIC_len;
    const BIMC_BRIC_info_type_oem* BRIC_info_oem;
    uint8 DEFAULT_len;
    const BIMC_DEFAULT_info_type_oem* DEFAULT_info_oem;
    uint8 DDR_SCMO_len;
    const BIMC_DDR_SCMO_info_type_oem* DDR_SCMO_info_oem;
}BIMC_propdata_type_oem;
void BIMC_Error_Init( void );
const static BIMC_BRIC_info_type_oem BRIC_info_oem[] =
{
    {"BRIC INTERRUPT 1", 1, 1}
};
const static BIMC_DEFAULT_info_type_oem DEFAULT_info_oem[] =
{
    {"DEFAULT SWAY INTERRUPT", 1, 1}
};
const static BIMC_DDR_SCMO_info_type_oem DDR_SCMO_info_oem[] =
{
    {"DDR0 SCMO INTERRUPT", 1, 1}
};
const BIMC_propdata_type_oem BIMC_propdata_oem =
{
    sizeof(BRIC_info_oem)/sizeof(BIMC_BRIC_info_type_oem),
    BRIC_info_oem,
    sizeof(DEFAULT_info_oem)/sizeof(BIMC_DEFAULT_info_type_oem),
    DEFAULT_info_oem,
    sizeof(DDR_SCMO_info_oem)/sizeof(BIMC_DDR_SCMO_info_type_oem),
    DDR_SCMO_info_oem,
};
